%!PS-Adobe-3.0 EPSF-3.0
%%Creator: cairo 1.16.0 (https://cairographics.org)
%%CreationDate: Thu Dec  3 11:23:14 2020
%%Pages: 1
%%DocumentData: Clean7Bit
%%LanguageLevel: 3
%%BoundingBox: 42 5 342 378
%%EndComments
%%BeginProlog
50 dict begin
/q { gsave } bind def
/Q { grestore } bind def
/cm { 6 array astore concat } bind def
/w { setlinewidth } bind def
/J { setlinecap } bind def
/j { setlinejoin } bind def
/M { setmiterlimit } bind def
/d { setdash } bind def
/m { moveto } bind def
/l { lineto } bind def
/c { curveto } bind def
/h { closepath } bind def
/re { exch dup neg 3 1 roll 5 3 roll moveto 0 rlineto
      0 exch rlineto 0 rlineto closepath } bind def
/S { stroke } bind def
/f { fill } bind def
/f* { eofill } bind def
/n { newpath } bind def
/W { clip } bind def
/W* { eoclip } bind def
/BT { } bind def
/ET { } bind def
/BDC { mark 3 1 roll /BDC pdfmark } bind def
/EMC { mark /EMC pdfmark } bind def
/cairo_store_point { /cairo_point_y exch def /cairo_point_x exch def } def
/Tj { show currentpoint cairo_store_point } bind def
/TJ {
  {
    dup
    type /stringtype eq
    { show } { -0.001 mul 0 cairo_font_matrix dtransform rmoveto } ifelse
  } forall
  currentpoint cairo_store_point
} bind def
/cairo_selectfont { cairo_font_matrix aload pop pop pop 0 0 6 array astore
    cairo_font exch selectfont cairo_point_x cairo_point_y moveto } bind def
/Tf { pop /cairo_font exch def /cairo_font_matrix where
      { pop cairo_selectfont } if } bind def
/Td { matrix translate cairo_font_matrix matrix concatmatrix dup
      /cairo_font_matrix exch def dup 4 get exch 5 get cairo_store_point
      /cairo_font where { pop cairo_selectfont } if } bind def
/Tm { 2 copy 8 2 roll 6 array astore /cairo_font_matrix exch def
      cairo_store_point /cairo_font where { pop cairo_selectfont } if } bind def
/g { setgray } bind def
/rg { setrgbcolor } bind def
/d1 { setcachedevice } bind def
/cairo_data_source {
  CairoDataIndex CairoData length lt
    { CairoData CairoDataIndex get /CairoDataIndex CairoDataIndex 1 add def }
    { () } ifelse
} def
/cairo_flush_ascii85_file { cairo_ascii85_file status { cairo_ascii85_file flushfile } if } def
/cairo_image { image cairo_flush_ascii85_file } def
/cairo_imagemask { imagemask cairo_flush_ascii85_file } def
%%EndProlog
%%BeginSetup
%%EndSetup
%%Page: 1 1
%%BeginPageSetup
%%PageBoundingBox: 42 5 342 378
%%EndPageSetup
q 42 5 300 373 rectclip
1 0 0 -1 0 384 cm q
q
216.469 300.984 m 210.105 307.348 l 208.934 308.52 207.035 308.52 205.863
 307.348 c 184.648 286.137 l 183.48 284.965 183.48 283.066 184.648 281.895
 c 191.016 275.531 l 192.141 274.406 192.773 272.879 192.773 271.289 c 192.773
 269.695 192.141 268.172 191.016 267.047 c 174.047 250.074 l 172.918 248.949
 171.395 248.316 169.801 248.316 c 168.211 248.316 166.684 248.949 165.559
 250.074 c 146.465 269.164 l 142.527 273.105 140.316 278.445 140.316 284.016
 c 140.316 289.586 142.527 294.926 146.465 298.867 c 193.137 345.535 l 201.344
 353.723 214.629 353.723 222.836 345.535 c 241.93 326.441 l 243.055 325.316
 243.688 323.793 243.688 322.199 c 243.688 320.609 243.055 319.082 241.93
 317.957 c 224.957 300.988 l 223.832 299.859 222.305 299.227 220.715 299.227
 c 219.121 299.227 217.598 299.859 216.469 300.984 c h
214.352 337.051 m 210.836 340.562 205.137 340.562 201.621 337.051 c 154.949
 290.379 l 151.441 286.863 151.441 281.168 154.949 277.652 c 169.801 262.801
 l 178.285 271.285 l 176.164 273.406 l 170.309 279.266 170.309 288.762 176.164
 294.621 c 197.379 315.836 l 203.238 321.684 212.73 321.684 218.59 315.836
 c 220.711 313.711 l 229.199 322.199 l h
214.352 337.051 m W n
[0.75 0 0 0.75 0 0] concat
/CairoFunction
<< /FunctionType 3
   /Domain [ 0 1 ]
   /Functions [
   << /FunctionType 2
      /Domain [ 0 1 ]
      /C0 [ 0 0.247059 0.541176 ]
      /C1 [ 0 0.843137 0.87451 ]
      /N 1
   >>
   << /FunctionType 2
      /Domain [ 0 1 ]
      /C0 [ 0 0.843137 0.87451 ]
      /C1 [ 0 0.427451 0.941176 ]
      /N 1
   >>
   ]
   /Bounds [ 0.518 ]
   /Encode [ 1 1 2 { pop 0 1 } for ]
>>
def
   << /ShadingType 2
      /ColorSpace /DeviceRGB
      /Coords [ 88.070999 567.929016 578.794983 77.205002 ]
      /Extend [ true true ]
      /Function CairoFunction
   >>
shfill
Q
q
297.773 44.391 m 269.484 19.637 231.914 6 192 6 c 152.086 6 114.516 19.637
 86.227 44.391 c 57.703 69.344 42 102.594 42 138 c 42 141.312 44.688 144
 48 144 c 50.871 144 l 128.453 254.82 l 111.523 278.605 109.293 309.852 
122.676 335.801 c 136.055 361.746 162.805 378.051 192 378.051 c 221.195 
378.051 247.945 361.746 261.324 335.801 c 274.707 309.852 272.477 278.605
 255.547 254.82 c 333.129 144 l 336 144 l 339.312 144 342 141.312 342 138
 c 342 102.594 326.297 69.344 297.773 44.391 c h
198 18.621 m 211.094 21.324 223.469 32.828 233.355 51.691 c 244.641 73.238
 251.168 101.566 251.926 132 c 198 132 l h
226.191 144 m 205.094 223.102 l 196.426 221.633 187.574 221.633 178.906
 223.102 c 157.809 144 l h
186 18.621 m 186 132 l 132.074 132 l 132.832 101.566 139.359 73.238 150.645
 51.691 c 160.531 32.828 172.906 21.324 186 18.621 c h
157.395 21.816 m 151.02 28.148 145.164 36.293 140.016 46.125 c 127.859 
69.336 120.848 99.637 120.074 132 c 54.172 132 l 57.195 78.871 100.141 34.727
 157.395 21.816 c h
65.527 144 m 145.387 144 l 167.266 226.02 l 155.617 229.941 145.059 236.551
 136.441 245.309 c h
258 300 m 258 326.695 241.918 350.762 217.258 360.977 c 192.594 371.191
 164.207 365.543 145.332 346.668 c 126.457 327.793 120.809 299.406 131.023
 274.742 c 141.238 250.082 165.305 234 192 234 c 228.434 234.043 257.957
 263.566 258 300 c h
247.559 245.309 m 238.941 236.551 228.383 229.941 216.734 226.02 c 238.613
 144 l 318.473 144 l h
263.926 132 m 263.152 99.637 256.141 69.336 243.984 46.125 c 238.836 36.293
 232.98 28.148 226.605 21.816 c 283.859 34.727 326.805 78.871 329.828 132
 c h
263.926 132 m W n
[0.75 0 0 0.75 0 0] concat
/CairoFunction
<< /FunctionType 3
   /Domain [ 0 1 ]
   /Functions [
   << /FunctionType 2
      /Domain [ 0 1 ]
      /C0 [ 0 0.247059 0.541176 ]
      /C1 [ 0 0.843137 0.87451 ]
      /N 1
   >>
   << /FunctionType 2
      /Domain [ 0 1 ]
      /C0 [ 0 0.843137 0.87451 ]
      /C1 [ 0 0.427451 0.941176 ]
      /N 1
   >>
   ]
   /Bounds [ 0.518 ]
   /Encode [ 1 1 2 { pop 0 1 } for ]
>>
def
   << /ShadingType 2
      /ColorSpace /DeviceRGB
      /Coords [ 4.213 484.070007 494.937012 -6.653 ]
      /Extend [ true true ]
      /Function CairoFunction
   >>
shfill
Q
Q Q
showpage
%%Trailer
end
%%EOF
