%!PS-Adobe-3.0 EPSF-3.0
%%Creator: cairo 1.16.0 (https://cairographics.org)
%%CreationDate: Thu Dec  3 11:23:15 2020
%%Pages: 1
%%DocumentData: Clean7Bit
%%LanguageLevel: 3
%%BoundingBox: 6 10 379 373
%%EndComments
%%BeginProlog
50 dict begin
/q { gsave } bind def
/Q { grestore } bind def
/cm { 6 array astore concat } bind def
/w { setlinewidth } bind def
/J { setlinecap } bind def
/j { setlinejoin } bind def
/M { setmiterlimit } bind def
/d { setdash } bind def
/m { moveto } bind def
/l { lineto } bind def
/c { curveto } bind def
/h { closepath } bind def
/re { exch dup neg 3 1 roll 5 3 roll moveto 0 rlineto
      0 exch rlineto 0 rlineto closepath } bind def
/S { stroke } bind def
/f { fill } bind def
/f* { eofill } bind def
/n { newpath } bind def
/W { clip } bind def
/W* { eoclip } bind def
/BT { } bind def
/ET { } bind def
/BDC { mark 3 1 roll /BDC pdfmark } bind def
/EMC { mark /EMC pdfmark } bind def
/cairo_store_point { /cairo_point_y exch def /cairo_point_x exch def } def
/Tj { show currentpoint cairo_store_point } bind def
/TJ {
  {
    dup
    type /stringtype eq
    { show } { -0.001 mul 0 cairo_font_matrix dtransform rmoveto } ifelse
  } forall
  currentpoint cairo_store_point
} bind def
/cairo_selectfont { cairo_font_matrix aload pop pop pop 0 0 6 array astore
    cairo_font exch selectfont cairo_point_x cairo_point_y moveto } bind def
/Tf { pop /cairo_font exch def /cairo_font_matrix where
      { pop cairo_selectfont } if } bind def
/Td { matrix translate cairo_font_matrix matrix concatmatrix dup
      /cairo_font_matrix exch def dup 4 get exch 5 get cairo_store_point
      /cairo_font where { pop cairo_selectfont } if } bind def
/Tm { 2 copy 8 2 roll 6 array astore /cairo_font_matrix exch def
      cairo_store_point /cairo_font where { pop cairo_selectfont } if } bind def
/g { setgray } bind def
/rg { setrgbcolor } bind def
/d1 { setcachedevice } bind def
/cairo_data_source {
  CairoDataIndex CairoData length lt
    { CairoData CairoDataIndex get /CairoDataIndex CairoDataIndex 1 add def }
    { () } ifelse
} def
/cairo_flush_ascii85_file { cairo_ascii85_file status { cairo_ascii85_file flushfile } if } def
/cairo_image { image cairo_flush_ascii85_file } def
/cairo_imagemask { imagemask cairo_flush_ascii85_file } def
%%EndProlog
%%BeginSetup
%%EndSetup
%%Page: 1 1
%%BeginPageSetup
%%PageBoundingBox: 6 10 379 373
%%EndPageSetup
q 6 10 373 363 rectclip
1 0 0 -1 0 384 cm q
q
311.207 107.484 m 310.082 106.359 308.555 105.727 306.965 105.727 c 305.371
 105.727 303.844 106.359 302.719 107.484 c 296.355 113.848 l 295.184 115.02
 293.285 115.02 292.113 113.848 c 270.898 92.637 l 269.73 91.465 269.73 
89.566 270.898 88.395 c 277.266 82.031 l 278.391 80.906 279.023 79.379 279.023
 77.789 c 279.023 76.195 278.391 74.672 277.266 73.547 c 260.297 56.574 
l 259.168 55.449 257.645 54.816 256.051 54.816 c 254.461 54.816 252.934 
55.449 251.809 56.574 c 232.715 75.664 l 228.777 79.605 226.566 84.945 226.566
 90.516 c 226.566 96.086 228.777 101.426 232.715 105.367 c 279.387 152.035
 l 287.594 160.223 300.879 160.223 309.086 152.035 c 328.18 132.941 l 329.305
 131.816 329.938 130.293 329.938 128.699 c 329.938 127.109 329.305 125.582
 328.18 124.457 c h
300.602 143.551 m 297.086 147.062 291.387 147.062 287.871 143.551 c 241.199
 96.879 l 237.691 93.363 237.691 87.668 241.199 84.152 c 256.051 69.301 
l 264.535 77.785 l 262.414 79.906 l 256.559 85.766 256.559 95.262 262.414
 101.121 c 283.629 122.336 l 289.488 128.184 298.98 128.184 304.84 122.336
 c 306.961 120.211 l 315.449 128.699 l h
300.602 143.551 m W n
[0.75 0 0 0.75 0 0] concat
/CairoFunction
<< /FunctionType 3
   /Domain [ 0 1 ]
   /Functions [
   << /FunctionType 2
      /Domain [ 0 1 ]
      /C0 [ 0 0.247059 0.541176 ]
      /C1 [ 0 0.843137 0.87451 ]
      /N 1
   >>
   << /FunctionType 2
      /Domain [ 0 1 ]
      /C0 [ 0 0.843137 0.87451 ]
      /C1 [ 0 0.427451 0.941176 ]
      /N 1
   >>
   ]
   /Bounds [ 0.518 ]
   /Encode [ 1 1 2 { pop 0 1 } for ]
>>
def
   << /ShadingType 2
      /ColorSpace /DeviceRGB
      /Coords [ 16.316 496.68399 498.588989 14.411 ]
      /Extend [ true true ]
      /Function CairoFunction
   >>
shfill
Q
q
324.031 313.531 m 247.852 313.531 l 248.023 308.586 246.16 303.785 242.691
 300.254 c 193.914 247.281 l 190.5 243.582 185.699 241.477 180.668 241.469
 c 180.629 241.469 l 72 241.531 l 72 229.5 l 72 226.188 69.312 223.5 66 
223.5 c 12 223.5 l 8.688 223.5 6 226.188 6 229.5 c 6 337.5 l 6 340.812 8.688
 343.5 12 343.5 c 66 343.5 l 69.312 343.5 72 340.812 72 337.5 c 72 325.531
 l 108.352 325.531 l 109.926 325.531 111.441 326.148 112.566 327.246 c 154.336
 368.391 l 157.695 371.691 162.219 373.535 166.926 373.531 c 324.031 373.531
 l 333.965 373.516 342.016 365.465 342.031 355.531 c 342.031 331.531 l 342.02
 321.594 333.969 313.539 324.031 313.531 c h
60 331.5 m 18 331.5 l 18 235.5 l 60 235.5 l h
330.031 355.531 m 330.027 358.844 327.344 361.527 324.031 361.531 c 166.926
 361.531 l 165.359 361.531 163.855 360.922 162.734 359.828 c 120.988 318.703
 l 117.629 315.375 113.082 313.516 108.352 313.531 c 72.031 313.531 l 72.031
 253.531 l 180.652 253.469 l 180.668 253.469 l 182.344 253.473 183.941 254.172
 185.078 255.406 c 233.941 308.461 l 233.992 308.523 234.051 308.582 234.113
 308.641 c 236.125 310.66 236.445 313.816 234.879 316.199 c 234.652 316.535
 234.395 316.844 234.113 317.129 c 225.629 325.613 l 223.285 327.953 219.484
 327.953 217.141 325.613 c 178.957 287.43 l 177.844 286.258 176.301 285.582
 174.684 285.562 c 173.066 285.543 171.508 286.176 170.363 287.32 c 169.223
 288.465 168.586 290.023 168.609 291.641 c 168.629 293.258 169.301 294.797
 170.477 295.914 c 208.656 334.094 l 215.688 341.125 227.082 341.125 234.113
 334.094 c 242.594 325.613 l 242.625 325.59 242.648 325.551 242.676 325.531
 c 324.031 325.531 l 327.344 325.531 330.031 328.215 330.031 331.531 c h
330.031 355.531 m W n
[0.75 0 0 0.75 0 0] concat
/CairoFunction
<< /FunctionType 3
   /Domain [ 0 1 ]
   /Functions [
   << /FunctionType 2
      /Domain [ 0 1 ]
      /C0 [ 0 0.247059 0.541176 ]
      /C1 [ 0 0.843137 0.87451 ]
      /N 1
   >>
   << /FunctionType 2
      /Domain [ 0 1 ]
      /C0 [ 0 0.843137 0.87451 ]
      /C1 [ 0 0.427451 0.941176 ]
      /N 1
   >>
   ]
   /Bounds [ 0.518 ]
   /Encode [ 1 1 2 { pop 0 1 } for ]
>>
def
   << /ShadingType 2
      /ColorSpace /DeviceRGB
      /Coords [ 72.487999 552.856018 554.760986 70.583 ]
      /Extend [ true true ]
      /Function CairoFunction
   >>
shfill
Q
q
313.52 18.582 m 261.145 -1.914 201.859 24.02 181.359 76.398 c 164.547 119.375
 178.676 168.293 215.816 195.688 c 220.082 242.621 l 220.289 244.883 221.758
 246.836 223.871 247.664 c 225.988 248.492 228.391 248.055 230.078 246.531
 c 265.066 214.957 l 310.938 220.047 354.512 193.711 371.336 150.734 c 391.828
 98.359 365.895 39.074 313.52 18.582 c h
360.16 146.363 m 352.789 165.418 339.09 181.359 321.355 191.508 c 303.988
 201.512 283.785 205.457 263.926 202.727 c 262.168 202.477 260.391 203.023
 259.07 204.215 c 230.953 229.586 l 227.523 191.867 l 227.363 190.098 226.426
 188.492 224.969 187.48 c 208.527 176.012 196.367 159.398 190.398 140.262
 c 184.266 120.773 185.02 99.77 192.539 80.773 c 210.652 34.484 262.863 
11.645 309.148 29.758 c 355.438 47.871 378.277 100.078 360.164 146.367 c
 h
360.16 146.363 m W n
[0.75 0 0 0.75 0 0] concat
/CairoFunction
<< /FunctionType 3
   /Domain [ 0 1 ]
   /Functions [
   << /FunctionType 2
      /Domain [ 0 1 ]
      /C0 [ 0 0.247059 0.541176 ]
      /C1 [ 0 0.843137 0.87451 ]
      /N 1
   >>
   << /FunctionType 2
      /Domain [ 0 1 ]
      /C0 [ 0 0.843137 0.87451 ]
      /C1 [ 0 0.427451 0.941176 ]
      /N 1
   >>
   ]
   /Bounds [ 0.518 ]
   /Encode [ 1 1 2 { pop 0 1 } for ]
>>
def
   << /ShadingType 2
      /ColorSpace /DeviceRGB
      /Coords [ 19.754999 500.122986 502.028015 17.85 ]
      /Extend [ true true ]
      /Function CairoFunction
   >>
shfill
Q
Q Q
showpage
%%Trailer
end
%%EOF
