%!PS-Adobe-3.0 EPSF-3.0
%%Creator: cairo 1.16.0 (https://cairographics.org)
%%CreationDate: Thu Dec  3 11:23:16 2020
%%Pages: 1
%%DocumentData: Clean7Bit
%%LanguageLevel: 3
%%BoundingBox: 36 6 342 378
%%EndComments
%%BeginProlog
50 dict begin
/q { gsave } bind def
/Q { grestore } bind def
/cm { 6 array astore concat } bind def
/w { setlinewidth } bind def
/J { setlinecap } bind def
/j { setlinejoin } bind def
/M { setmiterlimit } bind def
/d { setdash } bind def
/m { moveto } bind def
/l { lineto } bind def
/c { curveto } bind def
/h { closepath } bind def
/re { exch dup neg 3 1 roll 5 3 roll moveto 0 rlineto
      0 exch rlineto 0 rlineto closepath } bind def
/S { stroke } bind def
/f { fill } bind def
/f* { eofill } bind def
/n { newpath } bind def
/W { clip } bind def
/W* { eoclip } bind def
/BT { } bind def
/ET { } bind def
/BDC { mark 3 1 roll /BDC pdfmark } bind def
/EMC { mark /EMC pdfmark } bind def
/cairo_store_point { /cairo_point_y exch def /cairo_point_x exch def } def
/Tj { show currentpoint cairo_store_point } bind def
/TJ {
  {
    dup
    type /stringtype eq
    { show } { -0.001 mul 0 cairo_font_matrix dtransform rmoveto } ifelse
  } forall
  currentpoint cairo_store_point
} bind def
/cairo_selectfont { cairo_font_matrix aload pop pop pop 0 0 6 array astore
    cairo_font exch selectfont cairo_point_x cairo_point_y moveto } bind def
/Tf { pop /cairo_font exch def /cairo_font_matrix where
      { pop cairo_selectfont } if } bind def
/Td { matrix translate cairo_font_matrix matrix concatmatrix dup
      /cairo_font_matrix exch def dup 4 get exch 5 get cairo_store_point
      /cairo_font where { pop cairo_selectfont } if } bind def
/Tm { 2 copy 8 2 roll 6 array astore /cairo_font_matrix exch def
      cairo_store_point /cairo_font where { pop cairo_selectfont } if } bind def
/g { setgray } bind def
/rg { setrgbcolor } bind def
/d1 { setcachedevice } bind def
/cairo_data_source {
  CairoDataIndex CairoData length lt
    { CairoData CairoDataIndex get /CairoDataIndex CairoDataIndex 1 add def }
    { () } ifelse
} def
/cairo_flush_ascii85_file { cairo_ascii85_file status { cairo_ascii85_file flushfile } if } def
/cairo_image { image cairo_flush_ascii85_file } def
/cairo_imagemask { imagemask cairo_flush_ascii85_file } def
%%EndProlog
%%BeginSetup
%%EndSetup
%%Page: 1 1
%%BeginPageSetup
%%PageBoundingBox: 36 6 342 378
%%EndPageSetup
q 36 6 306 372 rectclip
1 0 0 -1 0 384 cm q
q
321 6 m 75 6 l 63.406 6.012 54.012 15.406 54 27 c 54 36 l 42 36 l 38.688
 36 36 38.688 36 42 c 36 66 l 36 69.312 38.688 72 42 72 c 54 72 l 54 96 
l 42 96 l 38.688 96 36 98.688 36 102 c 36 126 l 36 129.312 38.688 132 42
 132 c 54 132 l 54 156 l 42 156 l 38.688 156 36 158.688 36 162 c 36 186 
l 36 189.312 38.688 192 42 192 c 54 192 l 54 216 l 42 216 l 38.688 216 36
 218.688 36 222 c 36 246 l 36 249.312 38.688 252 42 252 c 54 252 l 54 276
 l 42 276 l 38.688 276 36 278.688 36 282 c 36 306 l 36 309.312 38.688 312
 42 312 c 54 312 l 54 321 l 54.012 332.594 63.406 341.988 75 342 c 264 342
 l 264 372 l 264.004 374.211 265.223 376.242 267.172 377.285 c 269.121 378.332
 271.488 378.219 273.328 376.996 c 288 367.207 l 302.672 376.996 l 303.656
 377.652 304.816 378 306 378 c 309.312 377.992 311.992 375.312 312 372 c
 312 342 l 321 342 l 332.594 341.988 341.988 332.594 342 321 c 342 27 l 
341.988 15.406 332.594 6.012 321 6 c h
48 60 m 48 48 l 72 48 l 72 60 l h
48 120 m 48 108 l 72 108 l 72 120 l h
48 180 m 48 168 l 72 168 l 72 180 l h
48 240 m 48 228 l 72 228 l 72 240 l h
48 300 m 48 288 l 72 288 l 72 300 l h
90 330 m 75 330 l 70.031 329.996 66.004 325.969 66 321 c 66 312 l 78 312
 l 81.312 312 84 309.312 84 306 c 84 282 l 84 278.688 81.312 276 78 276 
c 66 276 l 66 252 l 78 252 l 81.312 252 84 249.312 84 246 c 84 222 l 84 
218.688 81.312 216 78 216 c 66 216 l 66 192 l 78 192 l 81.312 192 84 189.312
 84 186 c 84 162 l 84 158.688 81.312 156 78 156 c 66 156 l 66 132 l 78 132
 l 81.312 132 84 129.312 84 126 c 84 102 l 84 98.688 81.312 96 78 96 c 66
 96 l 66 72 l 78 72 l 81.312 72 84 69.312 84 66 c 84 42 l 84 38.688 81.312
 36 78 36 c 66 36 l 66 27 l 66.004 22.031 70.031 18.004 75 18 c 90 18 l 
h
300 360.789 m 291.328 355.004 l 289.312 353.664 286.688 353.664 284.672
 355.004 c 276 360.789 l 276 342 l 300 342 l h
330 321 m 329.996 325.969 325.969 329.996 321 330 c 102 330 l 102 18 l 
321 18 l 325.969 18.004 329.996 22.031 330 27 c h
330 321 m W n
[0.75 0 0 0.75 0 0] concat
/CairoFunction
<< /FunctionType 3
   /Domain [ 0 1 ]
   /Functions [
   << /FunctionType 2
      /Domain [ 0 1 ]
      /C0 [ 0 0.247059 0.541176 ]
      /C1 [ 0 0.843137 0.87451 ]
      /N 1
   >>
   << /FunctionType 2
      /Domain [ 0 1 ]
      /C0 [ 0 0.843137 0.87451 ]
      /C1 [ 0 0.427451 0.941176 ]
      /N 1
   >>
   ]
   /Bounds [ 0.518 ]
   /Encode [ 1 1 2 { pop 0 1 } for ]
>>
def
   << /ShadingType 2
      /ColorSpace /DeviceRGB
      /Coords [ 13.004 492.862 486.760986 19.105 ]
      /Extend [ true true ]
      /Function CairoFunction
   >>
shfill
Q
q
216 90 m 206.293 90 197.543 95.848 193.828 104.816 c 190.113 113.785 192.164
 124.105 199.031 130.969 c 205.895 137.836 216.215 139.887 225.184 136.172
 c 234.152 132.457 240 123.707 240 114 c 239.984 100.75 229.25 90.016 216
 90 c h
216 126 m 211.145 126 206.77 123.078 204.914 118.594 c 203.055 114.109 
204.082 108.945 207.516 105.516 c 210.945 102.082 216.109 101.055 220.594
 102.914 c 225.078 104.77 228 109.145 228 114 c 227.992 120.625 222.625 
125.992 216 126 c h
216 126 m W n
[0.75 0 0 0.75 0 0] concat
/CairoFunction
<< /FunctionType 3
   /Domain [ 0 1 ]
   /Functions [
   << /FunctionType 2
      /Domain [ 0 1 ]
      /C0 [ 0 0.247059 0.541176 ]
      /C1 [ 0 0.843137 0.87451 ]
      /N 1
   >>
   << /FunctionType 2
      /Domain [ 0 1 ]
      /C0 [ 0 0.843137 0.87451 ]
      /C1 [ 0 0.427451 0.941176 ]
      /N 1
   >>
   ]
   /Bounds [ 0.518 ]
   /Encode [ 1 1 2 { pop 0 1 } for ]
>>
def
   << /ShadingType 2
      /ColorSpace /DeviceRGB
      /Coords [ -19.929001 459.928986 453.828003 -13.828 ]
      /Extend [ true true ]
      /Function CairoFunction
   >>
shfill
Q
q
234 144 m 198 144 l 194.688 144 192 146.688 192 150 c 192 246 l 192 249.312
 194.688 252 198 252 c 234 252 l 237.312 252 240 249.312 240 246 c 240 150
 l 240 146.688 237.312 144 234 144 c h
228 240 m 204 240 l 204 156 l 228 156 l h
228 240 m W n
[0.75 0 0 0.75 0 0] concat
/CairoFunction
<< /FunctionType 3
   /Domain [ 0 1 ]
   /Functions [
   << /FunctionType 2
      /Domain [ 0 1 ]
      /C0 [ 0 0.247059 0.541176 ]
      /C1 [ 0 0.843137 0.87451 ]
      /N 1
   >>
   << /FunctionType 2
      /Domain [ 0 1 ]
      /C0 [ 0 0.843137 0.87451 ]
      /C1 [ 0 0.427451 0.941176 ]
      /N 1
   >>
   ]
   /Bounds [ 0.518 ]
   /Encode [ 1 1 2 { pop 0 1 } for ]
>>
def
   << /ShadingType 2
      /ColorSpace /DeviceRGB
      /Coords [ 36.070999 515.929016 509.828003 42.172001 ]
      /Extend [ true true ]
      /Function CairoFunction
   >>
shfill
Q
q
216 72 m 159.758 72 114 117.758 114 174 c 114 230.242 159.758 276 216 276
 c 272.242 276 318 230.242 318 174 c 318 117.758 272.242 72 216 72 c h
216 264 m 179.598 264 146.781 242.07 132.852 208.441 c 118.922 174.812 
126.621 136.102 152.359 110.359 c 178.102 84.621 216.812 76.922 250.441 
90.852 c 284.07 104.781 306 137.598 306 174 c 305.945 223.684 265.684 263.945
 216 264 c h
216 264 m W n
[0.75 0 0 0.75 0 0] concat
/CairoFunction
<< /FunctionType 3
   /Domain [ 0 1 ]
   /Functions [
   << /FunctionType 2
      /Domain [ 0 1 ]
      /C0 [ 0 0.247059 0.541176 ]
      /C1 [ 0 0.843137 0.87451 ]
      /N 1
   >>
   << /FunctionType 2
      /Domain [ 0 1 ]
      /C0 [ 0 0.843137 0.87451 ]
      /C1 [ 0 0.427451 0.941176 ]
      /N 1
   >>
   ]
   /Bounds [ 0.518 ]
   /Encode [ 1 1 2 { pop 0 1 } for ]
>>
def
   << /ShadingType 2
      /ColorSpace /DeviceRGB
      /Coords [ 20.070999 499.928986 493.828003 26.172001 ]
      /Extend [ true true ]
      /Function CairoFunction
   >>
shfill
Q
Q Q
showpage
%%Trailer
end
%%EOF
