%!PS-Adobe-3.0 EPSF-3.0
%%Creator: cairo 1.16.0 (https://cairographics.org)
%%CreationDate: Thu Dec  3 11:23:18 2020
%%Pages: 1
%%DocumentData: Clean7Bit
%%LanguageLevel: 3
%%BoundingBox: 6 6 378 378
%%EndComments
%%BeginProlog
50 dict begin
/q { gsave } bind def
/Q { grestore } bind def
/cm { 6 array astore concat } bind def
/w { setlinewidth } bind def
/J { setlinecap } bind def
/j { setlinejoin } bind def
/M { setmiterlimit } bind def
/d { setdash } bind def
/m { moveto } bind def
/l { lineto } bind def
/c { curveto } bind def
/h { closepath } bind def
/re { exch dup neg 3 1 roll 5 3 roll moveto 0 rlineto
      0 exch rlineto 0 rlineto closepath } bind def
/S { stroke } bind def
/f { fill } bind def
/f* { eofill } bind def
/n { newpath } bind def
/W { clip } bind def
/W* { eoclip } bind def
/BT { } bind def
/ET { } bind def
/BDC { mark 3 1 roll /BDC pdfmark } bind def
/EMC { mark /EMC pdfmark } bind def
/cairo_store_point { /cairo_point_y exch def /cairo_point_x exch def } def
/Tj { show currentpoint cairo_store_point } bind def
/TJ {
  {
    dup
    type /stringtype eq
    { show } { -0.001 mul 0 cairo_font_matrix dtransform rmoveto } ifelse
  } forall
  currentpoint cairo_store_point
} bind def
/cairo_selectfont { cairo_font_matrix aload pop pop pop 0 0 6 array astore
    cairo_font exch selectfont cairo_point_x cairo_point_y moveto } bind def
/Tf { pop /cairo_font exch def /cairo_font_matrix where
      { pop cairo_selectfont } if } bind def
/Td { matrix translate cairo_font_matrix matrix concatmatrix dup
      /cairo_font_matrix exch def dup 4 get exch 5 get cairo_store_point
      /cairo_font where { pop cairo_selectfont } if } bind def
/Tm { 2 copy 8 2 roll 6 array astore /cairo_font_matrix exch def
      cairo_store_point /cairo_font where { pop cairo_selectfont } if } bind def
/g { setgray } bind def
/rg { setrgbcolor } bind def
/d1 { setcachedevice } bind def
/cairo_data_source {
  CairoDataIndex CairoData length lt
    { CairoData CairoDataIndex get /CairoDataIndex CairoDataIndex 1 add def }
    { () } ifelse
} def
/cairo_flush_ascii85_file { cairo_ascii85_file status { cairo_ascii85_file flushfile } if } def
/cairo_image { image cairo_flush_ascii85_file } def
/cairo_imagemask { imagemask cairo_flush_ascii85_file } def
%%EndProlog
%%BeginSetup
%%EndSetup
%%Page: 1 1
%%BeginPageSetup
%%PageBoundingBox: 6 6 378 378
%%EndPageSetup
q 6 6 372 372 rectclip
1 0 0 -1 0 384 cm q
q
193.137 135.535 m 201.344 143.723 214.629 143.723 222.836 135.535 c 241.93
 116.441 l 243.055 115.316 243.688 113.789 243.688 112.199 c 243.688 110.605
 243.055 109.082 241.93 107.953 c 224.953 90.984 l 222.613 88.641 218.812
 88.641 216.469 90.984 c 210.105 97.348 l 208.934 98.52 207.035 98.52 205.863
 97.348 c 184.648 76.137 l 183.48 74.965 183.48 73.066 184.648 71.895 c 
191.016 65.531 l 193.355 63.188 193.355 59.387 191.016 57.047 c 174.047 
40.074 l 172.918 38.949 171.395 38.316 169.801 38.316 c 168.211 38.316 166.684
 38.949 165.559 40.074 c 146.465 59.164 l 142.527 63.105 140.316 68.445 
140.316 74.016 c 140.316 79.586 142.527 84.926 146.465 88.867 c h
154.949 67.648 m 169.801 52.801 l 178.285 61.285 l 176.164 63.406 l 173.352
 66.219 171.77 70.035 171.77 74.016 c 171.77 77.992 173.352 81.809 176.164
 84.621 c 197.375 105.836 l 200.191 108.648 204.004 110.227 207.984 110.227
 c 211.961 110.227 215.777 108.648 218.59 105.836 c 220.711 103.711 l 229.199
 112.199 l 214.352 127.051 l 210.836 130.562 205.137 130.562 201.621 127.051
 c 154.949 80.379 l 151.441 76.859 151.441 71.168 154.949 67.648 c h
154.949 67.648 m W n
[0.75 0 0 0.75 0 0] concat
/CairoFunction
<< /FunctionType 3
   /Domain [ 0 1 ]
   /Functions [
   << /FunctionType 2
      /Domain [ 0 1 ]
      /C0 [ 0 0.247059 0.541176 ]
      /C1 [ 0 0.843137 0.87451 ]
      /N 1
   >>
   << /FunctionType 2
      /Domain [ 0 1 ]
      /C0 [ 0 0.843137 0.87451 ]
      /C1 [ 0 0.427451 0.941176 ]
      /N 1
   >>
   ]
   /Bounds [ 0.518 ]
   /Encode [ 1 1 2 { pop 0 1 } for ]
>>
def
   << /ShadingType 2
      /ColorSpace /DeviceRGB
      /Coords [ -67.314003 443.313995 453.647003 -77.647003 ]
      /Extend [ true true ]
      /Function CairoFunction
   >>
shfill
Q
q
357 108 m 274.027 108 l 275.336 102.09 276 96.055 276 90 c 276 43.609 238.391
 6 192 6 c 145.609 6 108 43.609 108 90 c 108 96.055 108.664 102.09 109.973
 108 c 27 108 l 15.406 108.012 6.012 117.406 6 129 c 6 357 l 6.012 368.594
 15.406 377.988 27 378 c 357 378 l 368.594 377.988 377.988 368.594 378 357
 c 378 129 l 377.988 117.406 368.594 108.012 357 108 c h
192 18 m 228.926 18.008 259.863 45.941 263.625 82.676 c 267.387 119.406
 242.754 153.031 206.594 160.523 c 204.793 160.895 203.262 162.07 202.441
 163.719 c 192 184.59 l 181.559 163.719 l 180.738 162.07 179.207 160.895
 177.406 160.523 c 141.246 153.031 116.613 119.406 120.375 82.676 c 124.137
 45.941 155.074 18.008 192 18 c h
18 129 m 18.004 124.031 22.031 120.004 27 120 c 113.594 120 l 116.957 128.727
 121.746 136.84 127.762 144 c 18 144 l h
366 357 m 365.996 361.969 361.969 365.996 357 366 c 27 366 l 22.031 365.996
 18.004 361.969 18 357 c 18 156 l 140.113 156 l 149.527 163.457 160.438 
168.789 172.102 171.629 c 186.629 200.684 l 187.648 202.719 189.727 204 
192 204 c 194.273 204 196.352 202.719 197.371 200.684 c 211.898 171.629 
l 223.562 168.789 234.473 163.457 243.887 156 c 366 156 l h
366 144 m 256.238 144 l 262.254 136.84 267.043 128.727 270.406 120 c 357
 120 l 361.969 120.004 365.996 124.031 366 129 c h
366 144 m W n
[0.75 0 0 0.75 0 0] concat
/CairoFunction
<< /FunctionType 3
   /Domain [ 0 1 ]
   /Functions [
   << /FunctionType 2
      /Domain [ 0 1 ]
      /C0 [ 0 0.247059 0.541176 ]
      /C1 [ 0 0.843137 0.87451 ]
      /N 1
   >>
   << /FunctionType 2
      /Domain [ 0 1 ]
      /C0 [ 0 0.843137 0.87451 ]
      /C1 [ 0 0.427451 0.941176 ]
      /N 1
   >>
   ]
   /Bounds [ 0.518 ]
   /Encode [ 1 1 2 { pop 0 1 } for ]
>>
def
   << /ShadingType 2
      /ColorSpace /DeviceRGB
      /Coords [ 34.686001 545.314026 555.646973 24.353001 ]
      /Extend [ true true ]
      /Function CairoFunction
   >>
shfill
Q
q
30 138 m 36 138 l 39.312 138 42 135.312 42 132 c 42 128.688 39.312 126 
36 126 c 30 126 l 26.688 126 24 128.688 24 132 c 24 135.312 26.688 138 30
 138 c h
30 138 m W n
[0.75 0 0 0.75 0 0] concat
/CairoFunction
<< /FunctionType 3
   /Domain [ 0 1 ]
   /Functions [
   << /FunctionType 2
      /Domain [ 0 1 ]
      /C0 [ 0 0.247059 0.541176 ]
      /C1 [ 0 0.843137 0.87451 ]
      /N 1
   >>
   << /FunctionType 2
      /Domain [ 0 1 ]
      /C0 [ 0 0.843137 0.87451 ]
      /C1 [ 0 0.427451 0.941176 ]
      /N 1
   >>
   ]
   /Bounds [ 0.518 ]
   /Encode [ 1 1 2 { pop 0 1 } for ]
>>
def
   << /ShadingType 2
      /ColorSpace /DeviceRGB
      /Coords [ -145.313995 365.313995 375.647003 -155.647003 ]
      /Extend [ true true ]
      /Function CairoFunction
   >>
shfill
Q
q
54 138 m 60 138 l 63.312 138 66 135.312 66 132 c 66 128.688 63.312 126 
60 126 c 54 126 l 50.688 126 48 128.688 48 132 c 48 135.312 50.688 138 54
 138 c h
54 138 m W n
[0.75 0 0 0.75 0 0] concat
/CairoFunction
<< /FunctionType 3
   /Domain [ 0 1 ]
   /Functions [
   << /FunctionType 2
      /Domain [ 0 1 ]
      /C0 [ 0 0.247059 0.541176 ]
      /C1 [ 0 0.843137 0.87451 ]
      /N 1
   >>
   << /FunctionType 2
      /Domain [ 0 1 ]
      /C0 [ 0 0.843137 0.87451 ]
      /C1 [ 0 0.427451 0.941176 ]
      /N 1
   >>
   ]
   /Bounds [ 0.518 ]
   /Encode [ 1 1 2 { pop 0 1 } for ]
>>
def
   << /ShadingType 2
      /ColorSpace /DeviceRGB
      /Coords [ -129.313995 381.313995 391.647003 -139.647003 ]
      /Extend [ true true ]
      /Function CairoFunction
   >>
shfill
Q
q
78 138 m 84 138 l 87.312 138 90 135.312 90 132 c 90 128.688 87.312 126 
84 126 c 78 126 l 74.688 126 72 128.688 72 132 c 72 135.312 74.688 138 78
 138 c h
78 138 m W n
[0.75 0 0 0.75 0 0] concat
/CairoFunction
<< /FunctionType 3
   /Domain [ 0 1 ]
   /Functions [
   << /FunctionType 2
      /Domain [ 0 1 ]
      /C0 [ 0 0.247059 0.541176 ]
      /C1 [ 0 0.843137 0.87451 ]
      /N 1
   >>
   << /FunctionType 2
      /Domain [ 0 1 ]
      /C0 [ 0 0.843137 0.87451 ]
      /C1 [ 0 0.427451 0.941176 ]
      /N 1
   >>
   ]
   /Bounds [ 0.518 ]
   /Encode [ 1 1 2 { pop 0 1 } for ]
>>
def
   << /ShadingType 2
      /ColorSpace /DeviceRGB
      /Coords [ -113.314003 397.313995 407.647003 -123.647003 ]
      /Extend [ true true ]
      /Function CairoFunction
   >>
shfill
Q
q
222 234 m 162 234 l 158.688 234 156 236.688 156 240 c 156 300 l 156 303.312
 158.688 306 162 306 c 222 306 l 225.312 306 228 303.312 228 300 c 228 240
 l 228 236.688 225.312 234 222 234 c h
216 294 m 168 294 l 168 246 l 216 246 l h
216 294 m W n
[0.75 0 0 0.75 0 0] concat
/CairoFunction
<< /FunctionType 3
   /Domain [ 0 1 ]
   /Functions [
   << /FunctionType 2
      /Domain [ 0 1 ]
      /C0 [ 0 0.247059 0.541176 ]
      /C1 [ 0 0.843137 0.87451 ]
      /N 1
   >>
   << /FunctionType 2
      /Domain [ 0 1 ]
      /C0 [ 0 0.843137 0.87451 ]
      /C1 [ 0 0.427451 0.941176 ]
      /N 1
   >>
   ]
   /Bounds [ 0.518 ]
   /Encode [ 1 1 2 { pop 0 1 } for ]
>>
def
   << /ShadingType 2
      /ColorSpace /DeviceRGB
      /Coords [ 52.686001 563.314026 573.646973 42.353001 ]
      /Extend [ true true ]
      /Function CairoFunction
   >>
shfill
Q
Q Q
showpage
%%Trailer
end
%%EOF
