%!PS-Adobe-3.0 EPSF-3.0
%%Creator: cairo 1.16.0 (https://cairographics.org)
%%CreationDate: Thu Dec  3 11:23:20 2020
%%Pages: 1
%%DocumentData: Clean7Bit
%%LanguageLevel: 3
%%BoundingBox: 6 12 378 372
%%EndComments
%%BeginProlog
50 dict begin
/q { gsave } bind def
/Q { grestore } bind def
/cm { 6 array astore concat } bind def
/w { setlinewidth } bind def
/J { setlinecap } bind def
/j { setlinejoin } bind def
/M { setmiterlimit } bind def
/d { setdash } bind def
/m { moveto } bind def
/l { lineto } bind def
/c { curveto } bind def
/h { closepath } bind def
/re { exch dup neg 3 1 roll 5 3 roll moveto 0 rlineto
      0 exch rlineto 0 rlineto closepath } bind def
/S { stroke } bind def
/f { fill } bind def
/f* { eofill } bind def
/n { newpath } bind def
/W { clip } bind def
/W* { eoclip } bind def
/BT { } bind def
/ET { } bind def
/BDC { mark 3 1 roll /BDC pdfmark } bind def
/EMC { mark /EMC pdfmark } bind def
/cairo_store_point { /cairo_point_y exch def /cairo_point_x exch def } def
/Tj { show currentpoint cairo_store_point } bind def
/TJ {
  {
    dup
    type /stringtype eq
    { show } { -0.001 mul 0 cairo_font_matrix dtransform rmoveto } ifelse
  } forall
  currentpoint cairo_store_point
} bind def
/cairo_selectfont { cairo_font_matrix aload pop pop pop 0 0 6 array astore
    cairo_font exch selectfont cairo_point_x cairo_point_y moveto } bind def
/Tf { pop /cairo_font exch def /cairo_font_matrix where
      { pop cairo_selectfont } if } bind def
/Td { matrix translate cairo_font_matrix matrix concatmatrix dup
      /cairo_font_matrix exch def dup 4 get exch 5 get cairo_store_point
      /cairo_font where { pop cairo_selectfont } if } bind def
/Tm { 2 copy 8 2 roll 6 array astore /cairo_font_matrix exch def
      cairo_store_point /cairo_font where { pop cairo_selectfont } if } bind def
/g { setgray } bind def
/rg { setrgbcolor } bind def
/d1 { setcachedevice } bind def
/cairo_data_source {
  CairoDataIndex CairoData length lt
    { CairoData CairoDataIndex get /CairoDataIndex CairoDataIndex 1 add def }
    { () } ifelse
} def
/cairo_flush_ascii85_file { cairo_ascii85_file status { cairo_ascii85_file flushfile } if } def
/cairo_image { image cairo_flush_ascii85_file } def
/cairo_imagemask { imagemask cairo_flush_ascii85_file } def
%%EndProlog
%%BeginSetup
%%EndSetup
%%Page: 1 1
%%BeginPageSetup
%%PageBoundingBox: 6 12 378 372
%%EndPageSetup
q 6 12 372 360 rectclip
1 0 0 -1 0 384 cm q
q
342 30 m 318 30 l 318 18 l 318 14.688 315.312 12 312 12 c 288 12 l 284.688
 12 282 14.688 282 18 c 282 30 l 264 30 l 264 18 l 264 14.688 261.312 12
 258 12 c 234 12 l 230.688 12 228 14.688 228 18 c 228 30 l 210 30 l 210 
18 l 210 14.688 207.312 12 204 12 c 180 12 l 176.688 12 174 14.688 174 18
 c 174 30 l 156 30 l 156 18 l 156 14.688 153.312 12 150 12 c 126 12 l 122.688
 12 120 14.688 120 18 c 120 30 l 102 30 l 102 18 l 102 14.688 99.312 12 
96 12 c 72 12 l 68.688 12 66 14.688 66 18 c 66 30 l 42 30 l 22.125 30.02
 6.02 46.125 6 66 c 6 336 l 6.02 355.875 22.125 371.98 42 372 c 342 372 
l 361.875 371.98 377.98 355.875 378 336 c 378 66 l 377.98 46.125 361.875
 30.02 342 30 c h
294 24 m 306 24 l 306 48 l 294 48 l h
240 24 m 252 24 l 252 48 l 240 48 l h
186 24 m 198 24 l 198 48 l 186 48 l h
132 24 m 144 24 l 144 48 l 132 48 l h
78 24 m 90 24 l 90 48 l 78 48 l h
366 336 m 365.984 349.246 355.246 359.984 342 360 c 42 360 l 28.754 359.984
 18.016 349.246 18 336 c 18 320.805 l 24.59 326.73 33.137 330.008 42 330
 c 318 330 l 319.59 330 321.117 329.371 322.246 328.246 c 366 284.484 l 
h
324 309.516 m 324 276 l 357.516 276 l h
366 264 m 318 264 l 314.688 264 312 266.688 312 270 c 312 318 l 42 318 
l 28.754 317.984 18.016 307.246 18 294 c 18 84 l 366 84 l h
366 72 m 18 72 l 18 66 l 18.016 52.754 28.754 42.016 42 42 c 66 42 l 66
 54 l 66 57.312 68.688 60 72 60 c 96 60 l 99.312 60 102 57.312 102 54 c 
102 42 l 120 42 l 120 54 l 120 57.312 122.688 60 126 60 c 150 60 l 153.312
 60 156 57.312 156 54 c 156 42 l 174 42 l 174 54 l 174 57.312 176.688 60
 180 60 c 204 60 l 207.312 60 210 57.312 210 54 c 210 42 l 228 42 l 228 
54 l 228 57.312 230.688 60 234 60 c 258 60 l 261.312 60 264 57.312 264 54
 c 264 42 l 282 42 l 282 54 l 282 57.312 284.688 60 288 60 c 312 60 l 315.312
 60 318 57.312 318 54 c 318 42 l 342 42 l 355.246 42.016 365.984 52.754 
366 66 c h
366 72 m W n
[0.75 0 0 0.75 0 0] concat
/CairoFunction
<< /FunctionType 3
   /Domain [ 0 1 ]
   /Functions [
   << /FunctionType 2
      /Domain [ 0 1 ]
      /C0 [ 0 0.247059 0.541176 ]
      /C1 [ 0 0.843137 0.87451 ]
      /N 1
   >>
   << /FunctionType 2
      /Domain [ 0 1 ]
      /C0 [ 0 0.843137 0.87451 ]
      /C1 [ 0 0.427451 0.941176 ]
      /N 1
   >>
   ]
   /Bounds [ 0.518 ]
   /Encode [ 1 1 2 { pop 0 1 } for ]
>>
def
   << /ShadingType 2
      /ColorSpace /DeviceRGB
      /Coords [ 23.601999 500.39801 516.807007 7.193 ]
      /Extend [ true true ]
      /Function CairoFunction
   >>
shfill
Q
q
162 168 m 222 168 l 225.312 168 228 165.312 228 162 c 228 102 l 228 98.688
 225.312 96 222 96 c 162 96 l 158.688 96 156 98.688 156 102 c 156 162 l 
156 165.312 158.688 168 162 168 c h
168 108 m 216 108 l 216 156 l 168 156 l h
168 108 m W n
[0.75 0 0 0.75 0 0] concat
/CairoFunction
<< /FunctionType 3
   /Domain [ 0 1 ]
   /Functions [
   << /FunctionType 2
      /Domain [ 0 1 ]
      /C0 [ 0 0.247059 0.541176 ]
      /C1 [ 0 0.843137 0.87451 ]
      /N 1
   >>
   << /FunctionType 2
      /Domain [ 0 1 ]
      /C0 [ 0 0.843137 0.87451 ]
      /C1 [ 0 0.427451 0.941176 ]
      /N 1
   >>
   ]
   /Bounds [ 0.518 ]
   /Encode [ 1 1 2 { pop 0 1 } for ]
>>
def
   << /ShadingType 2
      /ColorSpace /DeviceRGB
      /Coords [ -22.398001 454.39801 470.807007 -38.806999 ]
      /Extend [ true true ]
      /Function CairoFunction
   >>
shfill
Q
q
72 168 m 132 168 l 135.312 168 138 165.312 138 162 c 138 102 l 138 98.688
 135.312 96 132 96 c 72 96 l 68.688 96 66 98.688 66 102 c 66 162 l 66 165.312
 68.688 168 72 168 c h
78 108 m 126 108 l 126 156 l 78 156 l h
78 108 m W n
[0.75 0 0 0.75 0 0] concat
/CairoFunction
<< /FunctionType 3
   /Domain [ 0 1 ]
   /Functions [
   << /FunctionType 2
      /Domain [ 0 1 ]
      /C0 [ 0 0.247059 0.541176 ]
      /C1 [ 0 0.843137 0.87451 ]
      /N 1
   >>
   << /FunctionType 2
      /Domain [ 0 1 ]
      /C0 [ 0 0.843137 0.87451 ]
      /C1 [ 0 0.427451 0.941176 ]
      /N 1
   >>
   ]
   /Bounds [ 0.518 ]
   /Encode [ 1 1 2 { pop 0 1 } for ]
>>
def
   << /ShadingType 2
      /ColorSpace /DeviceRGB
      /Coords [ -82.398003 394.39801 410.807007 -98.806999 ]
      /Extend [ true true ]
      /Function CairoFunction
   >>
shfill
Q
q
208.242 115.758 m 207.117 114.633 205.59 114 204 114 c 202.41 114 200.883
 114.633 199.758 115.758 c 192 123.516 l 184.242 115.758 l 181.898 113.414
 178.102 113.414 175.758 115.758 c 173.414 118.102 173.414 121.898 175.758
 124.242 c 183.516 132 l 175.758 139.758 l 173.414 142.102 173.414 145.898
 175.758 148.242 c 178.102 150.586 181.898 150.586 184.242 148.242 c 192
 140.484 l 199.758 148.242 l 202.102 150.586 205.898 150.586 208.242 148.242
 c 210.586 145.898 210.586 142.102 208.242 139.758 c 200.484 132 l 208.242
 124.242 l 209.367 123.117 210 121.59 210 120 c 210 118.41 209.367 116.883
 208.242 115.758 c h
208.242 115.758 m W n
[0.75 0 0 0.75 0 0] concat
/CairoFunction
<< /FunctionType 3
   /Domain [ 0 1 ]
   /Functions [
   << /FunctionType 2
      /Domain [ 0 1 ]
      /C0 [ 0 0.247059 0.541176 ]
      /C1 [ 0 0.843137 0.87451 ]
      /N 1
   >>
   << /FunctionType 2
      /Domain [ 0 1 ]
      /C0 [ 0 0.843137 0.87451 ]
      /C1 [ 0 0.427451 0.941176 ]
      /N 1
   >>
   ]
   /Bounds [ 0.518 ]
   /Encode [ 1 1 2 { pop 0 1 } for ]
>>
def
   << /ShadingType 2
      /ColorSpace /DeviceRGB
      /Coords [ -22.398001 454.39801 470.807007 -38.806999 ]
      /Extend [ true true ]
      /Function CairoFunction
   >>
shfill
Q
q
117.602 115.199 m 114.949 113.211 111.188 113.75 109.199 116.398 c 97.023
 132.633 l 95.367 129.316 l 93.871 126.379 90.285 125.203 87.336 126.676
 c 84.391 128.148 83.184 131.727 84.633 134.684 c 90.633 146.684 l 91.562
 148.543 93.391 149.789 95.461 149.977 c 95.641 149.992 95.82 150 96 150
 c 97.891 150 99.668 149.109 100.801 147.602 c 118.801 123.602 l 119.754
 122.328 120.164 120.727 119.941 119.152 c 119.715 117.574 118.875 116.156
 117.602 115.199 c h
117.602 115.199 m W n
[0.75 0 0 0.75 0 0] concat
/CairoFunction
<< /FunctionType 3
   /Domain [ 0 1 ]
   /Functions [
   << /FunctionType 2
      /Domain [ 0 1 ]
      /C0 [ 0 0.247059 0.541176 ]
      /C1 [ 0 0.843137 0.87451 ]
      /N 1
   >>
   << /FunctionType 2
      /Domain [ 0 1 ]
      /C0 [ 0 0.843137 0.87451 ]
      /C1 [ 0 0.427451 0.941176 ]
      /N 1
   >>
   ]
   /Bounds [ 0.518 ]
   /Encode [ 1 1 2 { pop 0 1 } for ]
>>
def
   << /ShadingType 2
      /ColorSpace /DeviceRGB
      /Coords [ -84.398003 392.397003 408.807007 -100.807999 ]
      /Extend [ true true ]
      /Function CairoFunction
   >>
shfill
Q
q
252 168 m 312 168 l 315.312 168 318 165.312 318 162 c 318 102 l 318 98.688
 315.312 96 312 96 c 252 96 l 248.688 96 246 98.688 246 102 c 246 162 l 
246 165.312 248.688 168 252 168 c h
258 108 m 306 108 l 306 156 l 258 156 l h
258 108 m W n
[0.75 0 0 0.75 0 0] concat
/CairoFunction
<< /FunctionType 3
   /Domain [ 0 1 ]
   /Functions [
   << /FunctionType 2
      /Domain [ 0 1 ]
      /C0 [ 0 0.247059 0.541176 ]
      /C1 [ 0 0.843137 0.87451 ]
      /N 1
   >>
   << /FunctionType 2
      /Domain [ 0 1 ]
      /C0 [ 0 0.843137 0.87451 ]
      /C1 [ 0 0.427451 0.941176 ]
      /N 1
   >>
   ]
   /Bounds [ 0.518 ]
   /Encode [ 1 1 2 { pop 0 1 } for ]
>>
def
   << /ShadingType 2
      /ColorSpace /DeviceRGB
      /Coords [ 37.602001 514.39801 530.807007 21.193001 ]
      /Extend [ true true ]
      /Function CairoFunction
   >>
shfill
Q
q
297.602 115.199 m 294.949 113.211 291.188 113.75 289.199 116.398 c 277.023
 132.633 l 275.367 129.316 l 273.871 126.379 270.285 125.203 267.336 126.676
 c 264.391 128.148 263.184 131.727 264.633 134.684 c 270.633 146.684 l 271.562
 148.543 273.391 149.789 275.461 149.977 c 275.641 149.992 275.82 150 276
 150 c 277.891 150 279.668 149.109 280.801 147.602 c 298.801 123.602 l 299.754
 122.328 300.164 120.727 299.941 119.152 c 299.715 117.574 298.875 116.156
 297.602 115.199 c h
297.602 115.199 m W n
[0.75 0 0 0.75 0 0] concat
/CairoFunction
<< /FunctionType 3
   /Domain [ 0 1 ]
   /Functions [
   << /FunctionType 2
      /Domain [ 0 1 ]
      /C0 [ 0 0.247059 0.541176 ]
      /C1 [ 0 0.843137 0.87451 ]
      /N 1
   >>
   << /FunctionType 2
      /Domain [ 0 1 ]
      /C0 [ 0 0.843137 0.87451 ]
      /C1 [ 0 0.427451 0.941176 ]
      /N 1
   >>
   ]
   /Bounds [ 0.518 ]
   /Encode [ 1 1 2 { pop 0 1 } for ]
>>
def
   << /ShadingType 2
      /ColorSpace /DeviceRGB
      /Coords [ 35.602001 512.396973 528.807007 19.191999 ]
      /Extend [ true true ]
      /Function CairoFunction
   >>
shfill
Q
q
72 252 m 132 252 l 135.312 252 138 249.312 138 246 c 138 186 l 138 182.688
 135.312 180 132 180 c 72 180 l 68.688 180 66 182.688 66 186 c 66 246 l 
66 249.312 68.688 252 72 252 c h
78 192 m 126 192 l 126 240 l 78 240 l h
78 192 m W n
[0.75 0 0 0.75 0 0] concat
/CairoFunction
<< /FunctionType 3
   /Domain [ 0 1 ]
   /Functions [
   << /FunctionType 2
      /Domain [ 0 1 ]
      /C0 [ 0 0.247059 0.541176 ]
      /C1 [ 0 0.843137 0.87451 ]
      /N 1
   >>
   << /FunctionType 2
      /Domain [ 0 1 ]
      /C0 [ 0 0.843137 0.87451 ]
      /C1 [ 0 0.427451 0.941176 ]
      /N 1
   >>
   ]
   /Bounds [ 0.518 ]
   /Encode [ 1 1 2 { pop 0 1 } for ]
>>
def
   << /ShadingType 2
      /ColorSpace /DeviceRGB
      /Coords [ -26.398001 450.39801 466.807007 -42.806999 ]
      /Extend [ true true ]
      /Function CairoFunction
   >>
shfill
Q
q
118.242 199.758 m 117.117 198.633 115.59 198 114 198 c 112.41 198 110.883
 198.633 109.758 199.758 c 102 207.516 l 94.242 199.758 l 91.898 197.414
 88.102 197.414 85.758 199.758 c 83.414 202.102 83.414 205.898 85.758 208.242
 c 93.516 216 l 85.758 223.758 l 83.414 226.102 83.414 229.898 85.758 232.242
 c 88.102 234.586 91.898 234.586 94.242 232.242 c 102 224.484 l 109.758 
232.242 l 112.102 234.586 115.898 234.586 118.242 232.242 c 120.586 229.898
 120.586 226.102 118.242 223.758 c 110.484 216 l 118.242 208.242 l 119.367
 207.117 120 205.59 120 204 c 120 202.41 119.367 200.883 118.242 199.758
 c h
118.242 199.758 m W n
[0.75 0 0 0.75 0 0] concat
/CairoFunction
<< /FunctionType 3
   /Domain [ 0 1 ]
   /Functions [
   << /FunctionType 2
      /Domain [ 0 1 ]
      /C0 [ 0 0.247059 0.541176 ]
      /C1 [ 0 0.843137 0.87451 ]
      /N 1
   >>
   << /FunctionType 2
      /Domain [ 0 1 ]
      /C0 [ 0 0.843137 0.87451 ]
      /C1 [ 0 0.427451 0.941176 ]
      /N 1
   >>
   ]
   /Bounds [ 0.518 ]
   /Encode [ 1 1 2 { pop 0 1 } for ]
>>
def
   << /ShadingType 2
      /ColorSpace /DeviceRGB
      /Coords [ -26.398001 450.39801 466.807007 -42.806999 ]
      /Extend [ true true ]
      /Function CairoFunction
   >>
shfill
Q
q
252 252 m 312 252 l 315.312 252 318 249.312 318 246 c 318 186 l 318 182.688
 315.312 180 312 180 c 252 180 l 248.688 180 246 182.688 246 186 c 246 246
 l 246 249.312 248.688 252 252 252 c h
258 192 m 306 192 l 306 240 l 258 240 l h
258 192 m W n
[0.75 0 0 0.75 0 0] concat
/CairoFunction
<< /FunctionType 3
   /Domain [ 0 1 ]
   /Functions [
   << /FunctionType 2
      /Domain [ 0 1 ]
      /C0 [ 0 0.247059 0.541176 ]
      /C1 [ 0 0.843137 0.87451 ]
      /N 1
   >>
   << /FunctionType 2
      /Domain [ 0 1 ]
      /C0 [ 0 0.843137 0.87451 ]
      /C1 [ 0 0.427451 0.941176 ]
      /N 1
   >>
   ]
   /Bounds [ 0.518 ]
   /Encode [ 1 1 2 { pop 0 1 } for ]
>>
def
   << /ShadingType 2
      /ColorSpace /DeviceRGB
      /Coords [ 93.601997 570.39801 586.807007 77.193001 ]
      /Extend [ true true ]
      /Function CairoFunction
   >>
shfill
Q
q
297.602 199.199 m 294.949 197.211 291.188 197.75 289.199 200.398 c 277.023
 216.633 l 275.367 213.316 l 273.871 210.379 270.285 209.203 267.336 210.676
 c 264.391 212.148 263.184 215.727 264.633 218.684 c 270.633 230.684 l 271.562
 232.543 273.391 233.789 275.461 233.977 c 275.641 233.992 275.82 234 276
 234 c 277.891 234 279.668 233.109 280.801 231.602 c 298.801 207.602 l 299.754
 206.328 300.164 204.727 299.941 203.152 c 299.715 201.574 298.875 200.156
 297.602 199.199 c h
297.602 199.199 m W n
[0.75 0 0 0.75 0 0] concat
/CairoFunction
<< /FunctionType 3
   /Domain [ 0 1 ]
   /Functions [
   << /FunctionType 2
      /Domain [ 0 1 ]
      /C0 [ 0 0.247059 0.541176 ]
      /C1 [ 0 0.843137 0.87451 ]
      /N 1
   >>
   << /FunctionType 2
      /Domain [ 0 1 ]
      /C0 [ 0 0.843137 0.87451 ]
      /C1 [ 0 0.427451 0.941176 ]
      /N 1
   >>
   ]
   /Bounds [ 0.518 ]
   /Encode [ 1 1 2 { pop 0 1 } for ]
>>
def
   << /ShadingType 2
      /ColorSpace /DeviceRGB
      /Coords [ 91.601997 568.396973 584.807007 75.192001 ]
      /Extend [ true true ]
      /Function CairoFunction
   >>
shfill
Q
q
162 252 m 222 252 l 225.312 252 228 249.312 228 246 c 228 186 l 228 182.688
 225.312 180 222 180 c 162 180 l 158.688 180 156 182.688 156 186 c 156 246
 l 156 249.312 158.688 252 162 252 c h
168 192 m 216 192 l 216 240 l 168 240 l h
168 192 m W n
[0.75 0 0 0.75 0 0] concat
/CairoFunction
<< /FunctionType 3
   /Domain [ 0 1 ]
   /Functions [
   << /FunctionType 2
      /Domain [ 0 1 ]
      /C0 [ 0 0.247059 0.541176 ]
      /C1 [ 0 0.843137 0.87451 ]
      /N 1
   >>
   << /FunctionType 2
      /Domain [ 0 1 ]
      /C0 [ 0 0.843137 0.87451 ]
      /C1 [ 0 0.427451 0.941176 ]
      /N 1
   >>
   ]
   /Bounds [ 0.518 ]
   /Encode [ 1 1 2 { pop 0 1 } for ]
>>
def
   << /ShadingType 2
      /ColorSpace /DeviceRGB
      /Coords [ 33.602001 510.39801 526.807007 17.193001 ]
      /Extend [ true true ]
      /Function CairoFunction
   >>
shfill
Q
q
207.602 199.199 m 204.949 197.211 201.188 197.75 199.199 200.398 c 187.023
 216.633 l 185.367 213.316 l 183.871 210.379 180.285 209.203 177.336 210.676
 c 174.391 212.148 173.184 215.727 174.633 218.684 c 180.633 230.684 l 181.562
 232.543 183.391 233.789 185.461 233.977 c 185.641 233.992 185.82 234 186
 234 c 187.891 234 189.668 233.109 190.801 231.602 c 208.801 207.602 l 209.754
 206.328 210.164 204.727 209.941 203.152 c 209.715 201.574 208.875 200.156
 207.602 199.199 c h
207.602 199.199 m W n
[0.75 0 0 0.75 0 0] concat
/CairoFunction
<< /FunctionType 3
   /Domain [ 0 1 ]
   /Functions [
   << /FunctionType 2
      /Domain [ 0 1 ]
      /C0 [ 0 0.247059 0.541176 ]
      /C1 [ 0 0.843137 0.87451 ]
      /N 1
   >>
   << /FunctionType 2
      /Domain [ 0 1 ]
      /C0 [ 0 0.843137 0.87451 ]
      /C1 [ 0 0.427451 0.941176 ]
      /N 1
   >>
   ]
   /Bounds [ 0.518 ]
   /Encode [ 1 1 2 { pop 0 1 } for ]
>>
def
   << /ShadingType 2
      /ColorSpace /DeviceRGB
      /Coords [ 31.601999 508.397003 524.807007 15.192 ]
      /Extend [ true true ]
      /Function CairoFunction
   >>
shfill
Q
Q Q
showpage
%%Trailer
end
%%EOF
