%!PS-Adobe-3.0 EPSF-3.0
%%Creator: cairo 1.16.0 (https://cairographics.org)
%%CreationDate: Thu Dec  3 11:23:22 2020
%%Pages: 1
%%DocumentData: Clean7Bit
%%LanguageLevel: 3
%%BoundingBox: 5 6 378 378
%%EndComments
%%BeginProlog
50 dict begin
/q { gsave } bind def
/Q { grestore } bind def
/cm { 6 array astore concat } bind def
/w { setlinewidth } bind def
/J { setlinecap } bind def
/j { setlinejoin } bind def
/M { setmiterlimit } bind def
/d { setdash } bind def
/m { moveto } bind def
/l { lineto } bind def
/c { curveto } bind def
/h { closepath } bind def
/re { exch dup neg 3 1 roll 5 3 roll moveto 0 rlineto
      0 exch rlineto 0 rlineto closepath } bind def
/S { stroke } bind def
/f { fill } bind def
/f* { eofill } bind def
/n { newpath } bind def
/W { clip } bind def
/W* { eoclip } bind def
/BT { } bind def
/ET { } bind def
/BDC { mark 3 1 roll /BDC pdfmark } bind def
/EMC { mark /EMC pdfmark } bind def
/cairo_store_point { /cairo_point_y exch def /cairo_point_x exch def } def
/Tj { show currentpoint cairo_store_point } bind def
/TJ {
  {
    dup
    type /stringtype eq
    { show } { -0.001 mul 0 cairo_font_matrix dtransform rmoveto } ifelse
  } forall
  currentpoint cairo_store_point
} bind def
/cairo_selectfont { cairo_font_matrix aload pop pop pop 0 0 6 array astore
    cairo_font exch selectfont cairo_point_x cairo_point_y moveto } bind def
/Tf { pop /cairo_font exch def /cairo_font_matrix where
      { pop cairo_selectfont } if } bind def
/Td { matrix translate cairo_font_matrix matrix concatmatrix dup
      /cairo_font_matrix exch def dup 4 get exch 5 get cairo_store_point
      /cairo_font where { pop cairo_selectfont } if } bind def
/Tm { 2 copy 8 2 roll 6 array astore /cairo_font_matrix exch def
      cairo_store_point /cairo_font where { pop cairo_selectfont } if } bind def
/g { setgray } bind def
/rg { setrgbcolor } bind def
/d1 { setcachedevice } bind def
/cairo_data_source {
  CairoDataIndex CairoData length lt
    { CairoData CairoDataIndex get /CairoDataIndex CairoDataIndex 1 add def }
    { () } ifelse
} def
/cairo_flush_ascii85_file { cairo_ascii85_file status { cairo_ascii85_file flushfile } if } def
/cairo_image { image cairo_flush_ascii85_file } def
/cairo_imagemask { imagemask cairo_flush_ascii85_file } def
%%EndProlog
%%BeginSetup
%%EndSetup
%%Page: 1 1
%%BeginPageSetup
%%PageBoundingBox: 5 6 378 378
%%EndPageSetup
q 5 6 373 372 rectclip
1 0 0 -1 0 384 cm q
q
310.094 300.855 m 253.973 244.734 l 244.598 235.363 229.402 235.363 220.027
 244.734 c 173.016 291.75 l 169.902 294.871 165.324 296.031 161.102 294.766
 c 126.227 284.309 98.945 257.027 88.484 222.156 c 87.223 217.93 88.383 
213.352 91.5 210.234 c 138.516 163.223 l 147.867 153.84 147.867 138.66 138.516
 129.277 c 82.395 73.156 l 77.555 68.32 70.887 65.773 64.059 66.148 c 57.301
 66.516 51.016 69.738 46.777 75.016 c 43.719 78.832 40.777 82.824 38.031
 86.863 c 38.023 86.863 38.023 86.863 38.023 86.871 c -12.012 160.719 -2.59
 259.688 60.484 322.766 c 123.562 385.84 222.531 395.262 296.379 345.227
 c 296.387 345.227 l 300.426 342.473 304.418 339.531 308.234 336.473 c 313.512
 332.23 316.734 325.949 317.109 319.191 c 317.477 312.363 314.93 305.695
 310.094 300.855 c h
56.145 82.516 m 58.234 79.887 61.355 78.289 64.711 78.129 c 68.137 77.941
 71.48 79.219 73.906 81.645 c 130.027 137.766 l 134.707 142.453 134.707 
150.047 130.027 154.734 c 123 161.766 l 50.789 89.559 l 52.516 87.164 54.309
 84.809 56.145 82.516 c h
192 365.25 m 128.898 365.234 70.746 331.066 40.023 275.949 c 9.297 220.832
 10.816 153.398 43.988 99.719 c 114.516 170.25 l 83.016 201.75 l 76.777 
207.98 74.461 217.133 76.98 225.586 c 88.594 264.34 118.91 294.656 157.664
 306.27 c 166.117 308.793 175.27 306.477 181.5 300.234 c 213 268.734 l 283.531
 339.262 l 256.047 356.305 224.34 365.309 192 365.25 c h
305.121 318.531 m 304.965 321.887 303.363 325.012 300.734 327.105 c 298.441
 328.941 296.086 330.734 293.691 332.461 c 221.484 260.25 l 228.516 253.223
 l 230.766 250.969 233.816 249.703 237 249.703 c 240.184 249.703 243.234
 250.969 245.484 253.223 c 301.605 309.344 l 304.027 311.77 305.309 315.109
 305.121 318.531 c h
305.121 318.531 m W n
[0.75 0 0 0.75 0 0] concat
/CairoFunction
<< /FunctionType 3
   /Domain [ 0 1 ]
   /Functions [
   << /FunctionType 2
      /Domain [ 0 1 ]
      /C0 [ 0 0.247059 0.541176 ]
      /C1 [ 0 0.843137 0.87451 ]
      /N 1
   >>
   << /FunctionType 2
      /Domain [ 0 1 ]
      /C0 [ 0 0.843137 0.87451 ]
      /C1 [ 0 0.427451 0.941176 ]
      /N 1
   >>
   ]
   /Bounds [ 0.518 ]
   /Encode [ 1 1 2 { pop 0 1 } for ]
>>
def
   << /ShadingType 2
      /ColorSpace /DeviceRGB
      /Coords [ 15.196 495.803986 518.690002 -7.69 ]
      /Extend [ true true ]
      /Function CairoFunction
   >>
shfill
Q
q
377.867 26.977 m 377.836 15.395 368.449 6.016 356.867 6 c 207 6 l 195.406
 6.012 186.012 15.406 186 27 c 186 117 l 186.012 128.594 195.406 137.988
 207 138 c 222 138 l 222 168 l 222 170.426 223.461 172.613 225.703 173.543
 c 227.945 174.473 230.527 173.957 232.242 172.242 c 266.484 138 l 356.984
 138 l 362.559 138 367.902 135.785 371.84 131.84 c 375.781 127.898 377.992
 122.551 377.984 116.977 c h
363.352 123.359 m 361.668 125.055 359.375 126.008 356.984 126 c 264 126
 l 262.41 126 260.883 126.633 259.758 127.758 c 234 153.516 l 234 132 l 
234 128.688 231.312 126 228 126 c 207 126 l 202.031 125.996 198.004 121.969
 198 117 c 198 27 l 198.004 22.031 202.031 18.004 207 18 c 356.867 18 l 
361.832 18.008 365.855 22.027 365.867 26.992 c 365.984 116.992 l 365.992
 119.383 365.047 121.676 363.352 123.359 c h
363.352 123.359 m W n
[0.75 0 0 0.75 0 0] concat
/CairoFunction
<< /FunctionType 3
   /Domain [ 0 1 ]
   /Functions [
   << /FunctionType 2
      /Domain [ 0 1 ]
      /C0 [ 0 0.247059 0.541176 ]
      /C1 [ 0 0.843137 0.87451 ]
      /N 1
   >>
   << /FunctionType 2
      /Domain [ 0 1 ]
      /C0 [ 0 0.843137 0.87451 ]
      /C1 [ 0 0.427451 0.941176 ]
      /N 1
   >>
   ]
   /Bounds [ 0.518 ]
   /Encode [ 1 1 2 { pop 0 1 } for ]
>>
def
   << /ShadingType 2
      /ColorSpace /DeviceRGB
      /Coords [ -4.305 476.303009 499.188995 -27.191 ]
      /Extend [ true true ]
      /Function CairoFunction
   >>
shfill
Q
q
348 30 m 216 30 l 212.688 30 210 32.688 210 36 c 210 39.312 212.688 42 
216 42 c 348 42 l 351.312 42 354 39.312 354 36 c 354 32.688 351.312 30 348
 30 c h
348 30 m W n
[0.75 0 0 0.75 0 0] concat
/CairoFunction
<< /FunctionType 3
   /Domain [ 0 1 ]
   /Functions [
   << /FunctionType 2
      /Domain [ 0 1 ]
      /C0 [ 0 0.247059 0.541176 ]
      /C1 [ 0 0.843137 0.87451 ]
      /N 1
   >>
   << /FunctionType 2
      /Domain [ 0 1 ]
      /C0 [ 0 0.843137 0.87451 ]
      /C1 [ 0 0.427451 0.941176 ]
      /N 1
   >>
   ]
   /Bounds [ 0.518 ]
   /Encode [ 1 1 2 { pop 0 1 } for ]
>>
def
   << /ShadingType 2
      /ColorSpace /DeviceRGB
      /Coords [ -28.304001 452.303986 475.190002 -51.189999 ]
      /Extend [ true true ]
      /Function CairoFunction
   >>
shfill
Q
q
348 78 m 216 78 l 212.688 78 210 80.688 210 84 c 210 87.312 212.688 90 
216 90 c 348 90 l 351.312 90 354 87.312 354 84 c 354 80.688 351.312 78 348
 78 c h
348 78 m W n
[0.75 0 0 0.75 0 0] concat
/CairoFunction
<< /FunctionType 3
   /Domain [ 0 1 ]
   /Functions [
   << /FunctionType 2
      /Domain [ 0 1 ]
      /C0 [ 0 0.247059 0.541176 ]
      /C1 [ 0 0.843137 0.87451 ]
      /N 1
   >>
   << /FunctionType 2
      /Domain [ 0 1 ]
      /C0 [ 0 0.843137 0.87451 ]
      /C1 [ 0 0.427451 0.941176 ]
      /N 1
   >>
   ]
   /Bounds [ 0.518 ]
   /Encode [ 1 1 2 { pop 0 1 } for ]
>>
def
   << /ShadingType 2
      /ColorSpace /DeviceRGB
      /Coords [ 3.696 484.303986 507.190002 -19.190001 ]
      /Extend [ true true ]
      /Function CairoFunction
   >>
shfill
Q
q
264 102 m 216 102 l 212.688 102 210 104.688 210 108 c 210 111.312 212.688
 114 216 114 c 264 114 l 267.312 114 270 111.312 270 108 c 270 104.688 267.312
 102 264 102 c h
264 102 m W n
[0.75 0 0 0.75 0 0] concat
/CairoFunction
<< /FunctionType 3
   /Domain [ 0 1 ]
   /Functions [
   << /FunctionType 2
      /Domain [ 0 1 ]
      /C0 [ 0 0.247059 0.541176 ]
      /C1 [ 0 0.843137 0.87451 ]
      /N 1
   >>
   << /FunctionType 2
      /Domain [ 0 1 ]
      /C0 [ 0 0.843137 0.87451 ]
      /C1 [ 0 0.427451 0.941176 ]
      /N 1
   >>
   ]
   /Bounds [ 0.518 ]
   /Encode [ 1 1 2 { pop 0 1 } for ]
>>
def
   << /ShadingType 2
      /ColorSpace /DeviceRGB
      /Coords [ -8.304 472.303986 495.190002 -31.190001 ]
      /Extend [ true true ]
      /Function CairoFunction
   >>
shfill
Q
q
288 102 m 282 102 l 278.688 102 276 104.688 276 108 c 276 111.312 278.688
 114 282 114 c 288 114 l 291.312 114 294 111.312 294 108 c 294 104.688 291.312
 102 288 102 c h
288 102 m W n
[0.75 0 0 0.75 0 0] concat
/CairoFunction
<< /FunctionType 3
   /Domain [ 0 1 ]
   /Functions [
   << /FunctionType 2
      /Domain [ 0 1 ]
      /C0 [ 0 0.247059 0.541176 ]
      /C1 [ 0 0.843137 0.87451 ]
      /N 1
   >>
   << /FunctionType 2
      /Domain [ 0 1 ]
      /C0 [ 0 0.843137 0.87451 ]
      /C1 [ 0 0.427451 0.941176 ]
      /N 1
   >>
   ]
   /Bounds [ 0.518 ]
   /Encode [ 1 1 2 { pop 0 1 } for ]
>>
def
   << /ShadingType 2
      /ColorSpace /DeviceRGB
      /Coords [ 21.695999 502.303986 525.190002 -1.19 ]
      /Extend [ true true ]
      /Function CairoFunction
   >>
shfill
Q
q
348 54 m 216 54 l 212.688 54 210 56.688 210 60 c 210 63.312 212.688 66 
216 66 c 348 66 l 351.312 66 354 63.312 354 60 c 354 56.688 351.312 54 348
 54 c h
348 54 m W n
[0.75 0 0 0.75 0 0] concat
/CairoFunction
<< /FunctionType 3
   /Domain [ 0 1 ]
   /Functions [
   << /FunctionType 2
      /Domain [ 0 1 ]
      /C0 [ 0 0.247059 0.541176 ]
      /C1 [ 0 0.843137 0.87451 ]
      /N 1
   >>
   << /FunctionType 2
      /Domain [ 0 1 ]
      /C0 [ 0 0.843137 0.87451 ]
      /C1 [ 0 0.427451 0.941176 ]
      /N 1
   >>
   ]
   /Bounds [ 0.518 ]
   /Encode [ 1 1 2 { pop 0 1 } for ]
>>
def
   << /ShadingType 2
      /ColorSpace /DeviceRGB
      /Coords [ -12.304 468.303986 491.190002 -35.189999 ]
      /Extend [ true true ]
      /Function CairoFunction
   >>
shfill
Q
Q Q
showpage
%%Trailer
end
%%EOF
