%!PS-Adobe-3.0 EPSF-3.0
%%Creator: cairo 1.16.0 (https://cairographics.org)
%%CreationDate: Thu Dec  3 11:23:23 2020
%%Pages: 1
%%DocumentData: Clean7Bit
%%LanguageLevel: 3
%%BoundingBox: 6 12 378 372
%%EndComments
%%BeginProlog
50 dict begin
/q { gsave } bind def
/Q { grestore } bind def
/cm { 6 array astore concat } bind def
/w { setlinewidth } bind def
/J { setlinecap } bind def
/j { setlinejoin } bind def
/M { setmiterlimit } bind def
/d { setdash } bind def
/m { moveto } bind def
/l { lineto } bind def
/c { curveto } bind def
/h { closepath } bind def
/re { exch dup neg 3 1 roll 5 3 roll moveto 0 rlineto
      0 exch rlineto 0 rlineto closepath } bind def
/S { stroke } bind def
/f { fill } bind def
/f* { eofill } bind def
/n { newpath } bind def
/W { clip } bind def
/W* { eoclip } bind def
/BT { } bind def
/ET { } bind def
/BDC { mark 3 1 roll /BDC pdfmark } bind def
/EMC { mark /EMC pdfmark } bind def
/cairo_store_point { /cairo_point_y exch def /cairo_point_x exch def } def
/Tj { show currentpoint cairo_store_point } bind def
/TJ {
  {
    dup
    type /stringtype eq
    { show } { -0.001 mul 0 cairo_font_matrix dtransform rmoveto } ifelse
  } forall
  currentpoint cairo_store_point
} bind def
/cairo_selectfont { cairo_font_matrix aload pop pop pop 0 0 6 array astore
    cairo_font exch selectfont cairo_point_x cairo_point_y moveto } bind def
/Tf { pop /cairo_font exch def /cairo_font_matrix where
      { pop cairo_selectfont } if } bind def
/Td { matrix translate cairo_font_matrix matrix concatmatrix dup
      /cairo_font_matrix exch def dup 4 get exch 5 get cairo_store_point
      /cairo_font where { pop cairo_selectfont } if } bind def
/Tm { 2 copy 8 2 roll 6 array astore /cairo_font_matrix exch def
      cairo_store_point /cairo_font where { pop cairo_selectfont } if } bind def
/g { setgray } bind def
/rg { setrgbcolor } bind def
/d1 { setcachedevice } bind def
/cairo_data_source {
  CairoDataIndex CairoData length lt
    { CairoData CairoDataIndex get /CairoDataIndex CairoDataIndex 1 add def }
    { () } ifelse
} def
/cairo_flush_ascii85_file { cairo_ascii85_file status { cairo_ascii85_file flushfile } if } def
/cairo_image { image cairo_flush_ascii85_file } def
/cairo_imagemask { imagemask cairo_flush_ascii85_file } def
%%EndProlog
%%BeginSetup
%%EndSetup
%%Page: 1 1
%%BeginPageSetup
%%PageBoundingBox: 6 12 378 372
%%EndPageSetup
q 6 12 372 360 rectclip
1 0 0 -1 0 384 cm q
q
342 168 m 342 150 l 342 146.688 339.312 144 336 144 c 329.863 144 l 326.707
 70.68 266.086 12 192 12 c 117.914 12 57.293 70.68 54.137 144 c 48 144 l
 44.688 144 42 146.688 42 150 c 42 168 l 22.125 168.02 6.02 184.125 6 204
 c 6 276 l 6.02 295.875 22.125 311.98 42 312 c 48 312 l 48 324 l 48.02 343.875
 64.125 359.98 84 360 c 162 360 l 162 366 l 162 369.312 164.688 372 168 
372 c 216 372 l 219.312 372 222 369.312 222 366 c 222 342 l 222 338.688 
219.312 336 216 336 c 168 336 l 164.688 336 162 338.688 162 342 c 162 348
 l 84 348 l 70.75 347.984 60.016 337.25 60 324 c 60 312 l 84 312 l 87.312
 312 90 309.312 90 306 c 90 294 l 93 294 l 104.594 293.988 113.988 284.594
 114 273 c 114 207 l 113.988 195.406 104.594 186.012 93 186 c 90 186 l 90
 150 l 90 93.758 135.758 48 192 48 c 248.242 48 294 93.758 294 150 c 294
 186 l 291 186 l 279.406 186.012 270.012 195.406 270 207 c 270 273 l 270.012
 284.594 279.406 293.988 291 294 c 294 294 l 294 306 l 294 309.312 296.688
 312 300 312 c 342 312 l 361.875 311.98 377.98 295.875 378 276 c 378 204
 l 377.98 184.125 361.875 168.02 342 168 c h
174 348 m 210 348 l 210 360 l 174 360 l h
294 282 m 291 282 l 286.031 281.996 282.004 277.969 282 273 c 282 207 l
 282.004 202.031 286.031 198.004 291 198 c 294 198 l h
330 156 m 330 168 l 306 168 l 306 156 l h
78 300 m 42 300 l 28.75 299.984 18.016 289.25 18 276 c 18 204 l 18.016 
190.75 28.75 180.016 42 180 c 78 180 l h
78 168 m 54 168 l 54 156 l 78 156 l h
93 198 m 97.969 198.004 101.996 202.031 102 207 c 102 273 l 101.996 277.969
 97.969 281.996 93 282 c 90 282 l 90 198 l h
192 36 m 131.152 36 81.285 83.918 78.156 144 c 66.141 144 l 69.293 77.297
 124.539 24 192 24 c 259.461 24 314.707 77.297 317.859 144 c 305.844 144
 l 302.715 83.918 252.848 36 192 36 c h
366 276 m 365.984 289.25 355.25 299.984 342 300 c 306 300 l 306 180 l 342
 180 l 355.25 180.016 365.984 190.75 366 204 c h
366 276 m W n
[0.75 0 0 0.75 0 0] concat
/CairoFunction
<< /FunctionType 3
   /Domain [ 0 1 ]
   /Functions [
   << /FunctionType 2
      /Domain [ 0 1 ]
      /C0 [ 0 0.247059 0.541176 ]
      /C1 [ 0 0.843137 0.87451 ]
      /N 1
   >>
   << /FunctionType 2
      /Domain [ 0 1 ]
      /C0 [ 0 0.843137 0.87451 ]
      /C1 [ 0 0.427451 0.941176 ]
      /N 1
   >>
   ]
   /Bounds [ 0.518 ]
   /Encode [ 1 1 2 { pop 0 1 } for ]
>>
def
   << /ShadingType 2
      /ColorSpace /DeviceRGB
      /Coords [ 26.924 516.958984 499.212006 44.671001 ]
      /Extend [ true true ]
      /Function CairoFunction
   >>
shfill
Q
q
192 78 m 162.879 78 136.625 95.543 125.48 122.445 c 114.336 149.352 120.496
 180.32 141.09 200.91 c 161.68 221.504 192.648 227.664 219.555 216.52 c 
246.457 205.375 264 179.121 264 150 c 263.953 110.254 231.746 78.047 192
 78 c h
168.426 94.828 m 167.34 96.691 166.305 98.695 165.324 100.844 c 159.969
 112.637 156.766 127.777 156.129 144 c 132.301 144 l 134.516 122.266 148.348
 103.441 168.426 94.828 c h
132.301 156 m 156.129 156 l 156.766 172.223 159.969 187.363 165.324 199.156
 c 166.305 201.301 167.34 203.305 168.426 205.172 c 148.348 196.559 134.516
 177.734 132.301 156 c h
186 207.711 m 182.52 205.133 179.109 200.469 176.25 194.191 c 171.57 183.891
 168.742 170.504 168.129 156 c 186 156 l h
186 144 m 168.129 144 l 168.742 129.496 171.57 116.109 176.25 105.809 c
 179.109 99.531 182.52 94.867 186 92.289 c h
251.699 144 m 227.871 144 l 227.234 127.777 224.031 112.637 218.676 100.844
 c 217.695 98.699 216.66 96.695 215.574 94.828 c 235.652 103.441 249.484
 122.266 251.699 144 c h
198 92.289 m 201.48 94.867 204.891 99.531 207.75 105.809 c 212.43 116.109
 215.258 129.496 215.871 144 c 198 144 l h
198 207.711 m 198 156 l 215.871 156 l 215.258 170.504 212.43 183.891 207.75
 194.191 c 204.891 200.469 201.48 205.133 198 207.711 c h
215.574 205.172 m 216.66 203.309 217.695 201.305 218.676 199.156 c 224.031
 187.363 227.234 172.223 227.871 156 c 251.699 156 l 249.484 177.734 235.652
 196.559 215.574 205.172 c h
215.574 205.172 m W n
[0.75 0 0 0.75 0 0] concat
/CairoFunction
<< /FunctionType 3
   /Domain [ 0 1 ]
   /Functions [
   << /FunctionType 2
      /Domain [ 0 1 ]
      /C0 [ 0 0.247059 0.541176 ]
      /C1 [ 0 0.843137 0.87451 ]
      /N 1
   >>
   << /FunctionType 2
      /Domain [ 0 1 ]
      /C0 [ 0 0.843137 0.87451 ]
      /C1 [ 0 0.427451 0.941176 ]
      /N 1
   >>
   ]
   /Bounds [ 0.518 ]
   /Encode [ 1 1 2 { pop 0 1 } for ]
>>
def
   << /ShadingType 2
      /ColorSpace /DeviceRGB
      /Coords [ -17.017 473.016998 455.270996 0.729 ]
      /Extend [ true true ]
      /Function CairoFunction
   >>
shfill
Q
Q Q
showpage
%%Trailer
end
%%EOF
