%!PS-Adobe-3.0 EPSF-3.0
%%Creator: cairo 1.16.0 (https://cairographics.org)
%%CreationDate: Thu Dec  3 11:23:23 2020
%%Pages: 1
%%DocumentData: Clean7Bit
%%LanguageLevel: 3
%%BoundingBox: 6 12 378 372
%%EndComments
%%BeginProlog
50 dict begin
/q { gsave } bind def
/Q { grestore } bind def
/cm { 6 array astore concat } bind def
/w { setlinewidth } bind def
/J { setlinecap } bind def
/j { setlinejoin } bind def
/M { setmiterlimit } bind def
/d { setdash } bind def
/m { moveto } bind def
/l { lineto } bind def
/c { curveto } bind def
/h { closepath } bind def
/re { exch dup neg 3 1 roll 5 3 roll moveto 0 rlineto
      0 exch rlineto 0 rlineto closepath } bind def
/S { stroke } bind def
/f { fill } bind def
/f* { eofill } bind def
/n { newpath } bind def
/W { clip } bind def
/W* { eoclip } bind def
/BT { } bind def
/ET { } bind def
/BDC { mark 3 1 roll /BDC pdfmark } bind def
/EMC { mark /EMC pdfmark } bind def
/cairo_store_point { /cairo_point_y exch def /cairo_point_x exch def } def
/Tj { show currentpoint cairo_store_point } bind def
/TJ {
  {
    dup
    type /stringtype eq
    { show } { -0.001 mul 0 cairo_font_matrix dtransform rmoveto } ifelse
  } forall
  currentpoint cairo_store_point
} bind def
/cairo_selectfont { cairo_font_matrix aload pop pop pop 0 0 6 array astore
    cairo_font exch selectfont cairo_point_x cairo_point_y moveto } bind def
/Tf { pop /cairo_font exch def /cairo_font_matrix where
      { pop cairo_selectfont } if } bind def
/Td { matrix translate cairo_font_matrix matrix concatmatrix dup
      /cairo_font_matrix exch def dup 4 get exch 5 get cairo_store_point
      /cairo_font where { pop cairo_selectfont } if } bind def
/Tm { 2 copy 8 2 roll 6 array astore /cairo_font_matrix exch def
      cairo_store_point /cairo_font where { pop cairo_selectfont } if } bind def
/g { setgray } bind def
/rg { setrgbcolor } bind def
/d1 { setcachedevice } bind def
/cairo_data_source {
  CairoDataIndex CairoData length lt
    { CairoData CairoDataIndex get /CairoDataIndex CairoDataIndex 1 add def }
    { () } ifelse
} def
/cairo_flush_ascii85_file { cairo_ascii85_file status { cairo_ascii85_file flushfile } if } def
/cairo_image { image cairo_flush_ascii85_file } def
/cairo_imagemask { imagemask cairo_flush_ascii85_file } def
%%EndProlog
%%BeginSetup
%%EndSetup
%%Page: 1 1
%%BeginPageSetup
%%PageBoundingBox: 6 12 378 372
%%EndPageSetup
q 6 12 372 360 rectclip
1 0 0 -1 0 384 cm q
q
342 168 m 342 150 l 342 146.688 339.312 144 336 144 c 329.863 144 l 326.707
 70.68 266.086 12 192 12 c 117.914 12 57.293 70.68 54.137 144 c 48 144 l
 44.688 144 42 146.688 42 150 c 42 168 l 22.125 168.02 6.02 184.125 6 204
 c 6 276 l 6.02 295.875 22.125 311.98 42 312 c 48 312 l 48 324 l 48.02 343.875
 64.125 359.98 84 360 c 162 360 l 162 366 l 162 369.312 164.688 372 168 
372 c 216 372 l 219.312 372 222 369.312 222 366 c 222 342 l 222 338.688 
219.312 336 216 336 c 168 336 l 164.688 336 162 338.688 162 342 c 162 348
 l 84 348 l 70.75 347.988 60.012 337.25 60 324 c 60 312 l 84 312 l 87.312
 312 90 309.312 90 306 c 90 294 l 93 294 l 104.594 293.988 113.988 284.594
 114 273 c 114 207 l 113.988 195.406 104.594 186.012 93 186 c 90 186 l 90
 150 l 90 93.758 135.758 48 192 48 c 248.242 48 294 93.758 294 150 c 294
 186 l 291 186 l 279.406 186.012 270.012 195.406 270 207 c 270 273 l 270.012
 284.594 279.406 293.988 291 294 c 294 294 l 294 306 l 294 309.312 296.688
 312 300 312 c 342 312 l 361.875 311.98 377.98 295.875 378 276 c 378 204
 l 377.98 184.125 361.875 168.02 342 168 c h
174 348 m 210 348 l 210 360 l 174 360 l h
294 282 m 291 282 l 286.031 281.996 282.004 277.969 282 273 c 282 207 l
 282.004 202.031 286.031 198.004 291 198 c 294 198 l h
330 156 m 330 168 l 306 168 l 306 156 l h
78 300 m 42 300 l 28.75 299.988 18.012 289.25 18 276 c 18 204 l 18.012 
190.75 28.75 180.012 42 180 c 78 180 l h
78 168 m 54 168 l 54 156 l 78 156 l h
93 198 m 97.969 198.004 101.996 202.031 102 207 c 102 273 l 101.996 277.969
 97.969 281.996 93 282 c 90 282 l 90 198 l h
192 36 m 131.152 36 81.285 83.918 78.156 144 c 66.141 144 l 69.293 77.297
 124.539 24 192 24 c 259.461 24 314.707 77.297 317.859 144 c 305.844 144
 l 302.715 83.918 252.848 36 192 36 c h
366 276 m 365.988 289.25 355.25 299.988 342 300 c 306 300 l 306 180 l 342
 180 l 355.25 180.012 365.988 190.75 366 204 c h
366 276 m W n
[0.75 0 0 0.75 0 0] concat
/CairoFunction
<< /FunctionType 3
   /Domain [ 0 1 ]
   /Functions [
   << /FunctionType 2
      /Domain [ 0 1 ]
      /C0 [ 0 0.247059 0.541176 ]
      /C1 [ 0 0.843137 0.87451 ]
      /N 1
   >>
   << /FunctionType 2
      /Domain [ 0 1 ]
      /C0 [ 0 0.843137 0.87451 ]
      /C1 [ 0 0.427451 0.941176 ]
      /N 1
   >>
   ]
   /Bounds [ 0.518 ]
   /Encode [ 1 1 2 { pop 0 1 } for ]
>>
def
   << /ShadingType 2
      /ColorSpace /DeviceRGB
      /Coords [ 20.950001 522.932983 525.093018 18.790001 ]
      /Extend [ true true ]
      /Function CairoFunction
   >>
shfill
Q
q
211.594 140.859 m 205.23 147.223 l 204.059 148.395 202.16 148.395 200.988
 147.223 c 189.523 135.762 l 188.352 134.59 188.352 132.691 189.523 131.52
 c 195.891 125.156 l 197.016 124.031 197.645 122.504 197.645 120.91 c 197.645
 119.32 197.016 117.793 195.891 116.668 c 178.918 99.699 l 177.793 98.574
 176.266 97.941 174.676 97.941 c 173.086 97.941 171.559 98.574 170.434 99.699
 c 151.344 118.789 l 143.152 126.996 143.152 140.285 151.344 148.492 c 188.262
 185.41 l 196.469 193.598 209.754 193.598 217.961 185.41 c 237.051 166.316
 l 238.18 165.191 238.809 163.668 238.809 162.074 c 238.809 160.484 238.18
 158.957 237.051 157.832 c 220.082 140.863 l 218.957 139.734 217.43 139.102
 215.84 139.102 c 214.246 139.102 212.723 139.734 211.594 140.859 c h
209.477 176.926 m 205.957 180.434 200.266 180.434 196.746 176.926 c 159.824
 140.004 l 156.316 136.488 156.316 130.793 159.824 127.277 c 174.676 112.426
 l 183.16 120.91 l 181.039 123.031 l 175.18 128.891 175.18 138.387 181.039
 144.246 c 192.504 155.711 l 198.359 161.566 207.859 161.566 213.715 155.711
 c 215.836 153.586 l 224.324 162.074 l h
209.477 176.926 m W n
[0.75 0 0 0.75 0 0] concat
/CairoFunction
<< /FunctionType 3
   /Domain [ 0 1 ]
   /Functions [
   << /FunctionType 2
      /Domain [ 0 1 ]
      /C0 [ 0 0.247059 0.541176 ]
      /C1 [ 0 0.843137 0.87451 ]
      /N 1
   >>
   << /FunctionType 2
      /Domain [ 0 1 ]
      /C0 [ 0 0.843137 0.87451 ]
      /C1 [ 0 0.427451 0.941176 ]
      /N 1
   >>
   ]
   /Bounds [ 0.518 ]
   /Encode [ 1 1 2 { pop 0 1 } for ]
>>
def
   << /ShadingType 2
      /ColorSpace /DeviceRGB
      /Coords [ -26.490999 475.490997 477.652008 -28.652 ]
      /Extend [ true true ]
      /Function CairoFunction
   >>
shfill
Q
q
192 72 m 156.164 72.004 125.781 98.359 120.723 133.84 c 115.66 169.316 
137.457 203.117 171.863 213.141 c 186.629 242.684 l 187.648 244.719 189.727
 246 192 246 c 194.273 246 196.352 244.719 197.371 242.684 c 212.137 213.141
 l 246.543 203.117 268.34 169.316 263.277 133.84 c 258.219 98.359 227.836
 72.004 192 72 c h
206.527 202.23 m 204.824 202.652 203.391 203.797 202.605 205.363 c 192 
226.582 l 181.395 205.363 l 180.609 203.797 179.176 202.652 177.473 202.23
 c 148.066 194.891 128.75 166.777 132.449 136.695 c 136.145 106.617 161.691
 84.016 192 84.016 c 222.309 84.016 247.855 106.617 251.551 136.695 c 255.25
 166.777 235.934 194.891 206.527 202.23 c h
206.527 202.23 m W n
[0.75 0 0 0.75 0 0] concat
/CairoFunction
<< /FunctionType 3
   /Domain [ 0 1 ]
   /Functions [
   << /FunctionType 2
      /Domain [ 0 1 ]
      /C0 [ 0 0.247059 0.541176 ]
      /C1 [ 0 0.843137 0.87451 ]
      /N 1
   >>
   << /FunctionType 2
      /Domain [ 0 1 ]
      /C0 [ 0 0.843137 0.87451 ]
      /C1 [ 0 0.427451 0.941176 ]
      /N 1
   >>
   ]
   /Bounds [ 0.518 ]
   /Encode [ 1 1 2 { pop 0 1 } for ]
>>
def
   << /ShadingType 2
      /ColorSpace /DeviceRGB
      /Coords [ -26.086 475.895996 478.057007 -28.247 ]
      /Extend [ true true ]
      /Function CairoFunction
   >>
shfill
Q
Q Q
showpage
%%Trailer
end
%%EOF
