%!PS-Adobe-3.0 EPSF-3.0
%%Creator: cairo 1.16.0 (https://cairographics.org)
%%CreationDate: Thu Dec  3 11:23:24 2020
%%Pages: 1
%%DocumentData: Clean7Bit
%%LanguageLevel: 3
%%BoundingBox: 30 6 354 378
%%EndComments
%%BeginProlog
50 dict begin
/q { gsave } bind def
/Q { grestore } bind def
/cm { 6 array astore concat } bind def
/w { setlinewidth } bind def
/J { setlinecap } bind def
/j { setlinejoin } bind def
/M { setmiterlimit } bind def
/d { setdash } bind def
/m { moveto } bind def
/l { lineto } bind def
/c { curveto } bind def
/h { closepath } bind def
/re { exch dup neg 3 1 roll 5 3 roll moveto 0 rlineto
      0 exch rlineto 0 rlineto closepath } bind def
/S { stroke } bind def
/f { fill } bind def
/f* { eofill } bind def
/n { newpath } bind def
/W { clip } bind def
/W* { eoclip } bind def
/BT { } bind def
/ET { } bind def
/BDC { mark 3 1 roll /BDC pdfmark } bind def
/EMC { mark /EMC pdfmark } bind def
/cairo_store_point { /cairo_point_y exch def /cairo_point_x exch def } def
/Tj { show currentpoint cairo_store_point } bind def
/TJ {
  {
    dup
    type /stringtype eq
    { show } { -0.001 mul 0 cairo_font_matrix dtransform rmoveto } ifelse
  } forall
  currentpoint cairo_store_point
} bind def
/cairo_selectfont { cairo_font_matrix aload pop pop pop 0 0 6 array astore
    cairo_font exch selectfont cairo_point_x cairo_point_y moveto } bind def
/Tf { pop /cairo_font exch def /cairo_font_matrix where
      { pop cairo_selectfont } if } bind def
/Td { matrix translate cairo_font_matrix matrix concatmatrix dup
      /cairo_font_matrix exch def dup 4 get exch 5 get cairo_store_point
      /cairo_font where { pop cairo_selectfont } if } bind def
/Tm { 2 copy 8 2 roll 6 array astore /cairo_font_matrix exch def
      cairo_store_point /cairo_font where { pop cairo_selectfont } if } bind def
/g { setgray } bind def
/rg { setrgbcolor } bind def
/d1 { setcachedevice } bind def
/cairo_data_source {
  CairoDataIndex CairoData length lt
    { CairoData CairoDataIndex get /CairoDataIndex CairoDataIndex 1 add def }
    { () } ifelse
} def
/cairo_flush_ascii85_file { cairo_ascii85_file status { cairo_ascii85_file flushfile } if } def
/cairo_image { image cairo_flush_ascii85_file } def
/cairo_imagemask { imagemask cairo_flush_ascii85_file } def
%%EndProlog
%%BeginSetup
%%EndSetup
%%Page: 1 1
%%BeginPageSetup
%%PageBoundingBox: 30 6 354 378
%%EndPageSetup
q 30 6 324 372 rectclip
1 0 0 -1 0 384 cm q
q
168 156 m 168 162.629 162.629 168 156 168 c 149.371 168 144 162.629 144
 156 c 144 149.371 149.371 144 156 144 c 162.629 144 168 149.371 168 156
 c h
168 156 m W n
[0.75 0 0 0.75 0 0] concat
/CairoFunction
<< /FunctionType 3
   /Domain [ 0 1 ]
   /Functions [
   << /FunctionType 2
      /Domain [ 0 1 ]
      /C0 [ 0 0.247059 0.541176 ]
      /C1 [ 0 0.843137 0.87451 ]
      /N 1
   >>
   << /FunctionType 2
      /Domain [ 0 1 ]
      /C0 [ 0 0.843137 0.87451 ]
      /C1 [ 0 0.427451 0.941176 ]
      /N 1
   >>
   ]
   /Bounds [ 0.518 ]
   /Encode [ 1 1 2 { pop 0 1 } for ]
>>
def
   << /ShadingType 2
      /ColorSpace /DeviceRGB
      /Coords [ -53.542999 469.542999 455.419006 -39.418999 ]
      /Extend [ true true ]
      /Function CairoFunction
   >>
shfill
Q
q
240 156 m 240 162.629 234.629 168 228 168 c 221.371 168 216 162.629 216
 156 c 216 149.371 221.371 144 228 144 c 234.629 144 240 149.371 240 156
 c h
240 156 m W n
[0.75 0 0 0.75 0 0] concat
/CairoFunction
<< /FunctionType 3
   /Domain [ 0 1 ]
   /Functions [
   << /FunctionType 2
      /Domain [ 0 1 ]
      /C0 [ 0 0.247059 0.541176 ]
      /C1 [ 0 0.843137 0.87451 ]
      /N 1
   >>
   << /FunctionType 2
      /Domain [ 0 1 ]
      /C0 [ 0 0.843137 0.87451 ]
      /C1 [ 0 0.427451 0.941176 ]
      /N 1
   >>
   ]
   /Bounds [ 0.518 ]
   /Encode [ 1 1 2 { pop 0 1 } for ]
>>
def
   << /ShadingType 2
      /ColorSpace /DeviceRGB
      /Coords [ -5.543 517.54303 503.419006 8.581 ]
      /Extend [ true true ]
      /Function CairoFunction
   >>
shfill
Q
q
304.801 276.426 m 240 259.371 l 240 244.762 l 255.219 233.012 268.164 216.66
 273.449 198 c 291 198 l 302.594 197.988 311.988 188.594 312 177 c 312 135
 l 311.988 123.406 302.594 114.012 291 114 c 288 114 l 288 72 l 287.957 
35.566 258.434 6.043 222 6 c 162 6 l 125.566 6.043 96.043 35.566 96 72 c
 96 114 l 93 114 l 81.406 114.012 72.012 123.406 72 135 c 72 177 l 72.012
 188.594 81.406 197.988 93 198 c 96 198 l 96 213 l 96.008 221.281 102.719
 227.992 111 228 c 126.684 228 l 131.805 234.223 137.613 239.844 144 244.762
 c 144 259.371 l 79.207 276.426 l 50.219 284.066 30.012 310.273 30 340.254
 c 30 372 l 30 375.312 32.688 378 36 378 c 348 378 l 351.312 378 354 375.312
 354 372 c 354 340.254 l 353.988 310.277 333.785 284.07 304.801 276.426 
c h
294 126.523 m 297.59 127.797 299.992 131.191 300 135 c 300 177 l 299.992
 180.809 297.59 184.203 294 185.477 c h
90 185.477 m 86.41 184.203 84.008 180.809 84 177 c 84 135 l 84.008 131.191
 86.41 127.797 90 126.523 c h
250.77 274.621 m 225.816 322.051 l 201.57 310.172 l 236.07 270.75 l h
264 122.484 m 251.309 118.309 240.398 109.977 233.023 98.836 c 231.234 
96.191 227.691 95.41 224.953 97.059 c 224.496 97.328 180.367 123.504 120
 125.168 c 120 108 l 120 68.234 152.234 36 192 36 c 231.766 36 264 68.234
 264 108 c h
282 186 m 276 186 l 276 126 l 282 126 l h
108 72 m 108.035 42.191 132.191 18.035 162 18 c 222 18 l 251.809 18.035
 275.965 42.191 276 72 c 276 108 l 276 61.609 238.391 24 192 24 c 145.609
 24 108 61.609 108 108 c h
102 126 m 108 126 l 108 186 l 102 186 l h
111 216 m 109.344 216 108 214.656 108 213 c 108 198 l 110.551 198 l 112.363
 204.305 114.969 210.352 118.305 216 c h
142.883 228 m 169.035 228 l 171.582 235.184 178.375 239.992 186 240 c 198
 240 l 207.941 240 216 231.941 216 222 c 216 212.059 207.941 204 198 204
 c 186 204 l 178.375 204.008 171.582 208.816 169.035 216 c 132.465 216 l
 121.914 201.238 120 187.777 120 180 c 120 137.168 l 172.695 135.816 212.871
 117.137 226.336 110.016 c 235.812 122.238 249.051 131 264 134.953 c 264
 180 l 264 190.312 260.656 210.602 238.246 230.684 c 223.801 243.629 205.641
 252 192 252 c 178.359 252 160.199 243.629 145.754 230.684 c 144.758 229.793
 143.805 228.891 142.883 228 c h
180 222 m 180.004 218.688 182.688 216.004 186 216 c 198 216 l 201.312 216
 204 218.688 204 222 c 204 225.312 201.312 228 198 228 c 186 228 l 182.688
 227.996 180.004 225.312 180 222 c h
147.93 270.75 m 182.371 310.109 l 158.574 322.004 l 133.59 274.523 l h
186 366 m 84 366 l 84 348 l 84 344.688 81.312 342 78 342 c 74.688 342 72
 344.688 72 348 c 72 366 l 42 366 l 42 340.254 l 42.012 315.727 58.543 294.285
 82.262 288.039 c 121.68 277.656 l 150.691 332.789 l 152.211 335.68 155.762
 336.824 158.684 335.371 c 186 321.703 l h
156 261.742 m 156 252.824 l 168.285 259.934 181.094 264 192 264 c 202.906
 264 215.715 259.934 228 252.824 c 228 261.742 l 192 302.887 l h
276 366 m 228 366 l 228 360 l 276 360 l h
342 366 m 312 366 l 312 348 l 312 344.688 309.312 342 306 342 c 302.688
 342 300 344.688 300 348 c 300 366 l 288 366 l 288 354 l 288 350.688 285.312
 348 282 348 c 222 348 l 218.688 348 216 350.688 216 354 c 216 366 l 198
 366 l 198 321.789 l 225.773 335.387 l 226.59 335.789 227.492 336 228.406
 336 c 230.637 336.004 232.684 334.766 233.723 332.789 c 262.68 277.754 
l 301.746 288.039 l 325.461 294.289 341.988 315.73 342 340.254 c h
342 366 m W n
[0.75 0 0 0.75 0 0] concat
/CairoFunction
<< /FunctionType 3
   /Domain [ 0 1 ]
   /Functions [
   << /FunctionType 2
      /Domain [ 0 1 ]
      /C0 [ 0 0.247059 0.541176 ]
      /C1 [ 0 0.843137 0.87451 ]
      /N 1
   >>
   << /FunctionType 2
      /Domain [ 0 1 ]
      /C0 [ 0 0.843137 0.87451 ]
      /C1 [ 0 0.427451 0.941176 ]
      /N 1
   >>
   ]
   /Bounds [ 0.518 ]
   /Encode [ 1 1 2 { pop 0 1 } for ]
>>
def
   << /ShadingType 2
      /ColorSpace /DeviceRGB
      /Coords [ 28.188 551.273987 537.150024 42.312 ]
      /Extend [ true true ]
      /Function CairoFunction
   >>
shfill
Q
Q Q
showpage
%%Trailer
end
%%EOF
