%!PS-Adobe-3.0 EPSF-3.0
%%Creator: cairo 1.16.0 (https://cairographics.org)
%%CreationDate: Thu Dec  3 11:23:24 2020
%%Pages: 1
%%DocumentData: Clean7Bit
%%LanguageLevel: 3
%%BoundingBox: 6 6 378 378
%%EndComments
%%BeginProlog
50 dict begin
/q { gsave } bind def
/Q { grestore } bind def
/cm { 6 array astore concat } bind def
/w { setlinewidth } bind def
/J { setlinecap } bind def
/j { setlinejoin } bind def
/M { setmiterlimit } bind def
/d { setdash } bind def
/m { moveto } bind def
/l { lineto } bind def
/c { curveto } bind def
/h { closepath } bind def
/re { exch dup neg 3 1 roll 5 3 roll moveto 0 rlineto
      0 exch rlineto 0 rlineto closepath } bind def
/S { stroke } bind def
/f { fill } bind def
/f* { eofill } bind def
/n { newpath } bind def
/W { clip } bind def
/W* { eoclip } bind def
/BT { } bind def
/ET { } bind def
/BDC { mark 3 1 roll /BDC pdfmark } bind def
/EMC { mark /EMC pdfmark } bind def
/cairo_store_point { /cairo_point_y exch def /cairo_point_x exch def } def
/Tj { show currentpoint cairo_store_point } bind def
/TJ {
  {
    dup
    type /stringtype eq
    { show } { -0.001 mul 0 cairo_font_matrix dtransform rmoveto } ifelse
  } forall
  currentpoint cairo_store_point
} bind def
/cairo_selectfont { cairo_font_matrix aload pop pop pop 0 0 6 array astore
    cairo_font exch selectfont cairo_point_x cairo_point_y moveto } bind def
/Tf { pop /cairo_font exch def /cairo_font_matrix where
      { pop cairo_selectfont } if } bind def
/Td { matrix translate cairo_font_matrix matrix concatmatrix dup
      /cairo_font_matrix exch def dup 4 get exch 5 get cairo_store_point
      /cairo_font where { pop cairo_selectfont } if } bind def
/Tm { 2 copy 8 2 roll 6 array astore /cairo_font_matrix exch def
      cairo_store_point /cairo_font where { pop cairo_selectfont } if } bind def
/g { setgray } bind def
/rg { setrgbcolor } bind def
/d1 { setcachedevice } bind def
/cairo_data_source {
  CairoDataIndex CairoData length lt
    { CairoData CairoDataIndex get /CairoDataIndex CairoDataIndex 1 add def }
    { () } ifelse
} def
/cairo_flush_ascii85_file { cairo_ascii85_file status { cairo_ascii85_file flushfile } if } def
/cairo_image { image cairo_flush_ascii85_file } def
/cairo_imagemask { imagemask cairo_flush_ascii85_file } def
%%EndProlog
%%BeginSetup
%%EndSetup
%%Page: 1 1
%%BeginPageSetup
%%PageBoundingBox: 6 6 378 378
%%EndPageSetup
q 6 6 372 372 rectclip
1 0 0 -1 0 384 cm q
q
377.863 80.977 m 377.84 69.395 368.449 60.012 356.863 60 c 294 60 l 294
 27 l 293.988 15.406 284.594 6.012 273 6 c 111 6 l 99.406 6.012 90.012 15.406
 90 27 c 90 192.75 l 27.121 192.75 l 15.539 192.766 6.152 202.141 6.121 
213.719 c 6 255.727 l 5.992 261.301 8.203 266.648 12.145 270.59 c 16.082
 274.535 21.426 276.75 27 276.75 c 90 276.75 l 90 357 l 90.012 368.594 99.406
 377.988 111 378 c 273 378 l 284.594 377.988 293.988 368.594 294 357 c 294
 144 l 356.984 144 l 362.559 144 367.906 141.785 371.844 137.84 c 375.785
 133.895 377.992 128.543 377.984 122.969 c h
220.312 18 m 217.312 30 l 166.688 30 l 163.688 18 l h
27 264.75 m 22.031 264.75 18 260.719 18 255.75 c 18.121 213.742 l 18.133
 208.777 22.156 204.758 27.121 204.75 c 188.984 204.75 l 193.953 204.754
 197.98 208.781 197.984 213.75 c 197.984 255.75 l 197.98 260.719 193.953
 264.746 188.984 264.75 c 167.984 264.75 l 164.672 264.75 161.984 267.438
 161.984 270.75 c 161.984 292.266 l 136.23 266.504 l 135.102 265.379 133.578
 264.75 131.984 264.75 c h
282 357 m 281.996 361.969 277.969 365.996 273 366 c 111 366 l 106.031 365.996
 102.004 361.969 102 357 c 102 276.75 l 129.504 276.75 l 163.738 310.996
 l 165.457 312.715 168.039 313.227 170.281 312.297 c 172.523 311.367 173.988
 309.18 173.984 306.75 c 173.984 276.75 l 188.984 276.75 l 200.578 276.738
 209.973 267.344 209.984 255.75 c 209.984 213.75 l 209.973 202.156 200.578
 192.762 188.984 192.75 c 102 192.75 l 102 27 l 102.004 22.031 106.031 18.004
 111 18 c 151.312 18 l 156.18 37.453 l 156.848 40.125 159.246 42 162 42 
c 222 42 l 224.754 42 227.152 40.125 227.82 37.453 c 232.688 18 l 273 18
 l 277.969 18.004 281.996 22.031 282 27 c 282 60 l 195 60 l 183.406 60.012
 174.012 69.406 174 81 c 174 123 l 174.012 134.594 183.406 143.988 195 144
 c 210 144 l 210 174 l 210 176.43 211.461 178.617 213.703 179.547 c 215.945
 180.477 218.527 179.965 220.246 178.246 c 254.484 144 l 282 144 l h
363.352 129.359 m 361.668 131.055 359.375 132.008 356.984 132 c 252 132
 l 250.41 132 248.883 132.629 247.754 133.754 c 222 159.516 l 222 138 l 
222 134.688 219.312 132 216 132 c 195 132 l 190.031 131.996 186.004 127.969
 186 123 c 186 81 l 186.004 76.031 190.031 72.004 195 72 c 356.863 72 l 
361.832 72.008 365.855 76.035 365.863 81 c 365.984 122.992 l 365.992 125.383
 365.047 127.676 363.352 129.359 c h
363.352 129.359 m W n
[0.75 0 0 0.75 0 0] concat
/CairoFunction
<< /FunctionType 3
   /Domain [ 0 1 ]
   /Functions [
   << /FunctionType 2
      /Domain [ 0 1 ]
      /C0 [ 0 0.247059 0.541176 ]
      /C1 [ 0 0.843137 0.87451 ]
      /N 1
   >>
   << /FunctionType 2
      /Domain [ 0 1 ]
      /C0 [ 0 0.843137 0.87451 ]
      /C1 [ 0 0.427451 0.941176 ]
      /N 1
   >>
   ]
   /Bounds [ 0.518 ]
   /Encode [ 1 1 2 { pop 0 1 } for ]
>>
def
   << /ShadingType 2
      /ColorSpace /DeviceRGB
      /Coords [ 20.649 491.351013 498.93399 13.066 ]
      /Extend [ true true ]
      /Function CairoFunction
   >>
shfill
Q
q
276 84 m 268.719 84 262.156 88.387 259.371 95.113 c 256.586 101.836 258.125
 109.578 263.273 114.727 c 268.422 119.875 276.164 121.414 282.887 118.629
 c 289.613 115.844 294 109.281 294 102 c 293.988 92.062 285.938 84.012 276
 84 c h
276 108 m 273.574 108 271.387 106.539 270.457 104.297 c 269.527 102.055
 270.043 99.473 271.758 97.758 c 273.473 96.043 276.055 95.527 278.297 96.457
 c 280.539 97.387 282 99.574 282 102 c 281.996 105.312 279.312 107.996 276
 108 c h
276 108 m W n
[0.75 0 0 0.75 0 0] concat
/CairoFunction
<< /FunctionType 3
   /Domain [ 0 1 ]
   /Functions [
   << /FunctionType 2
      /Domain [ 0 1 ]
      /C0 [ 0 0.247059 0.541176 ]
      /C1 [ 0 0.843137 0.87451 ]
      /N 1
   >>
   << /FunctionType 2
      /Domain [ 0 1 ]
      /C0 [ 0 0.843137 0.87451 ]
      /C1 [ 0 0.427451 0.941176 ]
      /N 1
   >>
   ]
   /Bounds [ 0.518 ]
   /Encode [ 1 1 2 { pop 0 1 } for ]
>>
def
   << /ShadingType 2
      /ColorSpace /DeviceRGB
      /Coords [ 16.649 487.351013 494.93399 9.066 ]
      /Extend [ true true ]
      /Function CairoFunction
   >>
shfill
Q
q
228 84 m 220.719 84 214.156 88.387 211.371 95.113 c 208.586 101.836 210.125
 109.578 215.273 114.727 c 220.422 119.875 228.164 121.414 234.887 118.629
 c 241.613 115.844 246 109.281 246 102 c 245.988 92.062 237.938 84.012 228
 84 c h
228 108 m 225.574 108 223.387 106.539 222.457 104.297 c 221.527 102.055
 222.043 99.473 223.758 97.758 c 225.473 96.043 228.055 95.527 230.297 96.457
 c 232.539 97.387 234 99.574 234 102 c 233.996 105.312 231.312 107.996 228
 108 c h
228 108 m W n
[0.75 0 0 0.75 0 0] concat
/CairoFunction
<< /FunctionType 3
   /Domain [ 0 1 ]
   /Functions [
   << /FunctionType 2
      /Domain [ 0 1 ]
      /C0 [ 0 0.247059 0.541176 ]
      /C1 [ 0 0.843137 0.87451 ]
      /N 1
   >>
   << /FunctionType 2
      /Domain [ 0 1 ]
      /C0 [ 0 0.843137 0.87451 ]
      /C1 [ 0 0.427451 0.941176 ]
      /N 1
   >>
   ]
   /Bounds [ 0.518 ]
   /Encode [ 1 1 2 { pop 0 1 } for ]
>>
def
   << /ShadingType 2
      /ColorSpace /DeviceRGB
      /Coords [ -15.351 455.351013 462.93399 -22.934 ]
      /Extend [ true true ]
      /Function CairoFunction
   >>
shfill
Q
q
324 84 m 316.719 84 310.156 88.387 307.371 95.113 c 304.586 101.836 306.125
 109.578 311.273 114.727 c 316.422 119.875 324.164 121.414 330.887 118.629
 c 337.613 115.844 342 109.281 342 102 c 341.988 92.062 333.938 84.012 324
 84 c h
324 108 m 321.574 108 319.387 106.539 318.457 104.297 c 317.527 102.055
 318.043 99.473 319.758 97.758 c 321.473 96.043 324.055 95.527 326.297 96.457
 c 328.539 97.387 330 99.574 330 102 c 329.996 105.312 327.312 107.996 324
 108 c h
324 108 m W n
[0.75 0 0 0.75 0 0] concat
/CairoFunction
<< /FunctionType 3
   /Domain [ 0 1 ]
   /Functions [
   << /FunctionType 2
      /Domain [ 0 1 ]
      /C0 [ 0 0.247059 0.541176 ]
      /C1 [ 0 0.843137 0.87451 ]
      /N 1
   >>
   << /FunctionType 2
      /Domain [ 0 1 ]
      /C0 [ 0 0.843137 0.87451 ]
      /C1 [ 0 0.427451 0.941176 ]
      /N 1
   >>
   ]
   /Bounds [ 0.518 ]
   /Encode [ 1 1 2 { pop 0 1 } for ]
>>
def
   << /ShadingType 2
      /ColorSpace /DeviceRGB
      /Coords [ 48.648998 519.351013 526.934021 41.066002 ]
      /Extend [ true true ]
      /Function CairoFunction
   >>
shfill
Q
q
125.984 234.75 m 125.984 227.469 121.598 220.906 114.871 218.121 c 108.145
 215.336 100.402 216.875 95.258 222.023 c 90.109 227.172 88.57 234.914 91.355
 241.637 c 94.141 248.363 100.703 252.75 107.984 252.75 c 117.922 252.738
 125.973 244.688 125.984 234.75 c h
101.984 234.75 m 101.984 232.324 103.445 230.137 105.688 229.207 c 107.93
 228.277 110.512 228.793 112.227 230.508 c 113.941 232.223 114.457 234.805
 113.527 237.047 c 112.598 239.289 110.41 240.75 107.984 240.75 c 104.672
 240.746 101.988 238.062 101.984 234.75 c h
101.984 234.75 m W n
[0.75 0 0 0.75 0 0] concat
/CairoFunction
<< /FunctionType 3
   /Domain [ 0 1 ]
   /Functions [
   << /FunctionType 2
      /Domain [ 0 1 ]
      /C0 [ 0 0.247059 0.541176 ]
      /C1 [ 0 0.843137 0.87451 ]
      /N 1
   >>
   << /FunctionType 2
      /Domain [ 0 1 ]
      /C0 [ 0 0.843137 0.87451 ]
      /C1 [ 0 0.427451 0.941176 ]
      /N 1
   >>
   ]
   /Bounds [ 0.518 ]
   /Encode [ 1 1 2 { pop 0 1 } for ]
>>
def
   << /ShadingType 2
      /ColorSpace /DeviceRGB
      /Coords [ -6.861 463.841003 471.423004 -14.444 ]
      /Extend [ true true ]
      /Function CairoFunction
   >>
shfill
Q
q
155.984 252.75 m 163.266 252.75 169.828 248.363 172.613 241.637 c 175.398
 234.914 173.859 227.172 168.711 222.023 c 163.562 216.875 155.82 215.336
 149.098 218.121 c 142.371 220.906 137.984 227.469 137.984 234.75 c 137.996
 244.688 146.047 252.738 155.984 252.75 c h
155.984 228.75 m 158.41 228.75 160.598 230.211 161.527 232.453 c 162.457
 234.695 161.941 237.277 160.227 238.992 c 158.512 240.707 155.93 241.223
 153.688 240.293 c 151.445 239.363 149.984 237.176 149.984 234.75 c 149.988
 231.438 152.672 228.754 155.984 228.75 c h
155.984 228.75 m W n
[0.75 0 0 0.75 0 0] concat
/CairoFunction
<< /FunctionType 3
   /Domain [ 0 1 ]
   /Functions [
   << /FunctionType 2
      /Domain [ 0 1 ]
      /C0 [ 0 0.247059 0.541176 ]
      /C1 [ 0 0.843137 0.87451 ]
      /N 1
   >>
   << /FunctionType 2
      /Domain [ 0 1 ]
      /C0 [ 0 0.843137 0.87451 ]
      /C1 [ 0 0.427451 0.941176 ]
      /N 1
   >>
   ]
   /Bounds [ 0.518 ]
   /Encode [ 1 1 2 { pop 0 1 } for ]
>>
def
   << /ShadingType 2
      /ColorSpace /DeviceRGB
      /Coords [ 25.139 495.841003 503.423004 17.556 ]
      /Extend [ true true ]
      /Function CairoFunction
   >>
shfill
Q
q
59.984 216.75 m 52.703 216.75 46.141 221.137 43.355 227.863 c 40.57 234.586
 42.109 242.328 47.258 247.477 c 52.402 252.625 60.145 254.164 66.871 251.379
 c 73.598 248.594 77.984 242.031 77.984 234.75 c 77.973 224.812 69.922 216.762
 59.984 216.75 c h
59.984 240.75 m 57.559 240.75 55.371 239.289 54.441 237.047 c 53.512 234.805
 54.027 232.223 55.742 230.508 c 57.457 228.793 60.039 228.277 62.281 229.207
 c 64.523 230.137 65.984 232.324 65.984 234.75 c 65.98 238.062 63.297 240.746
 59.984 240.75 c h
59.984 240.75 m W n
[0.75 0 0 0.75 0 0] concat
/CairoFunction
<< /FunctionType 3
   /Domain [ 0 1 ]
   /Functions [
   << /FunctionType 2
      /Domain [ 0 1 ]
      /C0 [ 0 0.247059 0.541176 ]
      /C1 [ 0 0.843137 0.87451 ]
      /N 1
   >>
   << /FunctionType 2
      /Domain [ 0 1 ]
      /C0 [ 0 0.843137 0.87451 ]
      /C1 [ 0 0.427451 0.941176 ]
      /N 1
   >>
   ]
   /Bounds [ 0.518 ]
   /Encode [ 1 1 2 { pop 0 1 } for ]
>>
def
   << /ShadingType 2
      /ColorSpace /DeviceRGB
      /Coords [ -38.861 431.841003 439.423004 -46.444 ]
      /Extend [ true true ]
      /Function CairoFunction
   >>
shfill
Q
Q Q
showpage
%%Trailer
end
%%EOF
