%!PS-Adobe-3.0 EPSF-3.0
%%Creator: cairo 1.16.0 (https://cairographics.org)
%%CreationDate: Thu Dec  3 11:23:25 2020
%%Pages: 1
%%DocumentData: Clean7Bit
%%LanguageLevel: 3
%%BoundingBox: 6 17 378 366
%%EndComments
%%BeginProlog
50 dict begin
/q { gsave } bind def
/Q { grestore } bind def
/cm { 6 array astore concat } bind def
/w { setlinewidth } bind def
/J { setlinecap } bind def
/j { setlinejoin } bind def
/M { setmiterlimit } bind def
/d { setdash } bind def
/m { moveto } bind def
/l { lineto } bind def
/c { curveto } bind def
/h { closepath } bind def
/re { exch dup neg 3 1 roll 5 3 roll moveto 0 rlineto
      0 exch rlineto 0 rlineto closepath } bind def
/S { stroke } bind def
/f { fill } bind def
/f* { eofill } bind def
/n { newpath } bind def
/W { clip } bind def
/W* { eoclip } bind def
/BT { } bind def
/ET { } bind def
/BDC { mark 3 1 roll /BDC pdfmark } bind def
/EMC { mark /EMC pdfmark } bind def
/cairo_store_point { /cairo_point_y exch def /cairo_point_x exch def } def
/Tj { show currentpoint cairo_store_point } bind def
/TJ {
  {
    dup
    type /stringtype eq
    { show } { -0.001 mul 0 cairo_font_matrix dtransform rmoveto } ifelse
  } forall
  currentpoint cairo_store_point
} bind def
/cairo_selectfont { cairo_font_matrix aload pop pop pop 0 0 6 array astore
    cairo_font exch selectfont cairo_point_x cairo_point_y moveto } bind def
/Tf { pop /cairo_font exch def /cairo_font_matrix where
      { pop cairo_selectfont } if } bind def
/Td { matrix translate cairo_font_matrix matrix concatmatrix dup
      /cairo_font_matrix exch def dup 4 get exch 5 get cairo_store_point
      /cairo_font where { pop cairo_selectfont } if } bind def
/Tm { 2 copy 8 2 roll 6 array astore /cairo_font_matrix exch def
      cairo_store_point /cairo_font where { pop cairo_selectfont } if } bind def
/g { setgray } bind def
/rg { setrgbcolor } bind def
/d1 { setcachedevice } bind def
/cairo_data_source {
  CairoDataIndex CairoData length lt
    { CairoData CairoDataIndex get /CairoDataIndex CairoDataIndex 1 add def }
    { () } ifelse
} def
/cairo_flush_ascii85_file { cairo_ascii85_file status { cairo_ascii85_file flushfile } if } def
/cairo_image { image cairo_flush_ascii85_file } def
/cairo_imagemask { imagemask cairo_flush_ascii85_file } def
%%EndProlog
%%BeginSetup
%%EndSetup
%%Page: 1 1
%%BeginPageSetup
%%PageBoundingBox: 6 17 378 366
%%EndPageSetup
q 6 17 372 349 rectclip
1 0 0 -1 0 384 cm q
q
357 126 m 306 126 l 306 39 l 305.988 27.406 296.594 18.012 285 18 c 27 
18 l 15.406 18.012 6.012 27.406 6 39 c 6 189 l 6.012 200.594 15.406 209.988
 27 210 c 54 210 l 54 252 l 54 254.43 55.461 256.617 57.703 257.547 c 59.945
 258.477 62.527 257.965 64.246 256.246 c 78 242.484 l 78 297 l 78.012 308.594
 87.406 317.988 99 318 c 273.516 318 l 319.754 364.246 l 321.473 365.965
 324.055 366.477 326.297 365.547 c 328.539 364.617 330 362.43 330 360 c 
330 318 l 357 318 l 368.594 317.988 377.988 308.594 378 297 c 378 147 l 
377.988 135.406 368.594 126.012 357 126 c h
66 237.516 m 66 204 l 66 200.688 63.312 198 60 198 c 27 198 l 22.031 197.996
 18.004 193.969 18 189 c 18 39 l 18.004 34.031 22.031 30.004 27 30 c 285
 30 l 289.969 30.004 293.996 34.031 294 39 c 294 189 l 293.996 193.969 289.969
 197.996 285 198 c 108 198 l 106.41 198 104.883 198.629 103.754 199.754 
c h
366 297 m 365.996 301.969 361.969 305.996 357 306 c 324 306 l 320.688 306
 318 308.688 318 312 c 318 345.516 l 280.246 307.754 l 279.117 306.629 277.59
 306 276 306 c 99 306 l 94.031 305.996 90.004 301.969 90 297 c 90 230.484
 l 110.484 210 l 285 210 l 296.594 209.988 305.988 200.594 306 189 c 306
 138 l 357 138 l 361.969 138.004 365.996 142.031 366 147 c h
366 297 m W n
[0.75 0 0 0.75 0 0] concat
/CairoFunction
<< /FunctionType 3
   /Domain [ 0 1 ]
   /Functions [
   << /FunctionType 2
      /Domain [ 0 1 ]
      /C0 [ 0 0.247059 0.541176 ]
      /C1 [ 0 0.843137 0.87451 ]
      /N 1
   >>
   << /FunctionType 2
      /Domain [ 0 1 ]
      /C0 [ 0 0.843137 0.87451 ]
      /C1 [ 0 0.427451 0.941176 ]
      /N 1
   >>
   ]
   /Bounds [ 0.518 ]
   /Encode [ 1 1 2 { pop 0 1 } for ]
>>
def
   << /ShadingType 2
      /ColorSpace /DeviceRGB
      /Coords [ 1.098 484.768005 480.467987 5.398 ]
      /Extend [ true true ]
      /Function CairoFunction
   >>
shfill
Q
q
156 138 m 165.707 138 174.457 132.152 178.172 123.184 c 181.887 114.215
 179.836 103.895 172.969 97.031 c 166.105 90.164 155.785 88.113 146.816 
91.828 c 137.848 95.543 132 104.293 132 114 c 132.016 127.25 142.75 137.984
 156 138 c h
156 102 m 160.855 102 165.23 104.922 167.086 109.406 c 168.945 113.891 
167.918 119.055 164.484 122.484 c 161.055 125.918 155.891 126.945 151.406
 125.086 c 146.922 123.23 144 118.855 144 114 c 144.008 107.375 149.375 
102.008 156 102 c h
156 102 m W n
[0.75 0 0 0.75 0 0] concat
/CairoFunction
<< /FunctionType 3
   /Domain [ 0 1 ]
   /Functions [
   << /FunctionType 2
      /Domain [ 0 1 ]
      /C0 [ 0 0.247059 0.541176 ]
      /C1 [ 0 0.843137 0.87451 ]
      /N 1
   >>
   << /FunctionType 2
      /Domain [ 0 1 ]
      /C0 [ 0 0.843137 0.87451 ]
      /C1 [ 0 0.427451 0.941176 ]
      /N 1
   >>
   ]
   /Bounds [ 0.518 ]
   /Encode [ 1 1 2 { pop 0 1 } for ]
>>
def
   << /ShadingType 2
      /ColorSpace /DeviceRGB
      /Coords [ -61.834999 421.834991 417.535004 -57.535 ]
      /Extend [ true true ]
      /Function CairoFunction
   >>
shfill
Q
q
84 138 m 93.707 138 102.457 132.152 106.172 123.184 c 109.887 114.215 107.836
 103.895 100.969 97.031 c 94.105 90.164 83.785 88.113 74.816 91.828 c 65.848
 95.543 60 104.293 60 114 c 60.016 127.25 70.75 137.984 84 138 c h
84 102 m 88.855 102 93.23 104.922 95.086 109.406 c 96.945 113.891 95.918
 119.055 92.484 122.484 c 89.055 125.918 83.891 126.945 79.406 125.086 c
 74.922 123.23 72 118.855 72 114 c 72.008 107.375 77.375 102.008 84 102 
c h
84 102 m W n
[0.75 0 0 0.75 0 0] concat
/CairoFunction
<< /FunctionType 3
   /Domain [ 0 1 ]
   /Functions [
   << /FunctionType 2
      /Domain [ 0 1 ]
      /C0 [ 0 0.247059 0.541176 ]
      /C1 [ 0 0.843137 0.87451 ]
      /N 1
   >>
   << /FunctionType 2
      /Domain [ 0 1 ]
      /C0 [ 0 0.843137 0.87451 ]
      /C1 [ 0 0.427451 0.941176 ]
      /N 1
   >>
   ]
   /Bounds [ 0.518 ]
   /Encode [ 1 1 2 { pop 0 1 } for ]
>>
def
   << /ShadingType 2
      /ColorSpace /DeviceRGB
      /Coords [ -109.834999 373.834991 369.535004 -105.535004 ]
      /Extend [ true true ]
      /Function CairoFunction
   >>
shfill
Q
q
228 138 m 237.707 138 246.457 132.152 250.172 123.184 c 253.887 114.215
 251.836 103.895 244.969 97.031 c 238.105 90.164 227.785 88.113 218.816 
91.828 c 209.848 95.543 204 104.293 204 114 c 204.016 127.25 214.75 137.984
 228 138 c h
228 102 m 232.855 102 237.23 104.922 239.086 109.406 c 240.945 113.891 
239.918 119.055 236.484 122.484 c 233.055 125.918 227.891 126.945 223.406
 125.086 c 218.922 123.23 216 118.855 216 114 c 216.008 107.375 221.375 
102.008 228 102 c h
228 102 m W n
[0.75 0 0 0.75 0 0] concat
/CairoFunction
<< /FunctionType 3
   /Domain [ 0 1 ]
   /Functions [
   << /FunctionType 2
      /Domain [ 0 1 ]
      /C0 [ 0 0.247059 0.541176 ]
      /C1 [ 0 0.843137 0.87451 ]
      /N 1
   >>
   << /FunctionType 2
      /Domain [ 0 1 ]
      /C0 [ 0 0.843137 0.87451 ]
      /C1 [ 0 0.427451 0.941176 ]
      /N 1
   >>
   ]
   /Bounds [ 0.518 ]
   /Encode [ 1 1 2 { pop 0 1 } for ]
>>
def
   << /ShadingType 2
      /ColorSpace /DeviceRGB
      /Coords [ -13.835 469.834991 465.535004 -9.535 ]
      /Extend [ true true ]
      /Function CairoFunction
   >>
shfill
Q
Q Q
showpage
%%Trailer
end
%%EOF
