%!PS-Adobe-3.0 EPSF-3.0
%%Creator: cairo 1.16.0 (https://cairographics.org)
%%CreationDate: Thu Dec  3 11:23:26 2020
%%Pages: 1
%%DocumentData: Clean7Bit
%%LanguageLevel: 3
%%BoundingBox: 6 6 378 378
%%EndComments
%%BeginProlog
50 dict begin
/q { gsave } bind def
/Q { grestore } bind def
/cm { 6 array astore concat } bind def
/w { setlinewidth } bind def
/J { setlinecap } bind def
/j { setlinejoin } bind def
/M { setmiterlimit } bind def
/d { setdash } bind def
/m { moveto } bind def
/l { lineto } bind def
/c { curveto } bind def
/h { closepath } bind def
/re { exch dup neg 3 1 roll 5 3 roll moveto 0 rlineto
      0 exch rlineto 0 rlineto closepath } bind def
/S { stroke } bind def
/f { fill } bind def
/f* { eofill } bind def
/n { newpath } bind def
/W { clip } bind def
/W* { eoclip } bind def
/BT { } bind def
/ET { } bind def
/BDC { mark 3 1 roll /BDC pdfmark } bind def
/EMC { mark /EMC pdfmark } bind def
/cairo_store_point { /cairo_point_y exch def /cairo_point_x exch def } def
/Tj { show currentpoint cairo_store_point } bind def
/TJ {
  {
    dup
    type /stringtype eq
    { show } { -0.001 mul 0 cairo_font_matrix dtransform rmoveto } ifelse
  } forall
  currentpoint cairo_store_point
} bind def
/cairo_selectfont { cairo_font_matrix aload pop pop pop 0 0 6 array astore
    cairo_font exch selectfont cairo_point_x cairo_point_y moveto } bind def
/Tf { pop /cairo_font exch def /cairo_font_matrix where
      { pop cairo_selectfont } if } bind def
/Td { matrix translate cairo_font_matrix matrix concatmatrix dup
      /cairo_font_matrix exch def dup 4 get exch 5 get cairo_store_point
      /cairo_font where { pop cairo_selectfont } if } bind def
/Tm { 2 copy 8 2 roll 6 array astore /cairo_font_matrix exch def
      cairo_store_point /cairo_font where { pop cairo_selectfont } if } bind def
/g { setgray } bind def
/rg { setrgbcolor } bind def
/d1 { setcachedevice } bind def
/cairo_data_source {
  CairoDataIndex CairoData length lt
    { CairoData CairoDataIndex get /CairoDataIndex CairoDataIndex 1 add def }
    { () } ifelse
} def
/cairo_flush_ascii85_file { cairo_ascii85_file status { cairo_ascii85_file flushfile } if } def
/cairo_image { image cairo_flush_ascii85_file } def
/cairo_imagemask { imagemask cairo_flush_ascii85_file } def
%%EndProlog
%%BeginSetup
%%EndSetup
%%Page: 1 1
%%BeginPageSetup
%%PageBoundingBox: 6 6 378 378
%%EndPageSetup
q 6 6 372 372 rectclip
1 0 0 -1 0 384 cm q
q
357 66 m 204 66 l 204 21 l 203.992 12.719 197.281 6.008 189 6 c 51 6 l 
42.719 6.008 36.008 12.719 36 21 c 36 66 l 27 66 l 15.406 66.012 6.012 75.406
 6 87 c 6 309 l 6.012 320.594 15.406 329.988 27 330 c 147.93 330 l 144.328
 348 l 102 348 l 98.688 348 96 350.688 96 354 c 96 372 l 96 375.312 98.688
 378 102 378 c 282 378 l 285.312 378 288 375.312 288 372 c 288 354 l 288
 350.688 285.312 348 282 348 c 238.801 348 l 234.75 330 l 357 330 l 368.594
 329.988 377.988 320.594 378 309 c 378 87 l 377.988 75.406 368.594 66.012
 357 66 c h
48 21 m 48 19.344 49.344 18 51 18 c 189 18 l 190.656 18 192 19.344 192 
21 c 192 99 l 192 100.656 190.656 102 189 102 c 168 102 l 164.688 102 162
 104.688 162 108 c 162 117.516 l 148.246 103.754 l 147.117 102.629 145.59
 102 144 102 c 51 102 l 49.344 102 48 100.656 48 99 c h
276 360 m 276 366 l 108 366 l 108 360 l h
156.57 348 m 160.172 330 l 222.449 330 l 226.5 348 l h
366 309 m 365.996 313.969 361.969 317.996 357 318 c 27 318 l 22.031 317.996
 18.004 313.969 18 309 c 18 294 l 366 294 l h
366 282 m 18 282 l 18 87 l 18.004 82.031 22.031 78.004 27 78 c 36 78 l 
36 99 l 36.008 107.281 42.719 113.992 51 114 c 141.516 114 l 163.754 136.246
 l 165.473 137.965 168.055 138.477 170.297 137.547 c 172.539 136.617 174
 134.43 174 132 c 174 114 l 189 114 l 197.281 113.992 203.992 107.281 204
 99 c 204 78 l 357 78 l 361.969 78.004 365.996 82.031 366 87 c h
366 282 m W n
[0.75 0 0 0.75 0 0] concat
/CairoFunction
<< /FunctionType 3
   /Domain [ 0 1 ]
   /Functions [
   << /FunctionType 2
      /Domain [ 0 1 ]
      /C0 [ 0 0.247059 0.541176 ]
      /C1 [ 0 0.843137 0.87451 ]
      /N 1
   >>
   << /FunctionType 2
      /Domain [ 0 1 ]
      /C0 [ 0 0.843137 0.87451 ]
      /C1 [ 0 0.427451 0.941176 ]
      /N 1
   >>
   ]
   /Bounds [ 0.518 ]
   /Encode [ 1 1 2 { pop 0 1 } for ]
>>
def
   << /ShadingType 2
      /ColorSpace /DeviceRGB
      /Coords [ 2.414 495.23999 491.433014 6.221 ]
      /Extend [ true true ]
      /Function CairoFunction
   >>
shfill
Q
q
120 78 m 127.281 78 133.844 73.613 136.629 66.887 c 139.414 60.164 137.875
 52.422 132.727 47.273 c 127.578 42.125 119.836 40.586 113.113 43.371 c 
106.387 46.156 102 52.719 102 60 c 102.012 69.938 110.062 77.988 120 78 
c h
120 54 m 122.426 54 124.613 55.461 125.543 57.703 c 126.473 59.945 125.957
 62.527 124.242 64.242 c 122.527 65.957 119.945 66.473 117.703 65.543 c 
115.461 64.613 114 62.426 114 60 c 114.004 56.688 116.688 54.004 120 54 
c h
120 54 m W n
[0.75 0 0 0.75 0 0] concat
/CairoFunction
<< /FunctionType 3
   /Domain [ 0 1 ]
   /Functions [
   << /FunctionType 2
      /Domain [ 0 1 ]
      /C0 [ 0 0.247059 0.541176 ]
      /C1 [ 0 0.843137 0.87451 ]
      /N 1
   >>
   << /FunctionType 2
      /Domain [ 0 1 ]
      /C0 [ 0 0.843137 0.87451 ]
      /C1 [ 0 0.427451 0.941176 ]
      /N 1
   >>
   ]
   /Bounds [ 0.518 ]
   /Encode [ 1 1 2 { pop 0 1 } for ]
>>
def
   << /ShadingType 2
      /ColorSpace /DeviceRGB
      /Coords [ -126.413002 366.412994 362.605988 -122.606003 ]
      /Extend [ true true ]
      /Function CairoFunction
   >>
shfill
Q
q
78 78 m 85.281 78 91.844 73.613 94.629 66.887 c 97.414 60.164 95.875 52.422
 90.727 47.273 c 85.578 42.125 77.836 40.586 71.113 43.371 c 64.387 46.156
 60 52.719 60 60 c 60.012 69.938 68.062 77.988 78 78 c h
78 54 m 80.426 54 82.613 55.461 83.543 57.703 c 84.473 59.945 83.957 62.527
 82.242 64.242 c 80.527 65.957 77.945 66.473 75.703 65.543 c 73.461 64.613
 72 62.426 72 60 c 72.004 56.688 74.688 54.004 78 54 c h
78 54 m W n
[0.75 0 0 0.75 0 0] concat
/CairoFunction
<< /FunctionType 3
   /Domain [ 0 1 ]
   /Functions [
   << /FunctionType 2
      /Domain [ 0 1 ]
      /C0 [ 0 0.247059 0.541176 ]
      /C1 [ 0 0.843137 0.87451 ]
      /N 1
   >>
   << /FunctionType 2
      /Domain [ 0 1 ]
      /C0 [ 0 0.843137 0.87451 ]
      /C1 [ 0 0.427451 0.941176 ]
      /N 1
   >>
   ]
   /Bounds [ 0.518 ]
   /Encode [ 1 1 2 { pop 0 1 } for ]
>>
def
   << /ShadingType 2
      /ColorSpace /DeviceRGB
      /Coords [ -154.412994 338.412994 334.605988 -150.606003 ]
      /Extend [ true true ]
      /Function CairoFunction
   >>
shfill
Q
q
162 78 m 169.281 78 175.844 73.613 178.629 66.887 c 181.414 60.164 179.875
 52.422 174.727 47.273 c 169.578 42.125 161.836 40.586 155.113 43.371 c 
148.387 46.156 144 52.719 144 60 c 144.012 69.938 152.062 77.988 162 78 
c h
162 54 m 164.426 54 166.613 55.461 167.543 57.703 c 168.473 59.945 167.957
 62.527 166.242 64.242 c 164.527 65.957 161.945 66.473 159.703 65.543 c 
157.461 64.613 156 62.426 156 60 c 156.004 56.688 158.688 54.004 162 54 
c h
162 54 m W n
[0.75 0 0 0.75 0 0] concat
/CairoFunction
<< /FunctionType 3
   /Domain [ 0 1 ]
   /Functions [
   << /FunctionType 2
      /Domain [ 0 1 ]
      /C0 [ 0 0.247059 0.541176 ]
      /C1 [ 0 0.843137 0.87451 ]
      /N 1
   >>
   << /FunctionType 2
      /Domain [ 0 1 ]
      /C0 [ 0 0.843137 0.87451 ]
      /C1 [ 0 0.427451 0.941176 ]
      /N 1
   >>
   ]
   /Bounds [ 0.518 ]
   /Encode [ 1 1 2 { pop 0 1 } for ]
>>
def
   << /ShadingType 2
      /ColorSpace /DeviceRGB
      /Coords [ -98.413002 394.412994 390.605988 -94.606003 ]
      /Extend [ true true ]
      /Function CairoFunction
   >>
shfill
Q
q
195 234 m 210 234 l 210 252 l 210 254.426 211.461 256.613 213.703 257.543
 c 215.945 258.473 218.527 257.957 220.242 256.242 c 242.484 234 l 333 234
 l 341.281 233.992 347.992 227.281 348 219 c 348 141 l 347.992 132.719 341.281
 126.008 333 126 c 195 126 l 186.719 126.008 180.008 132.719 180 141 c 180
 219 l 180.008 227.281 186.719 233.992 195 234 c h
192 141 m 192 139.344 193.344 138 195 138 c 333 138 l 334.656 138 336 139.344
 336 141 c 336 219 l 336 220.656 334.656 222 333 222 c 240 222 l 238.41 
222 236.883 222.633 235.758 223.758 c 222 237.516 l 222 228 l 222 224.688
 219.312 222 216 222 c 195 222 l 193.344 222 192 220.656 192 219 c h
192 141 m W n
[0.75 0 0 0.75 0 0] concat
/CairoFunction
<< /FunctionType 3
   /Domain [ 0 1 ]
   /Functions [
   << /FunctionType 2
      /Domain [ 0 1 ]
      /C0 [ 0 0.247059 0.541176 ]
      /C1 [ 0 0.843137 0.87451 ]
      /N 1
   >>
   << /FunctionType 2
      /Domain [ 0 1 ]
      /C0 [ 0 0.843137 0.87451 ]
      /C1 [ 0 0.427451 0.941176 ]
      /N 1
   >>
   ]
   /Bounds [ 0.518 ]
   /Encode [ 1 1 2 { pop 0 1 } for ]
>>
def
   << /ShadingType 2
      /ColorSpace /DeviceRGB
      /Coords [ 49.587002 542.413025 538.606018 53.394001 ]
      /Extend [ true true ]
      /Function CairoFunction
   >>
shfill
Q
q
264 198 m 271.281 198 277.844 193.613 280.629 186.887 c 283.414 180.164
 281.875 172.422 276.727 167.273 c 271.578 162.125 263.836 160.586 257.113
 163.371 c 250.387 166.156 246 172.719 246 180 c 246.012 189.938 254.062
 197.988 264 198 c h
264 174 m 266.426 174 268.613 175.461 269.543 177.703 c 270.473 179.945
 269.957 182.527 268.242 184.242 c 266.527 185.957 263.945 186.473 261.703
 185.543 c 259.461 184.613 258 182.426 258 180 c 258.004 176.688 260.688
 174.004 264 174 c h
264 174 m W n
[0.75 0 0 0.75 0 0] concat
/CairoFunction
<< /FunctionType 3
   /Domain [ 0 1 ]
   /Functions [
   << /FunctionType 2
      /Domain [ 0 1 ]
      /C0 [ 0 0.247059 0.541176 ]
      /C1 [ 0 0.843137 0.87451 ]
      /N 1
   >>
   << /FunctionType 2
      /Domain [ 0 1 ]
      /C0 [ 0 0.843137 0.87451 ]
      /C1 [ 0 0.427451 0.941176 ]
      /N 1
   >>
   ]
   /Bounds [ 0.518 ]
   /Encode [ 1 1 2 { pop 0 1 } for ]
>>
def
   << /ShadingType 2
      /ColorSpace /DeviceRGB
      /Coords [ 49.587002 542.413025 538.606018 53.394001 ]
      /Extend [ true true ]
      /Function CairoFunction
   >>
shfill
Q
q
306 198 m 313.281 198 319.844 193.613 322.629 186.887 c 325.414 180.164
 323.875 172.422 318.727 167.273 c 313.578 162.125 305.836 160.586 299.113
 163.371 c 292.387 166.156 288 172.719 288 180 c 288.012 189.938 296.062
 197.988 306 198 c h
306 174 m 308.426 174 310.613 175.461 311.543 177.703 c 312.473 179.945
 311.957 182.527 310.242 184.242 c 308.527 185.957 305.945 186.473 303.703
 185.543 c 301.461 184.613 300 182.426 300 180 c 300.004 176.688 302.688
 174.004 306 174 c h
306 174 m W n
[0.75 0 0 0.75 0 0] concat
/CairoFunction
<< /FunctionType 3
   /Domain [ 0 1 ]
   /Functions [
   << /FunctionType 2
      /Domain [ 0 1 ]
      /C0 [ 0 0.247059 0.541176 ]
      /C1 [ 0 0.843137 0.87451 ]
      /N 1
   >>
   << /FunctionType 2
      /Domain [ 0 1 ]
      /C0 [ 0 0.843137 0.87451 ]
      /C1 [ 0 0.427451 0.941176 ]
      /N 1
   >>
   ]
   /Bounds [ 0.518 ]
   /Encode [ 1 1 2 { pop 0 1 } for ]
>>
def
   << /ShadingType 2
      /ColorSpace /DeviceRGB
      /Coords [ 77.586998 570.413025 566.606018 81.393997 ]
      /Extend [ true true ]
      /Function CairoFunction
   >>
shfill
Q
q
222 198 m 229.281 198 235.844 193.613 238.629 186.887 c 241.414 180.164
 239.875 172.422 234.727 167.273 c 229.578 162.125 221.836 160.586 215.113
 163.371 c 208.387 166.156 204 172.719 204 180 c 204.012 189.938 212.062
 197.988 222 198 c h
222 174 m 224.426 174 226.613 175.461 227.543 177.703 c 228.473 179.945
 227.957 182.527 226.242 184.242 c 224.527 185.957 221.945 186.473 219.703
 185.543 c 217.461 184.613 216 182.426 216 180 c 216.004 176.688 218.688
 174.004 222 174 c h
222 174 m W n
[0.75 0 0 0.75 0 0] concat
/CairoFunction
<< /FunctionType 3
   /Domain [ 0 1 ]
   /Functions [
   << /FunctionType 2
      /Domain [ 0 1 ]
      /C0 [ 0 0.247059 0.541176 ]
      /C1 [ 0 0.843137 0.87451 ]
      /N 1
   >>
   << /FunctionType 2
      /Domain [ 0 1 ]
      /C0 [ 0 0.843137 0.87451 ]
      /C1 [ 0 0.427451 0.941176 ]
      /N 1
   >>
   ]
   /Bounds [ 0.518 ]
   /Encode [ 1 1 2 { pop 0 1 } for ]
>>
def
   << /ShadingType 2
      /ColorSpace /DeviceRGB
      /Coords [ 21.587 514.413025 510.605988 25.393999 ]
      /Extend [ true true ]
      /Function CairoFunction
   >>
shfill
Q
q
192 264 m 192 267.312 189.312 270 186 270 c 182.688 270 180 267.312 180
 264 c 180 260.688 182.688 258 186 258 c 189.312 258 192 260.688 192 264
 c h
192 264 m W n
[0.75 0 0 0.75 0 0] concat
/CairoFunction
<< /FunctionType 3
   /Domain [ 0 1 ]
   /Functions [
   << /FunctionType 2
      /Domain [ 0 1 ]
      /C0 [ 0 0.247059 0.541176 ]
      /C1 [ 0 0.843137 0.87451 ]
      /N 1
   >>
   << /FunctionType 2
      /Domain [ 0 1 ]
      /C0 [ 0 0.843137 0.87451 ]
      /C1 [ 0 0.427451 0.941176 ]
      /N 1
   >>
   ]
   /Bounds [ 0.518 ]
   /Encode [ 1 1 2 { pop 0 1 } for ]
>>
def
   << /ShadingType 2
      /ColorSpace /DeviceRGB
      /Coords [ 53.587002 546.413025 542.606018 57.394001 ]
      /Extend [ true true ]
      /Function CairoFunction
   >>
shfill
Q
q
168 264 m 168 267.312 165.312 270 162 270 c 158.688 270 156 267.312 156
 264 c 156 260.688 158.688 258 162 258 c 165.312 258 168 260.688 168 264
 c h
168 264 m W n
[0.75 0 0 0.75 0 0] concat
/CairoFunction
<< /FunctionType 3
   /Domain [ 0 1 ]
   /Functions [
   << /FunctionType 2
      /Domain [ 0 1 ]
      /C0 [ 0 0.247059 0.541176 ]
      /C1 [ 0 0.843137 0.87451 ]
      /N 1
   >>
   << /FunctionType 2
      /Domain [ 0 1 ]
      /C0 [ 0 0.843137 0.87451 ]
      /C1 [ 0 0.427451 0.941176 ]
      /N 1
   >>
   ]
   /Bounds [ 0.518 ]
   /Encode [ 1 1 2 { pop 0 1 } for ]
>>
def
   << /ShadingType 2
      /ColorSpace /DeviceRGB
      /Coords [ 37.587002 530.413025 526.606018 41.394001 ]
      /Extend [ true true ]
      /Function CairoFunction
   >>
shfill
Q
q
144 264 m 144 267.312 141.312 270 138 270 c 134.688 270 132 267.312 132
 264 c 132 260.688 134.688 258 138 258 c 141.312 258 144 260.688 144 264
 c h
144 264 m W n
[0.75 0 0 0.75 0 0] concat
/CairoFunction
<< /FunctionType 3
   /Domain [ 0 1 ]
   /Functions [
   << /FunctionType 2
      /Domain [ 0 1 ]
      /C0 [ 0 0.247059 0.541176 ]
      /C1 [ 0 0.843137 0.87451 ]
      /N 1
   >>
   << /FunctionType 2
      /Domain [ 0 1 ]
      /C0 [ 0 0.843137 0.87451 ]
      /C1 [ 0 0.427451 0.941176 ]
      /N 1
   >>
   ]
   /Bounds [ 0.518 ]
   /Encode [ 1 1 2 { pop 0 1 } for ]
>>
def
   << /ShadingType 2
      /ColorSpace /DeviceRGB
      /Coords [ 21.587 514.413025 510.605988 25.393999 ]
      /Extend [ true true ]
      /Function CairoFunction
   >>
shfill
Q
Q Q
showpage
%%Trailer
end
%%EOF
