%!PS-Adobe-3.0 EPSF-3.0
%%Creator: cairo 1.16.0 (https://cairographics.org)
%%CreationDate: Thu Dec  3 11:23:27 2020
%%Pages: 1
%%DocumentData: Clean7Bit
%%LanguageLevel: 3
%%BoundingBox: 54 6 330 378
%%EndComments
%%BeginProlog
50 dict begin
/q { gsave } bind def
/Q { grestore } bind def
/cm { 6 array astore concat } bind def
/w { setlinewidth } bind def
/J { setlinecap } bind def
/j { setlinejoin } bind def
/M { setmiterlimit } bind def
/d { setdash } bind def
/m { moveto } bind def
/l { lineto } bind def
/c { curveto } bind def
/h { closepath } bind def
/re { exch dup neg 3 1 roll 5 3 roll moveto 0 rlineto
      0 exch rlineto 0 rlineto closepath } bind def
/S { stroke } bind def
/f { fill } bind def
/f* { eofill } bind def
/n { newpath } bind def
/W { clip } bind def
/W* { eoclip } bind def
/BT { } bind def
/ET { } bind def
/BDC { mark 3 1 roll /BDC pdfmark } bind def
/EMC { mark /EMC pdfmark } bind def
/cairo_store_point { /cairo_point_y exch def /cairo_point_x exch def } def
/Tj { show currentpoint cairo_store_point } bind def
/TJ {
  {
    dup
    type /stringtype eq
    { show } { -0.001 mul 0 cairo_font_matrix dtransform rmoveto } ifelse
  } forall
  currentpoint cairo_store_point
} bind def
/cairo_selectfont { cairo_font_matrix aload pop pop pop 0 0 6 array astore
    cairo_font exch selectfont cairo_point_x cairo_point_y moveto } bind def
/Tf { pop /cairo_font exch def /cairo_font_matrix where
      { pop cairo_selectfont } if } bind def
/Td { matrix translate cairo_font_matrix matrix concatmatrix dup
      /cairo_font_matrix exch def dup 4 get exch 5 get cairo_store_point
      /cairo_font where { pop cairo_selectfont } if } bind def
/Tm { 2 copy 8 2 roll 6 array astore /cairo_font_matrix exch def
      cairo_store_point /cairo_font where { pop cairo_selectfont } if } bind def
/g { setgray } bind def
/rg { setrgbcolor } bind def
/d1 { setcachedevice } bind def
/cairo_data_source {
  CairoDataIndex CairoData length lt
    { CairoData CairoDataIndex get /CairoDataIndex CairoDataIndex 1 add def }
    { () } ifelse
} def
/cairo_flush_ascii85_file { cairo_ascii85_file status { cairo_ascii85_file flushfile } if } def
/cairo_image { image cairo_flush_ascii85_file } def
/cairo_imagemask { imagemask cairo_flush_ascii85_file } def
%%EndProlog
%%BeginSetup
%%EndSetup
%%Page: 1 1
%%BeginPageSetup
%%PageBoundingBox: 54 6 330 378
%%EndPageSetup
q 54 6 276 372 rectclip
1 0 0 -1 0 384 cm q
q
324 6 m 60 6 l 56.688 6 54 8.688 54 12 c 54 372 l 54 375.312 56.688 378
 60 378 c 324 378 l 327.312 378 330 375.312 330 372 c 330 12 l 330 8.688
 327.312 6 324 6 c h
318 366 m 66 366 l 66 18 l 318 18 l h
318 366 m W n
[0.75 0 0 0.75 0 0] concat
/CairoFunction
<< /FunctionType 3
   /Domain [ 0 1 ]
   /Functions [
   << /FunctionType 2
      /Domain [ 0 1 ]
      /C0 [ 0 0.247059 0.541176 ]
      /C1 [ 0 0.843137 0.87451 ]
      /N 1
   >>
   << /FunctionType 2
      /Domain [ 0 1 ]
      /C0 [ 0 0.843137 0.87451 ]
      /C1 [ 0 0.427451 0.941176 ]
      /N 1
   >>
   ]
   /Bounds [ 0.518 ]
   /Encode [ 1 1 2 { pop 0 1 } for ]
>>
def
   << /ShadingType 2
      /ColorSpace /DeviceRGB
      /Coords [ -11.652 523.651978 504.726013 7.274 ]
      /Extend [ true true ]
      /Function CairoFunction
   >>
shfill
Q
q
84 102 m 144 102 l 147.312 102 150 99.312 150 96 c 150 36 l 150 32.688 
147.312 30 144 30 c 84 30 l 80.688 30 78 32.688 78 36 c 78 96 l 78 99.312
 80.688 102 84 102 c h
90 42 m 138 42 l 138 90 l 90 90 l h
90 42 m W n
[0.75 0 0 0.75 0 0] concat
/CairoFunction
<< /FunctionType 3
   /Domain [ 0 1 ]
   /Functions [
   << /FunctionType 2
      /Domain [ 0 1 ]
      /C0 [ 0 0.247059 0.541176 ]
      /C1 [ 0 0.843137 0.87451 ]
      /N 1
   >>
   << /FunctionType 2
      /Domain [ 0 1 ]
      /C0 [ 0 0.843137 0.87451 ]
      /C1 [ 0 0.427451 0.941176 ]
      /N 1
   >>
   ]
   /Bounds [ 0.518 ]
   /Encode [ 1 1 2 { pop 0 1 } for ]
>>
def
   << /ShadingType 2
      /ColorSpace /DeviceRGB
      /Coords [ -147.651993 387.652008 368.726013 -128.725998 ]
      /Extend [ true true ]
      /Function CairoFunction
   >>
shfill
Q
q
84 198 m 144 198 l 147.312 198 150 195.312 150 192 c 150 132 l 150 128.688
 147.312 126 144 126 c 84 126 l 80.688 126 78 128.688 78 132 c 78 192 l 
78 195.312 80.688 198 84 198 c h
90 138 m 138 138 l 138 186 l 90 186 l h
90 138 m W n
[0.75 0 0 0.75 0 0] concat
/CairoFunction
<< /FunctionType 3
   /Domain [ 0 1 ]
   /Functions [
   << /FunctionType 2
      /Domain [ 0 1 ]
      /C0 [ 0 0.247059 0.541176 ]
      /C1 [ 0 0.843137 0.87451 ]
      /N 1
   >>
   << /FunctionType 2
      /Domain [ 0 1 ]
      /C0 [ 0 0.843137 0.87451 ]
      /C1 [ 0 0.427451 0.941176 ]
      /N 1
   >>
   ]
   /Bounds [ 0.518 ]
   /Encode [ 1 1 2 { pop 0 1 } for ]
>>
def
   << /ShadingType 2
      /ColorSpace /DeviceRGB
      /Coords [ -83.652 451.652008 432.726013 -64.725998 ]
      /Extend [ true true ]
      /Function CairoFunction
   >>
shfill
Q
q
130.242 49.758 m 129.117 48.633 127.59 48 126 48 c 124.41 48 122.883 48.633
 121.758 49.758 c 114 57.516 l 106.242 49.758 l 103.898 47.414 100.102 47.414
 97.758 49.758 c 95.414 52.102 95.414 55.898 97.758 58.242 c 105.516 66 
l 97.758 73.758 l 95.414 76.102 95.414 79.898 97.758 82.242 c 100.102 84.586
 103.898 84.586 106.242 82.242 c 114 74.484 l 121.758 82.242 l 124.102 84.586
 127.898 84.586 130.242 82.242 c 132.586 79.898 132.586 76.102 130.242 73.758
 c 122.484 66 l 130.242 58.242 l 131.367 57.117 132 55.59 132 54 c 132 52.41
 131.367 50.883 130.242 49.758 c h
130.242 49.758 m W n
[0.75 0 0 0.75 0 0] concat
/CairoFunction
<< /FunctionType 3
   /Domain [ 0 1 ]
   /Functions [
   << /FunctionType 2
      /Domain [ 0 1 ]
      /C0 [ 0 0.247059 0.541176 ]
      /C1 [ 0 0.843137 0.87451 ]
      /N 1
   >>
   << /FunctionType 2
      /Domain [ 0 1 ]
      /C0 [ 0 0.843137 0.87451 ]
      /C1 [ 0 0.427451 0.941176 ]
      /N 1
   >>
   ]
   /Bounds [ 0.518 ]
   /Encode [ 1 1 2 { pop 0 1 } for ]
>>
def
   << /ShadingType 2
      /ColorSpace /DeviceRGB
      /Coords [ -147.651993 387.652008 368.726013 -128.725998 ]
      /Extend [ true true ]
      /Function CairoFunction
   >>
shfill
Q
q
129.602 145.199 m 126.949 143.211 123.188 143.75 121.199 146.398 c 109.023
 162.633 l 107.367 159.316 l 105.871 156.379 102.285 155.203 99.336 156.676
 c 96.391 158.148 95.184 161.727 96.633 164.684 c 102.633 176.684 l 103.562
 178.543 105.391 179.789 107.461 179.977 c 107.641 179.992 107.82 180 108
 180 c 109.891 180 111.668 179.109 112.801 177.602 c 130.801 153.602 l 131.754
 152.328 132.164 150.727 131.941 149.152 c 131.715 147.574 130.875 146.156
 129.602 145.199 c h
129.602 145.199 m W n
[0.75 0 0 0.75 0 0] concat
/CairoFunction
<< /FunctionType 3
   /Domain [ 0 1 ]
   /Functions [
   << /FunctionType 2
      /Domain [ 0 1 ]
      /C0 [ 0 0.247059 0.541176 ]
      /C1 [ 0 0.843137 0.87451 ]
      /N 1
   >>
   << /FunctionType 2
      /Domain [ 0 1 ]
      /C0 [ 0 0.843137 0.87451 ]
      /C1 [ 0 0.427451 0.941176 ]
      /N 1
   >>
   ]
   /Bounds [ 0.518 ]
   /Encode [ 1 1 2 { pop 0 1 } for ]
>>
def
   << /ShadingType 2
      /ColorSpace /DeviceRGB
      /Coords [ -85.653 449.652008 430.725006 -66.725998 ]
      /Extend [ true true ]
      /Function CairoFunction
   >>
shfill
Q
q
144 222 m 84 222 l 80.688 222 78 224.688 78 228 c 78 288 l 78 291.312 80.688
 294 84 294 c 144 294 l 147.312 294 150 291.312 150 288 c 150 228 l 150 
224.688 147.312 222 144 222 c h
138 282 m 90 282 l 90 234 l 138 234 l h
138 282 m W n
[0.75 0 0 0.75 0 0] concat
/CairoFunction
<< /FunctionType 3
   /Domain [ 0 1 ]
   /Functions [
   << /FunctionType 2
      /Domain [ 0 1 ]
      /C0 [ 0 0.247059 0.541176 ]
      /C1 [ 0 0.843137 0.87451 ]
      /N 1
   >>
   << /FunctionType 2
      /Domain [ 0 1 ]
      /C0 [ 0 0.843137 0.87451 ]
      /C1 [ 0 0.427451 0.941176 ]
      /N 1
   >>
   ]
   /Bounds [ 0.518 ]
   /Encode [ 1 1 2 { pop 0 1 } for ]
>>
def
   << /ShadingType 2
      /ColorSpace /DeviceRGB
      /Coords [ -19.652 515.651978 496.726013 -0.726 ]
      /Extend [ true true ]
      /Function CairoFunction
   >>
shfill
Q
q
130.801 249.602 m 112.801 273.602 l 111.668 275.113 109.891 276 108 276
 c 107.82 276 107.641 275.992 107.461 275.977 c 105.387 275.789 103.562 
274.543 102.629 272.684 c 96.629 260.684 l 95.918 259.262 95.801 257.613
 96.305 256.102 c 96.809 254.59 97.891 253.344 99.316 252.629 c 100.738 
251.918 102.387 251.801 103.898 252.305 c 105.41 252.809 106.656 253.891
 107.371 255.316 c 109.027 258.629 l 121.199 242.398 l 122.156 241.129 123.574
 240.285 125.152 240.059 c 126.727 239.836 128.328 240.246 129.602 241.199
 c 130.871 242.156 131.715 243.574 131.941 245.152 c 132.164 246.727 131.754
 248.328 130.801 249.602 c h
130.801 249.602 m W n
[0.75 0 0 0.75 0 0] concat
/CairoFunction
<< /FunctionType 3
   /Domain [ 0 1 ]
   /Functions [
   << /FunctionType 2
      /Domain [ 0 1 ]
      /C0 [ 0 0.247059 0.541176 ]
      /C1 [ 0 0.843137 0.87451 ]
      /N 1
   >>
   << /FunctionType 2
      /Domain [ 0 1 ]
      /C0 [ 0 0.843137 0.87451 ]
      /C1 [ 0 0.427451 0.941176 ]
      /N 1
   >>
   ]
   /Bounds [ 0.518 ]
   /Encode [ 1 1 2 { pop 0 1 } for ]
>>
def
   << /ShadingType 2
      /ColorSpace /DeviceRGB
      /Coords [ -21.653999 513.651001 494.723999 -2.727 ]
      /Extend [ true true ]
      /Function CairoFunction
   >>
shfill
Q
q
168 48 m 300 48 l 303.312 48 306 45.312 306 42 c 306 38.688 303.312 36 
300 36 c 168 36 l 164.688 36 162 38.688 162 42 c 162 45.312 164.688 48 168
 48 c h
168 48 m W n
[0.75 0 0 0.75 0 0] concat
/CairoFunction
<< /FunctionType 3
   /Domain [ 0 1 ]
   /Functions [
   << /FunctionType 2
      /Domain [ 0 1 ]
      /C0 [ 0 0.247059 0.541176 ]
      /C1 [ 0 0.843137 0.87451 ]
      /N 1
   >>
   << /FunctionType 2
      /Domain [ 0 1 ]
      /C0 [ 0 0.843137 0.87451 ]
      /C1 [ 0 0.427451 0.941176 ]
      /N 1
   >>
   ]
   /Bounds [ 0.518 ]
   /Encode [ 1 1 2 { pop 0 1 } for ]
>>
def
   << /ShadingType 2
      /ColorSpace /DeviceRGB
      /Coords [ -83.652 451.652008 432.726013 -64.725998 ]
      /Extend [ true true ]
      /Function CairoFunction
   >>
shfill
Q
q
168 72 m 300 72 l 303.312 72 306 69.312 306 66 c 306 62.688 303.312 60 
300 60 c 168 60 l 164.688 60 162 62.688 162 66 c 162 69.312 164.688 72 168
 72 c h
168 72 m W n
[0.75 0 0 0.75 0 0] concat
/CairoFunction
<< /FunctionType 3
   /Domain [ 0 1 ]
   /Functions [
   << /FunctionType 2
      /Domain [ 0 1 ]
      /C0 [ 0 0.247059 0.541176 ]
      /C1 [ 0 0.843137 0.87451 ]
      /N 1
   >>
   << /FunctionType 2
      /Domain [ 0 1 ]
      /C0 [ 0 0.843137 0.87451 ]
      /C1 [ 0 0.427451 0.941176 ]
      /N 1
   >>
   ]
   /Bounds [ 0.518 ]
   /Encode [ 1 1 2 { pop 0 1 } for ]
>>
def
   << /ShadingType 2
      /ColorSpace /DeviceRGB
      /Coords [ -67.652 467.652008 448.726013 -48.726002 ]
      /Extend [ true true ]
      /Function CairoFunction
   >>
shfill
Q
q
168 96 m 228 96 l 231.312 96 234 93.312 234 90 c 234 86.688 231.312 84 
228 84 c 168 84 l 164.688 84 162 86.688 162 90 c 162 93.312 164.688 96 168
 96 c h
168 96 m W n
[0.75 0 0 0.75 0 0] concat
/CairoFunction
<< /FunctionType 3
   /Domain [ 0 1 ]
   /Functions [
   << /FunctionType 2
      /Domain [ 0 1 ]
      /C0 [ 0 0.247059 0.541176 ]
      /C1 [ 0 0.843137 0.87451 ]
      /N 1
   >>
   << /FunctionType 2
      /Domain [ 0 1 ]
      /C0 [ 0 0.843137 0.87451 ]
      /C1 [ 0 0.427451 0.941176 ]
      /N 1
   >>
   ]
   /Bounds [ 0.518 ]
   /Encode [ 1 1 2 { pop 0 1 } for ]
>>
def
   << /ShadingType 2
      /ColorSpace /DeviceRGB
      /Coords [ -75.652 459.652008 440.726013 -56.726002 ]
      /Extend [ true true ]
      /Function CairoFunction
   >>
shfill
Q
q
246 84 m 242.688 84 240 86.688 240 90 c 240 93.312 242.688 96 246 96 c 
252 96 l 255.312 96 258 93.312 258 90 c 258 86.688 255.312 84 252 84 c h
246 84 m W n
[0.75 0 0 0.75 0 0] concat
/CairoFunction
<< /FunctionType 3
   /Domain [ 0 1 ]
   /Functions [
   << /FunctionType 2
      /Domain [ 0 1 ]
      /C0 [ 0 0.247059 0.541176 ]
      /C1 [ 0 0.843137 0.87451 ]
      /N 1
   >>
   << /FunctionType 2
      /Domain [ 0 1 ]
      /C0 [ 0 0.843137 0.87451 ]
      /C1 [ 0 0.427451 0.941176 ]
      /N 1
   >>
   ]
   /Bounds [ 0.518 ]
   /Encode [ 1 1 2 { pop 0 1 } for ]
>>
def
   << /ShadingType 2
      /ColorSpace /DeviceRGB
      /Coords [ -41.652 493.652008 474.726013 -22.726 ]
      /Extend [ true true ]
      /Function CairoFunction
   >>
shfill
Q
q
168 144 m 300 144 l 303.312 144 306 141.312 306 138 c 306 134.688 303.312
 132 300 132 c 168 132 l 164.688 132 162 134.688 162 138 c 162 141.312 164.688
 144 168 144 c h
168 144 m W n
[0.75 0 0 0.75 0 0] concat
/CairoFunction
<< /FunctionType 3
   /Domain [ 0 1 ]
   /Functions [
   << /FunctionType 2
      /Domain [ 0 1 ]
      /C0 [ 0 0.247059 0.541176 ]
      /C1 [ 0 0.843137 0.87451 ]
      /N 1
   >>
   << /FunctionType 2
      /Domain [ 0 1 ]
      /C0 [ 0 0.843137 0.87451 ]
      /C1 [ 0 0.427451 0.941176 ]
      /N 1
   >>
   ]
   /Bounds [ 0.518 ]
   /Encode [ 1 1 2 { pop 0 1 } for ]
>>
def
   << /ShadingType 2
      /ColorSpace /DeviceRGB
      /Coords [ -19.652 515.651978 496.726013 -0.726 ]
      /Extend [ true true ]
      /Function CairoFunction
   >>
shfill
Q
q
168 168 m 300 168 l 303.312 168 306 165.312 306 162 c 306 158.688 303.312
 156 300 156 c 168 156 l 164.688 156 162 158.688 162 162 c 162 165.312 164.688
 168 168 168 c h
168 168 m W n
[0.75 0 0 0.75 0 0] concat
/CairoFunction
<< /FunctionType 3
   /Domain [ 0 1 ]
   /Functions [
   << /FunctionType 2
      /Domain [ 0 1 ]
      /C0 [ 0 0.247059 0.541176 ]
      /C1 [ 0 0.843137 0.87451 ]
      /N 1
   >>
   << /FunctionType 2
      /Domain [ 0 1 ]
      /C0 [ 0 0.843137 0.87451 ]
      /C1 [ 0 0.427451 0.941176 ]
      /N 1
   >>
   ]
   /Bounds [ 0.518 ]
   /Encode [ 1 1 2 { pop 0 1 } for ]
>>
def
   << /ShadingType 2
      /ColorSpace /DeviceRGB
      /Coords [ -3.652 531.651978 512.726013 15.274 ]
      /Extend [ true true ]
      /Function CairoFunction
   >>
shfill
Q
q
168 192 m 228 192 l 231.312 192 234 189.312 234 186 c 234 182.688 231.312
 180 228 180 c 168 180 l 164.688 180 162 182.688 162 186 c 162 189.312 164.688
 192 168 192 c h
168 192 m W n
[0.75 0 0 0.75 0 0] concat
/CairoFunction
<< /FunctionType 3
   /Domain [ 0 1 ]
   /Functions [
   << /FunctionType 2
      /Domain [ 0 1 ]
      /C0 [ 0 0.247059 0.541176 ]
      /C1 [ 0 0.843137 0.87451 ]
      /N 1
   >>
   << /FunctionType 2
      /Domain [ 0 1 ]
      /C0 [ 0 0.843137 0.87451 ]
      /C1 [ 0 0.427451 0.941176 ]
      /N 1
   >>
   ]
   /Bounds [ 0.518 ]
   /Encode [ 1 1 2 { pop 0 1 } for ]
>>
def
   << /ShadingType 2
      /ColorSpace /DeviceRGB
      /Coords [ -11.652 523.651978 504.726013 7.274 ]
      /Extend [ true true ]
      /Function CairoFunction
   >>
shfill
Q
q
246 180 m 242.688 180 240 182.688 240 186 c 240 189.312 242.688 192 246
 192 c 252 192 l 255.312 192 258 189.312 258 186 c 258 182.688 255.312 180
 252 180 c h
246 180 m W n
[0.75 0 0 0.75 0 0] concat
/CairoFunction
<< /FunctionType 3
   /Domain [ 0 1 ]
   /Functions [
   << /FunctionType 2
      /Domain [ 0 1 ]
      /C0 [ 0 0.247059 0.541176 ]
      /C1 [ 0 0.843137 0.87451 ]
      /N 1
   >>
   << /FunctionType 2
      /Domain [ 0 1 ]
      /C0 [ 0 0.843137 0.87451 ]
      /C1 [ 0 0.427451 0.941176 ]
      /N 1
   >>
   ]
   /Bounds [ 0.518 ]
   /Encode [ 1 1 2 { pop 0 1 } for ]
>>
def
   << /ShadingType 2
      /ColorSpace /DeviceRGB
      /Coords [ 22.348 557.651978 538.726013 41.273998 ]
      /Extend [ true true ]
      /Function CairoFunction
   >>
shfill
Q
q
168 240 m 300 240 l 303.312 240 306 237.312 306 234 c 306 230.688 303.312
 228 300 228 c 168 228 l 164.688 228 162 230.688 162 234 c 162 237.312 164.688
 240 168 240 c h
168 240 m W n
[0.75 0 0 0.75 0 0] concat
/CairoFunction
<< /FunctionType 3
   /Domain [ 0 1 ]
   /Functions [
   << /FunctionType 2
      /Domain [ 0 1 ]
      /C0 [ 0 0.247059 0.541176 ]
      /C1 [ 0 0.843137 0.87451 ]
      /N 1
   >>
   << /FunctionType 2
      /Domain [ 0 1 ]
      /C0 [ 0 0.843137 0.87451 ]
      /C1 [ 0 0.427451 0.941176 ]
      /N 1
   >>
   ]
   /Bounds [ 0.518 ]
   /Encode [ 1 1 2 { pop 0 1 } for ]
>>
def
   << /ShadingType 2
      /ColorSpace /DeviceRGB
      /Coords [ 44.348 579.651978 560.726013 63.273998 ]
      /Extend [ true true ]
      /Function CairoFunction
   >>
shfill
Q
q
168 264 m 300 264 l 303.312 264 306 261.312 306 258 c 306 254.688 303.312
 252 300 252 c 168 252 l 164.688 252 162 254.688 162 258 c 162 261.312 164.688
 264 168 264 c h
168 264 m W n
[0.75 0 0 0.75 0 0] concat
/CairoFunction
<< /FunctionType 3
   /Domain [ 0 1 ]
   /Functions [
   << /FunctionType 2
      /Domain [ 0 1 ]
      /C0 [ 0 0.247059 0.541176 ]
      /C1 [ 0 0.843137 0.87451 ]
      /N 1
   >>
   << /FunctionType 2
      /Domain [ 0 1 ]
      /C0 [ 0 0.843137 0.87451 ]
      /C1 [ 0 0.427451 0.941176 ]
      /N 1
   >>
   ]
   /Bounds [ 0.518 ]
   /Encode [ 1 1 2 { pop 0 1 } for ]
>>
def
   << /ShadingType 2
      /ColorSpace /DeviceRGB
      /Coords [ 60.348 595.651978 576.726013 79.274002 ]
      /Extend [ true true ]
      /Function CairoFunction
   >>
shfill
Q
q
168 288 m 228 288 l 231.312 288 234 285.312 234 282 c 234 278.688 231.312
 276 228 276 c 168 276 l 164.688 276 162 278.688 162 282 c 162 285.312 164.688
 288 168 288 c h
168 288 m W n
[0.75 0 0 0.75 0 0] concat
/CairoFunction
<< /FunctionType 3
   /Domain [ 0 1 ]
   /Functions [
   << /FunctionType 2
      /Domain [ 0 1 ]
      /C0 [ 0 0.247059 0.541176 ]
      /C1 [ 0 0.843137 0.87451 ]
      /N 1
   >>
   << /FunctionType 2
      /Domain [ 0 1 ]
      /C0 [ 0 0.843137 0.87451 ]
      /C1 [ 0 0.427451 0.941176 ]
      /N 1
   >>
   ]
   /Bounds [ 0.518 ]
   /Encode [ 1 1 2 { pop 0 1 } for ]
>>
def
   << /ShadingType 2
      /ColorSpace /DeviceRGB
      /Coords [ 52.348 587.651978 568.726013 71.274002 ]
      /Extend [ true true ]
      /Function CairoFunction
   >>
shfill
Q
q
252 276 m 246 276 l 242.688 276 240 278.688 240 282 c 240 285.312 242.688
 288 246 288 c 252 288 l 255.312 288 258 285.312 258 282 c 258 278.688 255.312
 276 252 276 c h
252 276 m W n
[0.75 0 0 0.75 0 0] concat
/CairoFunction
<< /FunctionType 3
   /Domain [ 0 1 ]
   /Functions [
   << /FunctionType 2
      /Domain [ 0 1 ]
      /C0 [ 0 0.247059 0.541176 ]
      /C1 [ 0 0.843137 0.87451 ]
      /N 1
   >>
   << /FunctionType 2
      /Domain [ 0 1 ]
      /C0 [ 0 0.843137 0.87451 ]
      /C1 [ 0 0.427451 0.941176 ]
      /N 1
   >>
   ]
   /Bounds [ 0.518 ]
   /Encode [ 1 1 2 { pop 0 1 } for ]
>>
def
   << /ShadingType 2
      /ColorSpace /DeviceRGB
      /Coords [ 86.348 621.651978 602.726013 105.274002 ]
      /Extend [ true true ]
      /Function CairoFunction
   >>
shfill
Q
q
84 324 m 216 324 l 219.312 324 222 321.312 222 318 c 222 314.688 219.312
 312 216 312 c 84 312 l 80.688 312 78 314.688 78 318 c 78 321.312 80.688
 324 84 324 c h
84 324 m W n
[0.75 0 0 0.75 0 0] concat
/CairoFunction
<< /FunctionType 3
   /Domain [ 0 1 ]
   /Functions [
   << /FunctionType 2
      /Domain [ 0 1 ]
      /C0 [ 0 0.247059 0.541176 ]
      /C1 [ 0 0.843137 0.87451 ]
      /N 1
   >>
   << /FunctionType 2
      /Domain [ 0 1 ]
      /C0 [ 0 0.843137 0.87451 ]
      /C1 [ 0 0.427451 0.941176 ]
      /N 1
   >>
   ]
   /Bounds [ 0.518 ]
   /Encode [ 1 1 2 { pop 0 1 } for ]
>>
def
   << /ShadingType 2
      /ColorSpace /DeviceRGB
      /Coords [ 44.348 579.651978 560.726013 63.273998 ]
      /Extend [ true true ]
      /Function CairoFunction
   >>
shfill
Q
q
84 348 m 144 348 l 147.312 348 150 345.312 150 342 c 150 338.688 147.312
 336 144 336 c 84 336 l 80.688 336 78 338.688 78 342 c 78 345.312 80.688
 348 84 348 c h
84 348 m W n
[0.75 0 0 0.75 0 0] concat
/CairoFunction
<< /FunctionType 3
   /Domain [ 0 1 ]
   /Functions [
   << /FunctionType 2
      /Domain [ 0 1 ]
      /C0 [ 0 0.247059 0.541176 ]
      /C1 [ 0 0.843137 0.87451 ]
      /N 1
   >>
   << /FunctionType 2
      /Domain [ 0 1 ]
      /C0 [ 0 0.843137 0.87451 ]
      /C1 [ 0 0.427451 0.941176 ]
      /N 1
   >>
   ]
   /Bounds [ 0.518 ]
   /Encode [ 1 1 2 { pop 0 1 } for ]
>>
def
   << /ShadingType 2
      /ColorSpace /DeviceRGB
      /Coords [ 36.348 571.651978 552.726013 55.273998 ]
      /Extend [ true true ]
      /Function CairoFunction
   >>
shfill
Q
q
168 336 m 162 336 l 158.688 336 156 338.688 156 342 c 156 345.312 158.688
 348 162 348 c 168 348 l 171.312 348 174 345.312 174 342 c 174 338.688 171.312
 336 168 336 c h
168 336 m W n
[0.75 0 0 0.75 0 0] concat
/CairoFunction
<< /FunctionType 3
   /Domain [ 0 1 ]
   /Functions [
   << /FunctionType 2
      /Domain [ 0 1 ]
      /C0 [ 0 0.247059 0.541176 ]
      /C1 [ 0 0.843137 0.87451 ]
      /N 1
   >>
   << /FunctionType 2
      /Domain [ 0 1 ]
      /C0 [ 0 0.843137 0.87451 ]
      /C1 [ 0 0.427451 0.941176 ]
      /N 1
   >>
   ]
   /Bounds [ 0.518 ]
   /Encode [ 1 1 2 { pop 0 1 } for ]
>>
def
   << /ShadingType 2
      /ColorSpace /DeviceRGB
      /Coords [ 70.348 605.651978 586.726013 89.274002 ]
      /Extend [ true true ]
      /Function CairoFunction
   >>
shfill
Q
Q Q
showpage
%%Trailer
end
%%EOF
