%!PS-Adobe-3.0 EPSF-3.0
%%Creator: cairo 1.16.0 (https://cairographics.org)
%%CreationDate: Thu Dec  3 11:23:28 2020
%%Pages: 1
%%DocumentData: Clean7Bit
%%LanguageLevel: 3
%%BoundingBox: 6 6 378 378
%%EndComments
%%BeginProlog
50 dict begin
/q { gsave } bind def
/Q { grestore } bind def
/cm { 6 array astore concat } bind def
/w { setlinewidth } bind def
/J { setlinecap } bind def
/j { setlinejoin } bind def
/M { setmiterlimit } bind def
/d { setdash } bind def
/m { moveto } bind def
/l { lineto } bind def
/c { curveto } bind def
/h { closepath } bind def
/re { exch dup neg 3 1 roll 5 3 roll moveto 0 rlineto
      0 exch rlineto 0 rlineto closepath } bind def
/S { stroke } bind def
/f { fill } bind def
/f* { eofill } bind def
/n { newpath } bind def
/W { clip } bind def
/W* { eoclip } bind def
/BT { } bind def
/ET { } bind def
/BDC { mark 3 1 roll /BDC pdfmark } bind def
/EMC { mark /EMC pdfmark } bind def
/cairo_store_point { /cairo_point_y exch def /cairo_point_x exch def } def
/Tj { show currentpoint cairo_store_point } bind def
/TJ {
  {
    dup
    type /stringtype eq
    { show } { -0.001 mul 0 cairo_font_matrix dtransform rmoveto } ifelse
  } forall
  currentpoint cairo_store_point
} bind def
/cairo_selectfont { cairo_font_matrix aload pop pop pop 0 0 6 array astore
    cairo_font exch selectfont cairo_point_x cairo_point_y moveto } bind def
/Tf { pop /cairo_font exch def /cairo_font_matrix where
      { pop cairo_selectfont } if } bind def
/Td { matrix translate cairo_font_matrix matrix concatmatrix dup
      /cairo_font_matrix exch def dup 4 get exch 5 get cairo_store_point
      /cairo_font where { pop cairo_selectfont } if } bind def
/Tm { 2 copy 8 2 roll 6 array astore /cairo_font_matrix exch def
      cairo_store_point /cairo_font where { pop cairo_selectfont } if } bind def
/g { setgray } bind def
/rg { setrgbcolor } bind def
/d1 { setcachedevice } bind def
/cairo_data_source {
  CairoDataIndex CairoData length lt
    { CairoData CairoDataIndex get /CairoDataIndex CairoDataIndex 1 add def }
    { () } ifelse
} def
/cairo_flush_ascii85_file { cairo_ascii85_file status { cairo_ascii85_file flushfile } if } def
/cairo_image { image cairo_flush_ascii85_file } def
/cairo_imagemask { imagemask cairo_flush_ascii85_file } def
%%EndProlog
%%BeginSetup
%%EndSetup
%%Page: 1 1
%%BeginPageSetup
%%PageBoundingBox: 6 6 378 378
%%EndPageSetup
q 6 6 372 372 rectclip
1 0 0 -1 0 384 cm q
q
185.949 220.5 m 185.617 215.188 183.527 210.137 180 206.152 c 180 138 l
 180 134.688 177.312 132 174 132 c 150 132 l 146.688 132 144 134.688 144
 138 c 144 206.152 l 137.938 213.02 136.32 222.738 139.828 231.199 c 143.336
 239.66 151.359 245.383 160.5 245.949 c 188.465 273.922 l 189.59 275.047
 191.117 275.68 192.707 275.68 c 194.297 275.68 195.824 275.051 196.949 
273.926 c 213.922 256.953 l 215.047 255.828 215.68 254.301 215.68 252.707
 c 215.68 251.117 215.047 249.59 213.922 248.465 c h
168 144 m 168 198.758 l 164.062 197.746 159.938 197.746 156 198.758 c 156
 144 l h
150 222 m 150 217.145 152.922 212.77 157.406 210.914 c 161.891 209.055 
167.055 210.082 170.484 213.516 c 173.918 216.945 174.945 222.109 173.086
 226.594 c 171.23 231.078 166.855 234 162 234 c 155.375 233.992 150.008 
228.625 150 222 c h
192.707 261.191 m 174.18 242.668 l 177.676 240.598 180.594 237.68 182.664
 234.184 c 201.188 252.711 l h
192.707 261.191 m W n
[0.75 0 0 0.75 0 0] concat
/CairoFunction
<< /FunctionType 3
   /Domain [ 0 1 ]
   /Functions [
   << /FunctionType 2
      /Domain [ 0 1 ]
      /C0 [ 0 0.247059 0.541176 ]
      /C1 [ 0 0.843137 0.87451 ]
      /N 1
   >>
   << /FunctionType 2
      /Domain [ 0 1 ]
      /C0 [ 0 0.843137 0.87451 ]
      /C1 [ 0 0.427451 0.941176 ]
      /N 1
   >>
   ]
   /Bounds [ 0.518 ]
   /Encode [ 1 1 2 { pop 0 1 } for ]
>>
def
   << /ShadingType 2
      /ColorSpace /DeviceRGB
      /Coords [ -7.348 507.604004 513.848999 -13.593 ]
      /Extend [ true true ]
      /Function CairoFunction
   >>
shfill
Q
q
377.863 26.977 m 377.84 15.395 368.449 6.012 356.863 6 c 207 6 l 195.406
 6.012 186.012 15.406 186 27 c 186 67.844 l 178.059 66.617 170.035 66 162
 66 c 75.984 66 6 135.984 6 222 c 6 308.016 75.984 378 162 378 c 248.016
 378 318 308.016 318 222 c 318.09 192.223 309.574 163.051 293.477 138 c 
356.984 138 l 362.559 138 367.902 135.785 371.844 131.84 c 375.781 127.898
 377.992 122.551 377.984 116.977 c h
207 138 m 222 138 l 222 168 l 222 170.43 223.461 172.617 225.703 173.547
 c 227.945 174.477 230.527 173.965 232.246 172.246 c 256.469 148.012 l 273.016
 169.125 282.008 195.176 282 222 c 282 288.164 228.164 342 162 342 c 95.836
 342 42 288.164 42 222 c 42 155.836 95.836 102 162 102 c 170.059 102.004
 178.102 102.809 186 104.406 c 186 117 l 186.012 128.594 195.406 137.988
 207 138 c h
306 222 m 306 301.402 241.402 366 162 366 c 82.598 366 18 301.402 18 222
 c 18 142.598 82.598 78 162 78 c 170.043 78.004 178.07 78.676 186 80.004
 c 186 92.184 l 178.082 90.73 170.051 90 162 90 c 89.211 90 30 149.211 30
 222 c 30 294.789 89.211 354 162 354 c 234.789 354 294 294.789 294 222 c
 294.008 191.992 283.781 162.883 265.012 139.469 c 266.484 138 l 278.969
 138 l 296.629 162.441 306.094 191.848 306 222 c h
363.352 123.359 m 361.668 125.055 359.375 126.008 356.984 126 c 264 126
 l 262.41 126 260.883 126.629 259.754 127.754 c 234 153.516 l 234 132 l 
234 128.688 231.312 126 228 126 c 207 126 l 202.031 125.996 198.004 121.969
 198 117 c 198 27 l 198.004 22.031 202.031 18.004 207 18 c 356.863 18 l 
361.828 18.008 365.852 22.027 365.863 26.992 c 365.984 116.992 l 365.996
 119.383 365.047 121.676 363.352 123.359 c h
363.352 123.359 m W n
[0.75 0 0 0.75 0 0] concat
/CairoFunction
<< /FunctionType 3
   /Domain [ 0 1 ]
   /Functions [
   << /FunctionType 2
      /Domain [ 0 1 ]
      /C0 [ 0 0.247059 0.541176 ]
      /C1 [ 0 0.843137 0.87451 ]
      /N 1
   >>
   << /FunctionType 2
      /Domain [ 0 1 ]
      /C0 [ 0 0.843137 0.87451 ]
      /C1 [ 0 0.427451 0.941176 ]
      /N 1
   >>
   ]
   /Bounds [ 0.518 ]
   /Encode [ 1 1 2 { pop 0 1 } for ]
>>
def
   << /ShadingType 2
      /ColorSpace /DeviceRGB
      /Coords [ -1.476 513.476013 519.721008 -7.721 ]
      /Extend [ true true ]
      /Function CairoFunction
   >>
shfill
Q
q
348 30 m 216 30 l 212.688 30 210 32.688 210 36 c 210 39.312 212.688 42 
216 42 c 348 42 l 351.312 42 354 39.312 354 36 c 354 32.688 351.312 30 348
 30 c h
348 30 m W n
[0.75 0 0 0.75 0 0] concat
/CairoFunction
<< /FunctionType 3
   /Domain [ 0 1 ]
   /Functions [
   << /FunctionType 2
      /Domain [ 0 1 ]
      /C0 [ 0 0.247059 0.541176 ]
      /C1 [ 0 0.843137 0.87451 ]
      /N 1
   >>
   << /FunctionType 2
      /Domain [ 0 1 ]
      /C0 [ 0 0.843137 0.87451 ]
      /C1 [ 0 0.427451 0.941176 ]
      /N 1
   >>
   ]
   /Bounds [ 0.518 ]
   /Encode [ 1 1 2 { pop 0 1 } for ]
>>
def
   << /ShadingType 2
      /ColorSpace /DeviceRGB
      /Coords [ -45.476002 469.476013 475.721008 -51.721001 ]
      /Extend [ true true ]
      /Function CairoFunction
   >>
shfill
Q
q
348 78 m 216 78 l 212.688 78 210 80.688 210 84 c 210 87.312 212.688 90 
216 90 c 348 90 l 351.312 90 354 87.312 354 84 c 354 80.688 351.312 78 348
 78 c h
348 78 m W n
[0.75 0 0 0.75 0 0] concat
/CairoFunction
<< /FunctionType 3
   /Domain [ 0 1 ]
   /Functions [
   << /FunctionType 2
      /Domain [ 0 1 ]
      /C0 [ 0 0.247059 0.541176 ]
      /C1 [ 0 0.843137 0.87451 ]
      /N 1
   >>
   << /FunctionType 2
      /Domain [ 0 1 ]
      /C0 [ 0 0.843137 0.87451 ]
      /C1 [ 0 0.427451 0.941176 ]
      /N 1
   >>
   ]
   /Bounds [ 0.518 ]
   /Encode [ 1 1 2 { pop 0 1 } for ]
>>
def
   << /ShadingType 2
      /ColorSpace /DeviceRGB
      /Coords [ -13.476 501.476013 507.721008 -19.721001 ]
      /Extend [ true true ]
      /Function CairoFunction
   >>
shfill
Q
q
264 102 m 216 102 l 212.688 102 210 104.688 210 108 c 210 111.312 212.688
 114 216 114 c 264 114 l 267.312 114 270 111.312 270 108 c 270 104.688 267.312
 102 264 102 c h
264 102 m W n
[0.75 0 0 0.75 0 0] concat
/CairoFunction
<< /FunctionType 3
   /Domain [ 0 1 ]
   /Functions [
   << /FunctionType 2
      /Domain [ 0 1 ]
      /C0 [ 0 0.247059 0.541176 ]
      /C1 [ 0 0.843137 0.87451 ]
      /N 1
   >>
   << /FunctionType 2
      /Domain [ 0 1 ]
      /C0 [ 0 0.843137 0.87451 ]
      /C1 [ 0 0.427451 0.941176 ]
      /N 1
   >>
   ]
   /Bounds [ 0.518 ]
   /Encode [ 1 1 2 { pop 0 1 } for ]
>>
def
   << /ShadingType 2
      /ColorSpace /DeviceRGB
      /Coords [ -25.476 489.476013 495.721008 -31.721001 ]
      /Extend [ true true ]
      /Function CairoFunction
   >>
shfill
Q
q
288 102 m 282 102 l 278.688 102 276 104.688 276 108 c 276 111.312 278.688
 114 282 114 c 288 114 l 291.312 114 294 111.312 294 108 c 294 104.688 291.312
 102 288 102 c h
288 102 m W n
[0.75 0 0 0.75 0 0] concat
/CairoFunction
<< /FunctionType 3
   /Domain [ 0 1 ]
   /Functions [
   << /FunctionType 2
      /Domain [ 0 1 ]
      /C0 [ 0 0.247059 0.541176 ]
      /C1 [ 0 0.843137 0.87451 ]
      /N 1
   >>
   << /FunctionType 2
      /Domain [ 0 1 ]
      /C0 [ 0 0.843137 0.87451 ]
      /C1 [ 0 0.427451 0.941176 ]
      /N 1
   >>
   ]
   /Bounds [ 0.518 ]
   /Encode [ 1 1 2 { pop 0 1 } for ]
>>
def
   << /ShadingType 2
      /ColorSpace /DeviceRGB
      /Coords [ 4.524 519.476013 525.721008 -1.721 ]
      /Extend [ true true ]
      /Function CairoFunction
   >>
shfill
Q
q
348 54 m 216 54 l 212.688 54 210 56.688 210 60 c 210 63.312 212.688 66 
216 66 c 348 66 l 351.312 66 354 63.312 354 60 c 354 56.688 351.312 54 348
 54 c h
348 54 m W n
[0.75 0 0 0.75 0 0] concat
/CairoFunction
<< /FunctionType 3
   /Domain [ 0 1 ]
   /Functions [
   << /FunctionType 2
      /Domain [ 0 1 ]
      /C0 [ 0 0.247059 0.541176 ]
      /C1 [ 0 0.843137 0.87451 ]
      /N 1
   >>
   << /FunctionType 2
      /Domain [ 0 1 ]
      /C0 [ 0 0.843137 0.87451 ]
      /C1 [ 0 0.427451 0.941176 ]
      /N 1
   >>
   ]
   /Bounds [ 0.518 ]
   /Encode [ 1 1 2 { pop 0 1 } for ]
>>
def
   << /ShadingType 2
      /ColorSpace /DeviceRGB
      /Coords [ -29.476 485.476013 491.721008 -35.721001 ]
      /Extend [ true true ]
      /Function CairoFunction
   >>
shfill
Q
Q Q
showpage
%%Trailer
end
%%EOF
