%!PS-Adobe-3.0 EPSF-3.0
%%Creator: cairo 1.16.0 (https://cairographics.org)
%%CreationDate: Thu Dec  3 11:23:29 2020
%%Pages: 1
%%DocumentData: Clean7Bit
%%LanguageLevel: 3
%%BoundingBox: 6 6 378 378
%%EndComments
%%BeginProlog
50 dict begin
/q { gsave } bind def
/Q { grestore } bind def
/cm { 6 array astore concat } bind def
/w { setlinewidth } bind def
/J { setlinecap } bind def
/j { setlinejoin } bind def
/M { setmiterlimit } bind def
/d { setdash } bind def
/m { moveto } bind def
/l { lineto } bind def
/c { curveto } bind def
/h { closepath } bind def
/re { exch dup neg 3 1 roll 5 3 roll moveto 0 rlineto
      0 exch rlineto 0 rlineto closepath } bind def
/S { stroke } bind def
/f { fill } bind def
/f* { eofill } bind def
/n { newpath } bind def
/W { clip } bind def
/W* { eoclip } bind def
/BT { } bind def
/ET { } bind def
/BDC { mark 3 1 roll /BDC pdfmark } bind def
/EMC { mark /EMC pdfmark } bind def
/cairo_store_point { /cairo_point_y exch def /cairo_point_x exch def } def
/Tj { show currentpoint cairo_store_point } bind def
/TJ {
  {
    dup
    type /stringtype eq
    { show } { -0.001 mul 0 cairo_font_matrix dtransform rmoveto } ifelse
  } forall
  currentpoint cairo_store_point
} bind def
/cairo_selectfont { cairo_font_matrix aload pop pop pop 0 0 6 array astore
    cairo_font exch selectfont cairo_point_x cairo_point_y moveto } bind def
/Tf { pop /cairo_font exch def /cairo_font_matrix where
      { pop cairo_selectfont } if } bind def
/Td { matrix translate cairo_font_matrix matrix concatmatrix dup
      /cairo_font_matrix exch def dup 4 get exch 5 get cairo_store_point
      /cairo_font where { pop cairo_selectfont } if } bind def
/Tm { 2 copy 8 2 roll 6 array astore /cairo_font_matrix exch def
      cairo_store_point /cairo_font where { pop cairo_selectfont } if } bind def
/g { setgray } bind def
/rg { setrgbcolor } bind def
/d1 { setcachedevice } bind def
/cairo_data_source {
  CairoDataIndex CairoData length lt
    { CairoData CairoDataIndex get /CairoDataIndex CairoDataIndex 1 add def }
    { () } ifelse
} def
/cairo_flush_ascii85_file { cairo_ascii85_file status { cairo_ascii85_file flushfile } if } def
/cairo_image { image cairo_flush_ascii85_file } def
/cairo_imagemask { imagemask cairo_flush_ascii85_file } def
%%EndProlog
%%BeginSetup
%%EndSetup
%%Page: 1 1
%%BeginPageSetup
%%PageBoundingBox: 6 6 378 378
%%EndPageSetup
q 6 6 372 372 rectclip
1 0 0 -1 0 384 cm q
q
357 66 m 295.891 66 l 274.469 28.875 234.863 6 192 6 c 149.137 6 109.531
 28.875 88.109 66 c 27 66 l 15.406 66.012 6.012 75.406 6 87 c 6 309 l 6.012
 320.594 15.406 329.988 27 330 c 147.93 330 l 144.328 348 l 102 348 l 98.688
 348 96 350.688 96 354 c 96 372 l 96 375.312 98.688 378 102 378 c 282 378
 l 285.312 378 288 375.312 288 372 c 288 354 l 288 350.688 285.312 348 282
 348 c 238.801 348 l 234.75 330 l 357 330 l 368.594 329.988 377.988 320.594
 378 309 c 378 87 l 377.988 75.406 368.594 66.012 357 66 c h
192 18 m 251.551 18 300 66.449 300 126 c 300 185.551 251.551 234 192 234
 c 132.449 234 84 185.551 84 126 c 84 66.449 132.449 18 192 18 c h
276 360 m 276 366 l 108 366 l 108 360 l h
156.57 348 m 160.172 330 l 222.449 330 l 226.5 348 l h
366 309 m 365.996 313.969 361.969 317.996 357 318 c 27 318 l 22.031 317.996
 18.004 313.969 18 309 c 18 294 l 366 294 l h
366 282 m 18 282 l 18 87 l 18.004 82.031 22.031 78.004 27 78 c 82.027 78
 l 75.398 93.133 71.984 109.477 72 126 c 72 192.164 125.836 246 192 246 
c 258.164 246 312 192.164 312 126 c 312.016 109.477 308.602 93.133 301.973
 78 c 357 78 l 361.969 78.004 365.996 82.031 366 87 c h
366 282 m W n
[0.75 0 0 0.75 0 0] concat
/CairoFunction
<< /FunctionType 3
   /Domain [ 0 1 ]
   /Functions [
   << /FunctionType 2
      /Domain [ 0 1 ]
      /C0 [ 0 0.247059 0.541176 ]
      /C1 [ 0 0.843137 0.87451 ]
      /N 1
   >>
   << /FunctionType 2
      /Domain [ 0 1 ]
      /C0 [ 0 0.843137 0.87451 ]
      /C1 [ 0 0.427451 0.941176 ]
      /N 1
   >>
   ]
   /Bounds [ 0.518 ]
   /Encode [ 1 1 2 { pop 0 1 } for ]
>>
def
   << /ShadingType 2
      /ColorSpace /DeviceRGB
      /Coords [ 31.014 488.985992 494.867004 25.132999 ]
      /Extend [ true true ]
      /Function CairoFunction
   >>
shfill
Q
q
192 180 m 184.719 180 178.156 184.387 175.371 191.113 c 172.586 197.836
 174.125 205.578 179.273 210.727 c 184.422 215.875 192.164 217.414 198.887
 214.629 c 205.613 211.844 210 205.281 210 198 c 209.988 188.062 201.938
 180.012 192 180 c h
192 204 m 189.574 204 187.387 202.539 186.457 200.297 c 185.527 198.055
 186.043 195.473 187.758 193.758 c 189.473 192.043 192.055 191.527 194.297
 192.457 c 196.539 193.387 198 195.574 198 198 c 197.996 201.312 195.312
 203.996 192 204 c h
192 204 m W n
[0.75 0 0 0.75 0 0] concat
/CairoFunction
<< /FunctionType 3
   /Domain [ 0 1 ]
   /Functions [
   << /FunctionType 2
      /Domain [ 0 1 ]
      /C0 [ 0 0.247059 0.541176 ]
      /C1 [ 0 0.843137 0.87451 ]
      /N 1
   >>
   << /FunctionType 2
      /Domain [ 0 1 ]
      /C0 [ 0 0.843137 0.87451 ]
      /C1 [ 0 0.427451 0.941176 ]
      /N 1
   >>
   ]
   /Bounds [ 0.518 ]
   /Encode [ 1 1 2 { pop 0 1 } for ]
>>
def
   << /ShadingType 2
      /ColorSpace /DeviceRGB
      /Coords [ 31.014 488.985992 494.867004 25.132999 ]
      /Extend [ true true ]
      /Function CairoFunction
   >>
shfill
Q
q
144 108 m 168 108 l 171.312 108 174 105.312 174 102 c 174 94.719 178.387
 88.156 185.113 85.371 c 191.836 82.586 199.578 84.125 204.727 89.273 c 
209.875 94.422 211.414 102.164 208.629 108.887 c 205.844 115.613 199.281
 120 192 120 c 180 120 l 176.688 120 174 122.688 174 126 c 174 168 l 174
 171.312 176.688 174 180 174 c 204 174 l 207.312 174 210 171.312 210 168
 c 210 152.934 l 229.031 146.207 242.727 129.434 245.504 109.441 c 248.281
 89.449 239.676 69.574 223.199 57.918 c 206.719 46.262 185.117 44.766 167.188
 54.043 c 149.262 63.316 138.004 81.816 138 102 c 138 105.312 140.688 108
 144 108 c h
192 60 m 213.148 60.008 230.996 75.738 233.66 96.719 c 236.324 117.699 
222.977 137.387 202.5 142.684 c 199.852 143.367 198 145.758 198 148.492 
c 198 162 l 186 162 l 186 132 l 192 132 l 203.586 131.996 214.133 125.324
 219.098 114.855 c 224.066 104.387 222.559 91.996 215.23 83.023 c 207.902
 74.051 196.062 70.098 184.812 72.871 c 173.562 75.645 164.918 84.648 162.602
 96 c 150.426 96 l 153.438 75.348 171.133 60.027 192 60 c h
192 60 m W n
[0.75 0 0 0.75 0 0] concat
/CairoFunction
<< /FunctionType 3
   /Domain [ 0 1 ]
   /Functions [
   << /FunctionType 2
      /Domain [ 0 1 ]
      /C0 [ 0 0.247059 0.541176 ]
      /C1 [ 0 0.843137 0.87451 ]
      /N 1
   >>
   << /FunctionType 2
      /Domain [ 0 1 ]
      /C0 [ 0 0.843137 0.87451 ]
      /C1 [ 0 0.427451 0.941176 ]
      /N 1
   >>
   ]
   /Bounds [ 0.518 ]
   /Encode [ 1 1 2 { pop 0 1 } for ]
>>
def
   << /ShadingType 2
      /ColorSpace /DeviceRGB
      /Coords [ -29.601999 428.371002 434.252014 -35.483002 ]
      /Extend [ true true ]
      /Function CairoFunction
   >>
shfill
Q
Q Q
showpage
%%Trailer
end
%%EOF
