%!PS-Adobe-3.0 EPSF-3.0
%%Creator: cairo 1.16.0 (https://cairographics.org)
%%CreationDate: Thu Dec  3 11:23:31 2020
%%Pages: 1
%%DocumentData: Clean7Bit
%%LanguageLevel: 3
%%BoundingBox: 6 54 378 330
%%EndComments
%%BeginProlog
50 dict begin
/q { gsave } bind def
/Q { grestore } bind def
/cm { 6 array astore concat } bind def
/w { setlinewidth } bind def
/J { setlinecap } bind def
/j { setlinejoin } bind def
/M { setmiterlimit } bind def
/d { setdash } bind def
/m { moveto } bind def
/l { lineto } bind def
/c { curveto } bind def
/h { closepath } bind def
/re { exch dup neg 3 1 roll 5 3 roll moveto 0 rlineto
      0 exch rlineto 0 rlineto closepath } bind def
/S { stroke } bind def
/f { fill } bind def
/f* { eofill } bind def
/n { newpath } bind def
/W { clip } bind def
/W* { eoclip } bind def
/BT { } bind def
/ET { } bind def
/BDC { mark 3 1 roll /BDC pdfmark } bind def
/EMC { mark /EMC pdfmark } bind def
/cairo_store_point { /cairo_point_y exch def /cairo_point_x exch def } def
/Tj { show currentpoint cairo_store_point } bind def
/TJ {
  {
    dup
    type /stringtype eq
    { show } { -0.001 mul 0 cairo_font_matrix dtransform rmoveto } ifelse
  } forall
  currentpoint cairo_store_point
} bind def
/cairo_selectfont { cairo_font_matrix aload pop pop pop 0 0 6 array astore
    cairo_font exch selectfont cairo_point_x cairo_point_y moveto } bind def
/Tf { pop /cairo_font exch def /cairo_font_matrix where
      { pop cairo_selectfont } if } bind def
/Td { matrix translate cairo_font_matrix matrix concatmatrix dup
      /cairo_font_matrix exch def dup 4 get exch 5 get cairo_store_point
      /cairo_font where { pop cairo_selectfont } if } bind def
/Tm { 2 copy 8 2 roll 6 array astore /cairo_font_matrix exch def
      cairo_store_point /cairo_font where { pop cairo_selectfont } if } bind def
/g { setgray } bind def
/rg { setrgbcolor } bind def
/d1 { setcachedevice } bind def
/cairo_data_source {
  CairoDataIndex CairoData length lt
    { CairoData CairoDataIndex get /CairoDataIndex CairoDataIndex 1 add def }
    { () } ifelse
} def
/cairo_flush_ascii85_file { cairo_ascii85_file status { cairo_ascii85_file flushfile } if } def
/cairo_image { image cairo_flush_ascii85_file } def
/cairo_imagemask { imagemask cairo_flush_ascii85_file } def
%%EndProlog
%%BeginSetup
%%EndSetup
%%Page: 1 1
%%BeginPageSetup
%%PageBoundingBox: 6 54 378 330
%%EndPageSetup
q 6 54 372 276 rectclip
1 0 0 -1 0 384 cm q
q
156 264 m 150 264 l 150 234 l 150 231.473 148.418 229.219 146.043 228.359
 c 143.668 227.496 141.008 228.219 139.391 230.16 c 109.391 266.16 l 107.898
 267.945 107.578 270.438 108.566 272.547 c 109.555 274.652 111.672 276 114
 276 c 138 276 l 138 294 l 138 297.312 140.688 300 144 300 c 147.312 300
 150 297.312 150 294 c 150 276 l 156 276 l 159.312 276 162 273.312 162 270
 c 162 266.688 159.312 264 156 264 c h
138 264 m 126.809 264 l 138 250.574 l h
138 264 m W n
[0.75 0 0 0.75 0 0] concat
/CairoFunction
<< /FunctionType 3
   /Domain [ 0 1 ]
   /Functions [
   << /FunctionType 2
      /Domain [ 0 1 ]
      /C0 [ 0 0.247059 0.541176 ]
      /C1 [ 0 0.843137 0.87451 ]
      /N 1
   >>
   << /FunctionType 2
      /Domain [ 0 1 ]
      /C0 [ 0 0.843137 0.87451 ]
      /C1 [ 0 0.427451 0.941176 ]
      /N 1
   >>
   ]
   /Bounds [ 0.518 ]
   /Encode [ 1 1 2 { pop 0 1 } for ]
>>
def
   << /ShadingType 2
      /ColorSpace /DeviceRGB
      /Coords [ 15.41 528.590027 518.440002 25.559999 ]
      /Extend [ true true ]
      /Function CairoFunction
   >>
shfill
Q
q
270 264 m 264 264 l 264 234 l 264 231.473 262.418 229.219 260.043 228.359
 c 257.668 227.496 255.008 228.219 253.391 230.16 c 223.391 266.16 l 221.898
 267.945 221.578 270.438 222.566 272.547 c 223.555 274.652 225.672 276 228
 276 c 252 276 l 252 294 l 252 297.312 254.688 300 258 300 c 261.312 300
 264 297.312 264 294 c 264 276 l 270 276 l 273.312 276 276 273.312 276 270
 c 276 266.688 273.312 264 270 264 c h
252 264 m 240.809 264 l 252 250.574 l h
252 264 m W n
[0.75 0 0 0.75 0 0] concat
/CairoFunction
<< /FunctionType 3
   /Domain [ 0 1 ]
   /Functions [
   << /FunctionType 2
      /Domain [ 0 1 ]
      /C0 [ 0 0.247059 0.541176 ]
      /C1 [ 0 0.843137 0.87451 ]
      /N 1
   >>
   << /FunctionType 2
      /Domain [ 0 1 ]
      /C0 [ 0 0.843137 0.87451 ]
      /C1 [ 0 0.427451 0.941176 ]
      /N 1
   >>
   ]
   /Bounds [ 0.518 ]
   /Encode [ 1 1 2 { pop 0 1 } for ]
>>
def
   << /ShadingType 2
      /ColorSpace /DeviceRGB
      /Coords [ 91.410004 604.590027 594.440002 101.559998 ]
      /Extend [ true true ]
      /Function CairoFunction
   >>
shfill
Q
q
210 228 m 174 228 l 170.688 228 168 230.688 168 234 c 168 294 l 168 297.312
 170.688 300 174 300 c 210 300 l 213.312 300 216 297.312 216 294 c 216 234
 l 216 230.688 213.312 228 210 228 c h
204 288 m 180 288 l 180 240 l 204 240 l h
204 288 m W n
[0.75 0 0 0.75 0 0] concat
/CairoFunction
<< /FunctionType 3
   /Domain [ 0 1 ]
   /Functions [
   << /FunctionType 2
      /Domain [ 0 1 ]
      /C0 [ 0 0.247059 0.541176 ]
      /C1 [ 0 0.843137 0.87451 ]
      /N 1
   >>
   << /FunctionType 2
      /Domain [ 0 1 ]
      /C0 [ 0 0.843137 0.87451 ]
      /C1 [ 0 0.427451 0.941176 ]
      /N 1
   >>
   ]
   /Bounds [ 0.518 ]
   /Encode [ 1 1 2 { pop 0 1 } for ]
>>
def
   << /ShadingType 2
      /ColorSpace /DeviceRGB
      /Coords [ 47.41 560.590027 550.440002 57.560001 ]
      /Extend [ true true ]
      /Function CairoFunction
   >>
shfill
Q
q
357 54 m 27 54 l 15.406 54.012 6.012 63.406 6 75 c 6 309 l 6.012 320.594
 15.406 329.988 27 330 c 357 330 l 368.594 329.988 377.988 320.594 378 309
 c 378 75 l 377.988 63.406 368.594 54.012 357 54 c h
366 309 m 365.996 313.969 361.969 317.996 357 318 c 27 318 l 22.031 317.996
 18.004 313.969 18 309 c 18 102 l 366 102 l h
366 90 m 18 90 l 18 75 l 18.004 70.031 22.031 66.004 27 66 c 357 66 l 361.969
 66.004 365.996 70.031 366 75 c h
366 90 m W n
[0.75 0 0 0.75 0 0] concat
/CairoFunction
<< /FunctionType 3
   /Domain [ 0 1 ]
   /Functions [
   << /FunctionType 2
      /Domain [ 0 1 ]
      /C0 [ 0 0.247059 0.541176 ]
      /C1 [ 0 0.843137 0.87451 ]
      /N 1
   >>
   << /FunctionType 2
      /Domain [ 0 1 ]
      /C0 [ 0 0.843137 0.87451 ]
      /C1 [ 0 0.427451 0.941176 ]
      /N 1
   >>
   ]
   /Bounds [ 0.518 ]
   /Encode [ 1 1 2 { pop 0 1 } for ]
>>
def
   << /ShadingType 2
      /ColorSpace /DeviceRGB
      /Coords [ -0.59 512.590027 502.440002 9.56 ]
      /Extend [ true true ]
      /Function CairoFunction
   >>
shfill
Q
q
30 84 m 36 84 l 39.312 84 42 81.312 42 78 c 42 74.688 39.312 72 36 72 c
 30 72 l 26.688 72 24 74.688 24 78 c 24 81.312 26.688 84 30 84 c h
30 84 m W n
[0.75 0 0 0.75 0 0] concat
/CairoFunction
<< /FunctionType 3
   /Domain [ 0 1 ]
   /Functions [
   << /FunctionType 2
      /Domain [ 0 1 ]
      /C0 [ 0 0.247059 0.541176 ]
      /C1 [ 0 0.843137 0.87451 ]
      /N 1
   >>
   << /FunctionType 2
      /Domain [ 0 1 ]
      /C0 [ 0 0.843137 0.87451 ]
      /C1 [ 0 0.427451 0.941176 ]
      /N 1
   >>
   ]
   /Bounds [ 0.518 ]
   /Encode [ 1 1 2 { pop 0 1 } for ]
>>
def
   << /ShadingType 2
      /ColorSpace /DeviceRGB
      /Coords [ -182.589996 330.589996 320.440002 -172.440002 ]
      /Extend [ true true ]
      /Function CairoFunction
   >>
shfill
Q
q
54 84 m 60 84 l 63.312 84 66 81.312 66 78 c 66 74.688 63.312 72 60 72 c
 54 72 l 50.688 72 48 74.688 48 78 c 48 81.312 50.688 84 54 84 c h
54 84 m W n
[0.75 0 0 0.75 0 0] concat
/CairoFunction
<< /FunctionType 3
   /Domain [ 0 1 ]
   /Functions [
   << /FunctionType 2
      /Domain [ 0 1 ]
      /C0 [ 0 0.247059 0.541176 ]
      /C1 [ 0 0.843137 0.87451 ]
      /N 1
   >>
   << /FunctionType 2
      /Domain [ 0 1 ]
      /C0 [ 0 0.843137 0.87451 ]
      /C1 [ 0 0.427451 0.941176 ]
      /N 1
   >>
   ]
   /Bounds [ 0.518 ]
   /Encode [ 1 1 2 { pop 0 1 } for ]
>>
def
   << /ShadingType 2
      /ColorSpace /DeviceRGB
      /Coords [ -166.589996 346.589996 336.440002 -156.440002 ]
      /Extend [ true true ]
      /Function CairoFunction
   >>
shfill
Q
q
78 84 m 84 84 l 87.312 84 90 81.312 90 78 c 90 74.688 87.312 72 84 72 c
 78 72 l 74.688 72 72 74.688 72 78 c 72 81.312 74.688 84 78 84 c h
78 84 m W n
[0.75 0 0 0.75 0 0] concat
/CairoFunction
<< /FunctionType 3
   /Domain [ 0 1 ]
   /Functions [
   << /FunctionType 2
      /Domain [ 0 1 ]
      /C0 [ 0 0.247059 0.541176 ]
      /C1 [ 0 0.843137 0.87451 ]
      /N 1
   >>
   << /FunctionType 2
      /Domain [ 0 1 ]
      /C0 [ 0 0.843137 0.87451 ]
      /C1 [ 0 0.427451 0.941176 ]
      /N 1
   >>
   ]
   /Bounds [ 0.518 ]
   /Encode [ 1 1 2 { pop 0 1 } for ]
>>
def
   << /ShadingType 2
      /ColorSpace /DeviceRGB
      /Coords [ -150.589996 362.589996 352.440002 -140.440002 ]
      /Extend [ true true ]
      /Function CairoFunction
   >>
shfill
Q
q
192 210 m 211.414 210 228.918 198.305 236.348 180.367 c 243.777 162.434
 239.668 141.785 225.941 128.059 c 212.215 114.332 191.566 110.223 173.633
 117.652 c 155.695 125.082 144 142.586 144 162 c 144.031 188.496 165.504
 209.969 192 210 c h
192 126 m 206.562 126 219.688 134.77 225.258 148.223 c 230.832 161.676 
227.75 177.16 217.457 187.457 c 207.16 197.75 191.676 200.832 178.223 195.258
 c 164.77 189.688 156 176.562 156 162 c 156.023 142.129 172.129 126.023 
192 126 c h
192 126 m W n
[0.75 0 0 0.75 0 0] concat
/CairoFunction
<< /FunctionType 3
   /Domain [ 0 1 ]
   /Functions [
   << /FunctionType 2
      /Domain [ 0 1 ]
      /C0 [ 0 0.247059 0.541176 ]
      /C1 [ 0 0.843137 0.87451 ]
      /N 1
   >>
   << /FunctionType 2
      /Domain [ 0 1 ]
      /C0 [ 0 0.843137 0.87451 ]
      /C1 [ 0 0.427451 0.941176 ]
      /N 1
   >>
   ]
   /Bounds [ 0.518 ]
   /Encode [ 1 1 2 { pop 0 1 } for ]
>>
def
   << /ShadingType 2
      /ColorSpace /DeviceRGB
      /Coords [ -20.59 492.589996 482.440002 -10.44 ]
      /Extend [ true true ]
      /Function CairoFunction
   >>
shfill
Q
q
172.758 181.242 m 173.883 182.367 175.41 183 177 183 c 178.59 183 180.117
 182.367 181.242 181.242 c 192 170.484 l 202.758 181.242 l 205.102 183.586
 208.898 183.586 211.242 181.242 c 213.586 178.898 213.586 175.102 211.242
 172.758 c 200.484 162 l 211.242 151.242 l 213.586 148.898 213.586 145.102
 211.242 142.758 c 208.898 140.414 205.102 140.414 202.758 142.758 c 192
 153.516 l 181.242 142.758 l 178.898 140.414 175.102 140.414 172.758 142.758
 c 170.414 145.102 170.414 148.898 172.758 151.242 c 183.516 162 l 172.758
 172.758 l 171.633 173.883 171 175.41 171 177 c 171 178.59 171.633 180.117
 172.758 181.242 c h
172.758 181.242 m W n
[0.75 0 0 0.75 0 0] concat
/CairoFunction
<< /FunctionType 3
   /Domain [ 0 1 ]
   /Functions [
   << /FunctionType 2
      /Domain [ 0 1 ]
      /C0 [ 0 0.247059 0.541176 ]
      /C1 [ 0 0.843137 0.87451 ]
      /N 1
   >>
   << /FunctionType 2
      /Domain [ 0 1 ]
      /C0 [ 0 0.843137 0.87451 ]
      /C1 [ 0 0.427451 0.941176 ]
      /N 1
   >>
   ]
   /Bounds [ 0.518 ]
   /Encode [ 1 1 2 { pop 0 1 } for ]
>>
def
   << /ShadingType 2
      /ColorSpace /DeviceRGB
      /Coords [ -20.59 492.589996 482.440002 -10.44 ]
      /Extend [ true true ]
      /Function CairoFunction
   >>
shfill
Q
Q Q
showpage
%%Trailer
end
%%EOF
