%!PS-Adobe-3.0 EPSF-3.0
%%Creator: cairo 1.16.0 (https://cairographics.org)
%%CreationDate: Thu Dec  3 11:23:32 2020
%%Pages: 1
%%DocumentData: Clean7Bit
%%LanguageLevel: 3
%%BoundingBox: 30 6 330 378
%%EndComments
%%BeginProlog
50 dict begin
/q { gsave } bind def
/Q { grestore } bind def
/cm { 6 array astore concat } bind def
/w { setlinewidth } bind def
/J { setlinecap } bind def
/j { setlinejoin } bind def
/M { setmiterlimit } bind def
/d { setdash } bind def
/m { moveto } bind def
/l { lineto } bind def
/c { curveto } bind def
/h { closepath } bind def
/re { exch dup neg 3 1 roll 5 3 roll moveto 0 rlineto
      0 exch rlineto 0 rlineto closepath } bind def
/S { stroke } bind def
/f { fill } bind def
/f* { eofill } bind def
/n { newpath } bind def
/W { clip } bind def
/W* { eoclip } bind def
/BT { } bind def
/ET { } bind def
/BDC { mark 3 1 roll /BDC pdfmark } bind def
/EMC { mark /EMC pdfmark } bind def
/cairo_store_point { /cairo_point_y exch def /cairo_point_x exch def } def
/Tj { show currentpoint cairo_store_point } bind def
/TJ {
  {
    dup
    type /stringtype eq
    { show } { -0.001 mul 0 cairo_font_matrix dtransform rmoveto } ifelse
  } forall
  currentpoint cairo_store_point
} bind def
/cairo_selectfont { cairo_font_matrix aload pop pop pop 0 0 6 array astore
    cairo_font exch selectfont cairo_point_x cairo_point_y moveto } bind def
/Tf { pop /cairo_font exch def /cairo_font_matrix where
      { pop cairo_selectfont } if } bind def
/Td { matrix translate cairo_font_matrix matrix concatmatrix dup
      /cairo_font_matrix exch def dup 4 get exch 5 get cairo_store_point
      /cairo_font where { pop cairo_selectfont } if } bind def
/Tm { 2 copy 8 2 roll 6 array astore /cairo_font_matrix exch def
      cairo_store_point /cairo_font where { pop cairo_selectfont } if } bind def
/g { setgray } bind def
/rg { setrgbcolor } bind def
/d1 { setcachedevice } bind def
/cairo_data_source {
  CairoDataIndex CairoData length lt
    { CairoData CairoDataIndex get /CairoDataIndex CairoDataIndex 1 add def }
    { () } ifelse
} def
/cairo_flush_ascii85_file { cairo_ascii85_file status { cairo_ascii85_file flushfile } if } def
/cairo_image { image cairo_flush_ascii85_file } def
/cairo_imagemask { imagemask cairo_flush_ascii85_file } def
%%EndProlog
%%BeginSetup
%%EndSetup
%%Page: 1 1
%%BeginPageSetup
%%PageBoundingBox: 30 6 330 378
%%EndPageSetup
q 30 6 300 372 rectclip
1 0 0 -1 0 384 cm q
q
329.863 98.977 m 329.836 87.395 320.445 78.02 308.863 78 c 234 78 l 234
 27 l 233.988 15.406 224.594 6.012 213 6 c 51 6 l 39.406 6.012 30.012 15.406
 30 27 c 30 357 l 30.012 368.594 39.406 377.988 51 378 c 213 378 l 224.594
 377.988 233.988 368.594 234 357 c 234 234 l 308.984 234 l 314.559 234 319.902
 231.785 323.844 227.84 c 327.781 223.898 329.992 218.551 329.984 212.977
 c h
160.312 18 m 157.312 30 l 106.688 30 l 103.688 18 l h
222 357 m 221.996 361.969 217.969 365.996 213 366 c 51 366 l 46.031 365.996
 42.004 361.969 42 357 c 42 27 l 42.004 22.031 46.031 18.004 51 18 c 91.312
 18 l 96.18 37.453 l 96.848 40.125 99.246 42 102 42 c 162 42 l 164.754 42
 167.152 40.125 167.82 37.453 c 172.688 18 l 213 18 l 217.969 18.004 221.996
 22.031 222 27 c 222 78 l 147 78 l 135.406 78.012 126.012 87.406 126 99 
c 126 213 l 126.012 224.594 135.406 233.988 147 234 c 162 234 l 162 264 
l 162 266.43 163.461 268.617 165.703 269.547 c 167.945 270.477 170.527 269.965
 172.246 268.246 c 206.484 234 l 222 234 l h
315.352 219.359 m 313.668 221.055 311.375 222.008 308.984 222 c 204 222
 l 202.41 222 200.883 222.629 199.754 223.754 c 174 249.516 l 174 228 l 
174 224.688 171.312 222 168 222 c 147 222 l 142.031 221.996 138.004 217.969
 138 213 c 138 99 l 138.004 94.031 142.031 90.004 147 90 c 308.863 90 l 
313.828 90.008 317.852 94.027 317.863 98.992 c 317.984 212.992 l 317.996
 215.383 317.047 217.676 315.352 219.359 c h
315.352 219.359 m W n
[0.75 0 0 0.75 0 0] concat
/CairoFunction
<< /FunctionType 3
   /Domain [ 0 1 ]
   /Functions [
   << /FunctionType 2
      /Domain [ 0 1 ]
      /C0 [ 0 0.247059 0.541176 ]
      /C1 [ 0 0.843137 0.87451 ]
      /N 1
   >>
   << /FunctionType 2
      /Domain [ 0 1 ]
      /C0 [ 0 0.843137 0.87451 ]
      /C1 [ 0 0.427451 0.941176 ]
      /N 1
   >>
   ]
   /Bounds [ 0.518 ]
   /Encode [ 1 1 2 { pop 0 1 } for ]
>>
def
   << /ShadingType 2
      /ColorSpace /DeviceRGB
      /Coords [ -33.34 465.339996 472.122009 -40.122002 ]
      /Extend [ true true ]
      /Function CairoFunction
   >>
shfill
Q
q
185.25 120 m 156 120 l 152.688 120 150 122.688 150 126 c 150 186 l 150 
189.312 152.688 192 156 192 c 159.312 192 162 189.312 162 186 c 162 162 
l 180 162 l 183.312 162 186 159.312 186 156 c 186 152.688 183.312 150 180
 150 c 162 150 l 162 132 l 185.25 132 l 188.562 132 191.25 129.312 191.25
 126 c 191.25 122.688 188.562 120 185.25 120 c h
185.25 120 m W n
[0.75 0 0 0.75 0 0] concat
/CairoFunction
<< /FunctionType 3
   /Domain [ 0 1 ]
   /Functions [
   << /FunctionType 2
      /Domain [ 0 1 ]
      /C0 [ 0 0.247059 0.541176 ]
      /C1 [ 0 0.843137 0.87451 ]
      /N 1
   >>
   << /FunctionType 2
      /Domain [ 0 1 ]
      /C0 [ 0 0.843137 0.87451 ]
      /C1 [ 0 0.427451 0.941176 ]
      /N 1
   >>
   ]
   /Bounds [ 0.518 ]
   /Encode [ 1 1 2 { pop 0 1 } for ]
>>
def
   << /ShadingType 2
      /ColorSpace /DeviceRGB
      /Coords [ -41.34 457.339996 464.122009 -48.122002 ]
      /Extend [ true true ]
      /Function CairoFunction
   >>
shfill
Q
q
225 120 m 219 120 l 207.406 120.012 198.012 129.406 198 141 c 198 186 l
 198 189.312 200.688 192 204 192 c 207.312 192 210 189.312 210 186 c 210
 162 l 234 162 l 234 186 l 234 189.312 236.688 192 240 192 c 243.312 192
 246 189.312 246 186 c 246 141 l 245.988 129.406 236.594 120.012 225 120
 c h
210 150 m 210 141 l 210.004 136.031 214.031 132.004 219 132 c 225 132 l
 229.969 132.004 233.996 136.031 234 141 c 234 150 l h
210 150 m W n
[0.75 0 0 0.75 0 0] concat
/CairoFunction
<< /FunctionType 3
   /Domain [ 0 1 ]
   /Functions [
   << /FunctionType 2
      /Domain [ 0 1 ]
      /C0 [ 0 0.247059 0.541176 ]
      /C1 [ 0 0.843137 0.87451 ]
      /N 1
   >>
   << /FunctionType 2
      /Domain [ 0 1 ]
      /C0 [ 0 0.843137 0.87451 ]
      /C1 [ 0 0.427451 0.941176 ]
      /N 1
   >>
   ]
   /Bounds [ 0.518 ]
   /Encode [ 1 1 2 { pop 0 1 } for ]
>>
def
   << /ShadingType 2
      /ColorSpace /DeviceRGB
      /Coords [ 5.593 504.273987 511.054993 -1.188 ]
      /Extend [ true true ]
      /Function CairoFunction
   >>
shfill
Q
q
304.246 187.754 m 297.473 180.984 l 299.137 177.918 300.004 174.488 300
 171 c 300 141 l 299.988 129.406 290.594 120.012 279 120 c 273 120 l 261.406
 120.012 252.012 129.406 252 141 c 252 171 l 252.012 182.594 261.406 191.988
 273 192 c 279 192 l 282.488 192.004 285.918 191.137 288.984 189.473 c 295.754
 196.246 l 298.098 198.59 301.902 198.59 304.246 196.246 c 306.59 193.902
 306.59 190.098 304.246 187.754 c h
288 171 m 288 171.164 287.984 171.328 287.977 171.488 c 286.246 169.754
 l 283.902 167.41 280.098 167.41 277.754 169.754 c 275.41 172.098 275.41
 175.902 277.754 178.246 c 279.488 179.977 l 279.328 179.984 279.164 180
 279 180 c 273 180 l 268.031 179.996 264.004 175.969 264 171 c 264 141 l
 264.004 136.031 268.031 132.004 273 132 c 279 132 l 283.969 132.004 287.996
 136.031 288 141 c h
288 171 m W n
[0.75 0 0 0.75 0 0] concat
/CairoFunction
<< /FunctionType 3
   /Domain [ 0 1 ]
   /Functions [
   << /FunctionType 2
      /Domain [ 0 1 ]
      /C0 [ 0 0.247059 0.541176 ]
      /C1 [ 0 0.843137 0.87451 ]
      /N 1
   >>
   << /FunctionType 2
      /Domain [ 0 1 ]
      /C0 [ 0 0.843137 0.87451 ]
      /C1 [ 0 0.427451 0.941176 ]
      /N 1
   >>
   ]
   /Bounds [ 0.518 ]
   /Encode [ 1 1 2 { pop 0 1 } for ]
>>
def
   << /ShadingType 2
      /ColorSpace /DeviceRGB
      /Coords [ 45.595001 544.275024 551.057007 38.813 ]
      /Extend [ true true ]
      /Function CairoFunction
   >>
shfill
Q
Q Q
showpage
%%Trailer
end
%%EOF
