%!PS-Adobe-3.0 EPSF-3.0
%%Creator: cairo 1.16.0 (https://cairographics.org)
%%CreationDate: Thu Dec  3 11:23:32 2020
%%Pages: 1
%%DocumentData: Clean7Bit
%%LanguageLevel: 3
%%BoundingBox: 6 42 378 342
%%EndComments
%%BeginProlog
50 dict begin
/q { gsave } bind def
/Q { grestore } bind def
/cm { 6 array astore concat } bind def
/w { setlinewidth } bind def
/J { setlinecap } bind def
/j { setlinejoin } bind def
/M { setmiterlimit } bind def
/d { setdash } bind def
/m { moveto } bind def
/l { lineto } bind def
/c { curveto } bind def
/h { closepath } bind def
/re { exch dup neg 3 1 roll 5 3 roll moveto 0 rlineto
      0 exch rlineto 0 rlineto closepath } bind def
/S { stroke } bind def
/f { fill } bind def
/f* { eofill } bind def
/n { newpath } bind def
/W { clip } bind def
/W* { eoclip } bind def
/BT { } bind def
/ET { } bind def
/BDC { mark 3 1 roll /BDC pdfmark } bind def
/EMC { mark /EMC pdfmark } bind def
/cairo_store_point { /cairo_point_y exch def /cairo_point_x exch def } def
/Tj { show currentpoint cairo_store_point } bind def
/TJ {
  {
    dup
    type /stringtype eq
    { show } { -0.001 mul 0 cairo_font_matrix dtransform rmoveto } ifelse
  } forall
  currentpoint cairo_store_point
} bind def
/cairo_selectfont { cairo_font_matrix aload pop pop pop 0 0 6 array astore
    cairo_font exch selectfont cairo_point_x cairo_point_y moveto } bind def
/Tf { pop /cairo_font exch def /cairo_font_matrix where
      { pop cairo_selectfont } if } bind def
/Td { matrix translate cairo_font_matrix matrix concatmatrix dup
      /cairo_font_matrix exch def dup 4 get exch 5 get cairo_store_point
      /cairo_font where { pop cairo_selectfont } if } bind def
/Tm { 2 copy 8 2 roll 6 array astore /cairo_font_matrix exch def
      cairo_store_point /cairo_font where { pop cairo_selectfont } if } bind def
/g { setgray } bind def
/rg { setrgbcolor } bind def
/d1 { setcachedevice } bind def
/cairo_data_source {
  CairoDataIndex CairoData length lt
    { CairoData CairoDataIndex get /CairoDataIndex CairoDataIndex 1 add def }
    { () } ifelse
} def
/cairo_flush_ascii85_file { cairo_ascii85_file status { cairo_ascii85_file flushfile } if } def
/cairo_image { image cairo_flush_ascii85_file } def
/cairo_imagemask { imagemask cairo_flush_ascii85_file } def
%%EndProlog
%%BeginSetup
%%EndSetup
%%Page: 1 1
%%BeginPageSetup
%%PageBoundingBox: 6 42 378 342
%%EndPageSetup
q 6 42 372 300 rectclip
1 0 0 -1 0 384 cm q
q
357 66 m 228 66 l 228 48 l 228 44.688 225.312 42 222 42 c 162 42 l 158.688
 42 156 44.688 156 48 c 156 66 l 27 66 l 15.406 66.012 6.012 75.406 6 87
 c 6 321 l 6.012 332.594 15.406 341.988 27 342 c 357 342 l 368.594 341.988
 377.988 332.594 378 321 c 378 87 l 377.988 75.406 368.594 66.012 357 66
 c h
168 54 m 216 54 l 216 84 l 168 84 l h
366 321 m 365.996 325.969 361.969 329.996 357 330 c 27 330 l 22.031 329.996
 18.004 325.969 18 321 c 18 87 l 18.004 82.031 22.031 78.004 27 78 c 156
 78 l 156 90 l 156 93.312 158.688 96 162 96 c 222 96 l 225.312 96 228 93.312
 228 90 c 228 78 l 357 78 l 361.969 78.004 365.996 82.031 366 87 c h
366 321 m W n
[0.75 0 0 0.75 0 0] concat
/CairoFunction
<< /FunctionType 3
   /Domain [ 0 1 ]
   /Functions [
   << /FunctionType 2
      /Domain [ 0 1 ]
      /C0 [ 0 0.247059 0.541176 ]
      /C1 [ 0 0.843137 0.87451 ]
      /N 1
   >>
   << /FunctionType 2
      /Domain [ 0 1 ]
      /C0 [ 0 0.843137 0.87451 ]
      /C1 [ 0 0.427451 0.941176 ]
      /N 1
   >>
   ]
   /Bounds [ 0.518 ]
   /Encode [ 1 1 2 { pop 0 1 } for ]
>>
def
   << /ShadingType 2
      /ColorSpace /DeviceRGB
      /Coords [ 16.191 511.80899 492.763 35.237 ]
      /Extend [ true true ]
      /Function CairoFunction
   >>
shfill
Q
q
192 102 m 36 102 l 32.688 102 30 104.688 30 108 c 30 276 l 30 279.312 32.688
 282 36 282 c 192 282 l 195.312 282 198 279.312 198 276 c 198 108 l 198 
104.688 195.312 102 192 102 c h
168 270 m 156 270 l 156 264 l 156 260.688 153.312 258 150 258 c 146.688
 258 144 260.688 144 264 c 144 270 l 84 270 l 84 264 l 84 260.688 81.312
 258 78 258 c 74.688 258 72 260.688 72 264 c 72 270 l 60 270 l 60 246.691
 l 60.824 245.672 64.922 241.719 82.379 235.004 c 88.094 232.809 93.676 
230.926 97.695 229.629 c 100.656 235.957 107.012 240.004 114 240.004 c 120.988
 240.004 127.344 235.957 130.305 229.629 c 134.301 230.918 139.852 232.793
 145.551 234.984 c 163.066 241.703 167.168 245.672 168 246.691 c h
119.25 164.715 m 123.988 169.883 130.688 174.816 138 175.207 c 138 180 
l 138 193.254 127.254 204 114 204 c 100.746 204 90 193.254 90 180 c 90 174.922
 l 97.051 175.199 107.961 173.707 119.25 164.715 c h
90 162.938 m 90 156 l 90.012 146.062 98.062 138.012 108 138 c 120 138 l
 129.938 138.012 137.988 146.062 138 156 c 138 163.141 l 131.766 162.293
 125.062 152.773 124.996 152.672 c 123.996 151.176 122.379 150.207 120.59
 150.031 c 118.801 149.852 117.027 150.484 115.754 151.754 c 105.457 162.059
 95.438 163.254 90 162.938 c h
120 216 m 120 222 l 120 225.312 117.312 228 114 228 c 110.688 228 108 225.312
 108 222 c 108 216 l h
186 270 m 180 270 l 180 246 l 180 238.695 171.953 232.523 152.211 224.691
 c 144.375 221.586 136.637 219.031 132 217.566 c 132 211.156 l 143.129 204.727
 149.992 192.852 150 180 c 150 156 l 149.984 139.438 136.562 126.016 120
 126 c 108 126 l 91.438 126.016 78.016 139.438 78 156 c 78 180 l 78.008 
192.852 84.871 204.727 96 211.156 c 96 217.566 l 91.363 219.031 83.625 221.586
 75.789 224.691 c 56.047 232.523 48 238.695 48 246 c 48 270 l 42 270 l 42
 114 l 186 114 l h
186 270 m W n
[0.75 0 0 0.75 0 0] concat
/CairoFunction
<< /FunctionType 3
   /Domain [ 0 1 ]
   /Functions [
   << /FunctionType 2
      /Domain [ 0 1 ]
      /C0 [ 0 0.247059 0.541176 ]
      /C1 [ 0 0.843137 0.87451 ]
      /N 1
   >>
   << /FunctionType 2
      /Domain [ 0 1 ]
      /C0 [ 0 0.843137 0.87451 ]
      /C1 [ 0 0.427451 0.941176 ]
      /N 1
   >>
   ]
   /Bounds [ 0.518 ]
   /Encode [ 1 1 2 { pop 0 1 } for ]
>>
def
   << /ShadingType 2
      /ColorSpace /DeviceRGB
      /Coords [ -43.808998 451.80899 432.763 -24.763 ]
      /Extend [ true true ]
      /Function CairoFunction
   >>
shfill
Q
q
348 102 m 216 102 l 212.688 102 210 104.688 210 108 c 210 150 l 210 153.312
 212.688 156 216 156 c 348 156 l 351.312 156 354 153.312 354 150 c 354 108
 l 354 104.688 351.312 102 348 102 c h
342 144 m 222 144 l 222 114 l 342 114 l h
342 144 m W n
[0.75 0 0 0.75 0 0] concat
/CairoFunction
<< /FunctionType 3
   /Domain [ 0 1 ]
   /Functions [
   << /FunctionType 2
      /Domain [ 0 1 ]
      /C0 [ 0 0.247059 0.541176 ]
      /C1 [ 0 0.843137 0.87451 ]
      /N 1
   >>
   << /FunctionType 2
      /Domain [ 0 1 ]
      /C0 [ 0 0.843137 0.87451 ]
      /C1 [ 0 0.427451 0.941176 ]
      /N 1
   >>
   ]
   /Bounds [ 0.518 ]
   /Encode [ 1 1 2 { pop 0 1 } for ]
>>
def
   << /ShadingType 2
      /ColorSpace /DeviceRGB
      /Coords [ 26.191 521.809021 502.763 45.237 ]
      /Extend [ true true ]
      /Function CairoFunction
   >>
shfill
Q
q
216 180 m 300 180 l 303.312 180 306 177.312 306 174 c 306 170.688 303.312
 168 300 168 c 216 168 l 212.688 168 210 170.688 210 174 c 210 177.312 212.688
 180 216 180 c h
216 180 m W n
[0.75 0 0 0.75 0 0] concat
/CairoFunction
<< /FunctionType 3
   /Domain [ 0 1 ]
   /Functions [
   << /FunctionType 2
      /Domain [ 0 1 ]
      /C0 [ 0 0.247059 0.541176 ]
      /C1 [ 0 0.843137 0.87451 ]
      /N 1
   >>
   << /FunctionType 2
      /Domain [ 0 1 ]
      /C0 [ 0 0.843137 0.87451 ]
      /C1 [ 0 0.427451 0.941176 ]
      /N 1
   >>
   ]
   /Bounds [ 0.518 ]
   /Encode [ 1 1 2 { pop 0 1 } for ]
>>
def
   << /ShadingType 2
      /ColorSpace /DeviceRGB
      /Coords [ 40.191002 535.809021 516.763 59.237 ]
      /Extend [ true true ]
      /Function CairoFunction
   >>
shfill
Q
q
216 252 m 336 252 l 339.312 252 342 249.312 342 246 c 342 242.688 339.312
 240 336 240 c 216 240 l 212.688 240 210 242.688 210 246 c 210 249.312 212.688
 252 216 252 c h
216 252 m W n
[0.75 0 0 0.75 0 0] concat
/CairoFunction
<< /FunctionType 3
   /Domain [ 0 1 ]
   /Functions [
   << /FunctionType 2
      /Domain [ 0 1 ]
      /C0 [ 0 0.247059 0.541176 ]
      /C1 [ 0 0.843137 0.87451 ]
      /N 1
   >>
   << /FunctionType 2
      /Domain [ 0 1 ]
      /C0 [ 0 0.843137 0.87451 ]
      /C1 [ 0 0.427451 0.941176 ]
      /N 1
   >>
   ]
   /Bounds [ 0.518 ]
   /Encode [ 1 1 2 { pop 0 1 } for ]
>>
def
   << /ShadingType 2
      /ColorSpace /DeviceRGB
      /Coords [ 100.191002 595.809021 576.763 119.237 ]
      /Extend [ true true ]
      /Function CairoFunction
   >>
shfill
Q
q
216 270 m 258 270 l 261.312 270 264 267.312 264 264 c 264 260.688 261.312
 258 258 258 c 216 258 l 212.688 258 210 260.688 210 264 c 210 267.312 212.688
 270 216 270 c h
216 270 m W n
[0.75 0 0 0.75 0 0] concat
/CairoFunction
<< /FunctionType 3
   /Domain [ 0 1 ]
   /Functions [
   << /FunctionType 2
      /Domain [ 0 1 ]
      /C0 [ 0 0.247059 0.541176 ]
      /C1 [ 0 0.843137 0.87451 ]
      /N 1
   >>
   << /FunctionType 2
      /Domain [ 0 1 ]
      /C0 [ 0 0.843137 0.87451 ]
      /C1 [ 0 0.427451 0.941176 ]
      /N 1
   >>
   ]
   /Bounds [ 0.518 ]
   /Encode [ 1 1 2 { pop 0 1 } for ]
>>
def
   << /ShadingType 2
      /ColorSpace /DeviceRGB
      /Coords [ 86.191002 581.809021 562.763 105.237 ]
      /Extend [ true true ]
      /Function CairoFunction
   >>
shfill
Q
q
276 258 m 272.688 258 270 260.688 270 264 c 270 267.312 272.688 270 276
 270 c 282 270 l 285.312 270 288 267.312 288 264 c 288 260.688 285.312 258
 282 258 c h
276 258 m W n
[0.75 0 0 0.75 0 0] concat
/CairoFunction
<< /FunctionType 3
   /Domain [ 0 1 ]
   /Functions [
   << /FunctionType 2
      /Domain [ 0 1 ]
      /C0 [ 0 0.247059 0.541176 ]
      /C1 [ 0 0.843137 0.87451 ]
      /N 1
   >>
   << /FunctionType 2
      /Domain [ 0 1 ]
      /C0 [ 0 0.843137 0.87451 ]
      /C1 [ 0 0.427451 0.941176 ]
      /N 1
   >>
   ]
   /Bounds [ 0.518 ]
   /Encode [ 1 1 2 { pop 0 1 } for ]
>>
def
   << /ShadingType 2
      /ColorSpace /DeviceRGB
      /Coords [ 114.191002 609.809021 590.763 133.237 ]
      /Extend [ true true ]
      /Function CairoFunction
   >>
shfill
Q
q
342 288 m 36 288 l 32.688 288 30 290.688 30 294 c 30 312 l 30 315.312 32.688
 318 36 318 c 342 318 l 345.312 318 348 315.312 348 312 c 348 294 l 348 
290.688 345.312 288 342 288 c h
336 306 m 42 306 l 42 300 l 336 300 l h
336 306 m W n
[0.75 0 0 0.75 0 0] concat
/CairoFunction
<< /FunctionType 3
   /Domain [ 0 1 ]
   /Functions [
   << /FunctionType 2
      /Domain [ 0 1 ]
      /C0 [ 0 0.247059 0.541176 ]
      /C1 [ 0 0.843137 0.87451 ]
      /N 1
   >>
   << /FunctionType 2
      /Domain [ 0 1 ]
      /C0 [ 0 0.843137 0.87451 ]
      /C1 [ 0 0.427451 0.941176 ]
      /N 1
   >>
   ]
   /Bounds [ 0.518 ]
   /Encode [ 1 1 2 { pop 0 1 } for ]
>>
def
   << /ShadingType 2
      /ColorSpace /DeviceRGB
      /Coords [ 80.191002 575.809021 556.763 99.237 ]
      /Extend [ true true ]
      /Function CairoFunction
   >>
shfill
Q
Q Q
showpage
%%Trailer
end
%%EOF
