%!PS-Adobe-3.0 EPSF-3.0
%%Creator: cairo 1.16.0 (https://cairographics.org)
%%CreationDate: Thu Dec  3 11:23:33 2020
%%Pages: 1
%%DocumentData: Clean7Bit
%%LanguageLevel: 3
%%BoundingBox: 6 30 378 361
%%EndComments
%%BeginProlog
50 dict begin
/q { gsave } bind def
/Q { grestore } bind def
/cm { 6 array astore concat } bind def
/w { setlinewidth } bind def
/J { setlinecap } bind def
/j { setlinejoin } bind def
/M { setmiterlimit } bind def
/d { setdash } bind def
/m { moveto } bind def
/l { lineto } bind def
/c { curveto } bind def
/h { closepath } bind def
/re { exch dup neg 3 1 roll 5 3 roll moveto 0 rlineto
      0 exch rlineto 0 rlineto closepath } bind def
/S { stroke } bind def
/f { fill } bind def
/f* { eofill } bind def
/n { newpath } bind def
/W { clip } bind def
/W* { eoclip } bind def
/BT { } bind def
/ET { } bind def
/BDC { mark 3 1 roll /BDC pdfmark } bind def
/EMC { mark /EMC pdfmark } bind def
/cairo_store_point { /cairo_point_y exch def /cairo_point_x exch def } def
/Tj { show currentpoint cairo_store_point } bind def
/TJ {
  {
    dup
    type /stringtype eq
    { show } { -0.001 mul 0 cairo_font_matrix dtransform rmoveto } ifelse
  } forall
  currentpoint cairo_store_point
} bind def
/cairo_selectfont { cairo_font_matrix aload pop pop pop 0 0 6 array astore
    cairo_font exch selectfont cairo_point_x cairo_point_y moveto } bind def
/Tf { pop /cairo_font exch def /cairo_font_matrix where
      { pop cairo_selectfont } if } bind def
/Td { matrix translate cairo_font_matrix matrix concatmatrix dup
      /cairo_font_matrix exch def dup 4 get exch 5 get cairo_store_point
      /cairo_font where { pop cairo_selectfont } if } bind def
/Tm { 2 copy 8 2 roll 6 array astore /cairo_font_matrix exch def
      cairo_store_point /cairo_font where { pop cairo_selectfont } if } bind def
/g { setgray } bind def
/rg { setrgbcolor } bind def
/d1 { setcachedevice } bind def
/cairo_data_source {
  CairoDataIndex CairoData length lt
    { CairoData CairoDataIndex get /CairoDataIndex CairoDataIndex 1 add def }
    { () } ifelse
} def
/cairo_flush_ascii85_file { cairo_ascii85_file status { cairo_ascii85_file flushfile } if } def
/cairo_image { image cairo_flush_ascii85_file } def
/cairo_imagemask { imagemask cairo_flush_ascii85_file } def
%%EndProlog
%%BeginSetup
%%EndSetup
%%Page: 1 1
%%BeginPageSetup
%%PageBoundingBox: 6 30 378 361
%%EndPageSetup
q 6 30 372 331 rectclip
1 0 0 -1 0 384 cm q
q
357 90 m 263.746 90 l 260.629 52.691 229.438 23.996 192 23.996 c 154.562
 23.996 123.371 52.691 120.254 90 c 27 90 l 15.406 90.012 6.012 99.406 6
 111 c 6 333 l 6.012 344.594 15.406 353.988 27 354 c 357 354 l 368.594 353.988
 377.988 344.594 378 333 c 378 111 l 377.988 99.406 368.594 90.012 357 90
 c h
192 36 m 216.27 36 238.145 50.617 247.434 73.039 c 256.719 95.461 251.586
 121.266 234.426 138.426 c 217.266 155.586 191.461 160.719 169.039 151.434
 c 146.617 142.145 132 120.27 132 96 c 132.039 62.879 158.879 36.039 192
 36 c h
27 342 m 22.031 341.996 18.004 337.969 18 333 c 18 136.598 l 126.375 201.621
 l 32.789 342 l h
47.211 342 m 136.672 207.801 l 188.91 239.145 l 190.812 240.285 193.188
 240.285 195.09 239.145 c 247.32 207.801 l 336.09 342 l h
366 333 m 365.996 337.969 361.969 341.996 357 342 c 350.477 342 l 257.625
 201.621 l 366 136.598 l h
366 122.602 m 192 227.004 l 18 122.602 l 18 111 l 18.004 106.031 22.031
 102.004 27 102 c 120.254 102 l 123.371 139.309 154.562 168.004 192 168.004
 c 229.438 168.004 260.629 139.309 263.746 102 c 357 102 l 361.969 102.004
 365.996 106.031 366 111 c h
366 122.602 m W n
[0.75 0 0 0.75 0 0] concat
/CairoFunction
<< /FunctionType 3
   /Domain [ 0 1 ]
   /Functions [
   << /FunctionType 2
      /Domain [ 0 1 ]
      /C0 [ 0 0.247059 0.541176 ]
      /C1 [ 0 0.843137 0.87451 ]
      /N 1
   >>
   << /FunctionType 2
      /Domain [ 0 1 ]
      /C0 [ 0 0.843137 0.87451 ]
      /C1 [ 0 0.427451 0.941176 ]
      /N 1
   >>
   ]
   /Bounds [ 0.518 ]
   /Encode [ 1 1 2 { pop 0 1 } for ]
>>
def
   << /ShadingType 2
      /ColorSpace /DeviceRGB
      /Coords [ 23.358 528.642029 570.445007 -18.445 ]
      /Extend [ true true ]
      /Function CairoFunction
   >>
shfill
Q
q
174 114 m 174 138 l 174 141.312 176.688 144 180 144 c 204 144 l 207.312
 144 210 141.312 210 138 c 210 114 l 234 114 l 237.312 114 240 111.312 240
 108 c 240 84 l 240 80.688 237.312 78 234 78 c 210 78 l 210 54 l 210 50.688
 207.312 48 204 48 c 180 48 l 176.688 48 174 50.688 174 54 c 174 78 l 150
 78 l 146.688 78 144 80.688 144 84 c 144 108 l 144 111.312 146.688 114 150
 114 c h
156 90 m 180 90 l 183.312 90 186 87.312 186 84 c 186 60 l 198 60 l 198 
84 l 198 87.312 200.688 90 204 90 c 228 90 l 228 102 l 204 102 l 200.688
 102 198 104.688 198 108 c 198 132 l 186 132 l 186 108 l 186 104.688 183.312
 102 180 102 c 156 102 l h
156 90 m W n
[0.75 0 0 0.75 0 0] concat
/CairoFunction
<< /FunctionType 3
   /Domain [ 0 1 ]
   /Functions [
   << /FunctionType 2
      /Domain [ 0 1 ]
      /C0 [ 0 0.247059 0.541176 ]
      /C1 [ 0 0.843137 0.87451 ]
      /N 1
   >>
   << /FunctionType 2
      /Domain [ 0 1 ]
      /C0 [ 0 0.843137 0.87451 ]
      /C1 [ 0 0.427451 0.941176 ]
      /N 1
   >>
   ]
   /Bounds [ 0.518 ]
   /Encode [ 1 1 2 { pop 0 1 } for ]
>>
def
   << /ShadingType 2
      /ColorSpace /DeviceRGB
      /Coords [ -60.641998 444.641998 486.445007 -102.445 ]
      /Extend [ true true ]
      /Function CairoFunction
   >>
shfill
Q
Q Q
showpage
%%Trailer
end
%%EOF
