%!PS-Adobe-3.0 EPSF-3.0
%%Creator: cairo 1.16.0 (https://cairographics.org)
%%CreationDate: Thu Dec  3 11:23:33 2020
%%Pages: 1
%%DocumentData: Clean7Bit
%%LanguageLevel: 3
%%BoundingBox: 6 12 378 372
%%EndComments
%%BeginProlog
50 dict begin
/q { gsave } bind def
/Q { grestore } bind def
/cm { 6 array astore concat } bind def
/w { setlinewidth } bind def
/J { setlinecap } bind def
/j { setlinejoin } bind def
/M { setmiterlimit } bind def
/d { setdash } bind def
/m { moveto } bind def
/l { lineto } bind def
/c { curveto } bind def
/h { closepath } bind def
/re { exch dup neg 3 1 roll 5 3 roll moveto 0 rlineto
      0 exch rlineto 0 rlineto closepath } bind def
/S { stroke } bind def
/f { fill } bind def
/f* { eofill } bind def
/n { newpath } bind def
/W { clip } bind def
/W* { eoclip } bind def
/BT { } bind def
/ET { } bind def
/BDC { mark 3 1 roll /BDC pdfmark } bind def
/EMC { mark /EMC pdfmark } bind def
/cairo_store_point { /cairo_point_y exch def /cairo_point_x exch def } def
/Tj { show currentpoint cairo_store_point } bind def
/TJ {
  {
    dup
    type /stringtype eq
    { show } { -0.001 mul 0 cairo_font_matrix dtransform rmoveto } ifelse
  } forall
  currentpoint cairo_store_point
} bind def
/cairo_selectfont { cairo_font_matrix aload pop pop pop 0 0 6 array astore
    cairo_font exch selectfont cairo_point_x cairo_point_y moveto } bind def
/Tf { pop /cairo_font exch def /cairo_font_matrix where
      { pop cairo_selectfont } if } bind def
/Td { matrix translate cairo_font_matrix matrix concatmatrix dup
      /cairo_font_matrix exch def dup 4 get exch 5 get cairo_store_point
      /cairo_font where { pop cairo_selectfont } if } bind def
/Tm { 2 copy 8 2 roll 6 array astore /cairo_font_matrix exch def
      cairo_store_point /cairo_font where { pop cairo_selectfont } if } bind def
/g { setgray } bind def
/rg { setrgbcolor } bind def
/d1 { setcachedevice } bind def
/cairo_data_source {
  CairoDataIndex CairoData length lt
    { CairoData CairoDataIndex get /CairoDataIndex CairoDataIndex 1 add def }
    { () } ifelse
} def
/cairo_flush_ascii85_file { cairo_ascii85_file status { cairo_ascii85_file flushfile } if } def
/cairo_image { image cairo_flush_ascii85_file } def
/cairo_imagemask { imagemask cairo_flush_ascii85_file } def
%%EndProlog
%%BeginSetup
%%EndSetup
%%Page: 1 1
%%BeginPageSetup
%%PageBoundingBox: 6 12 378 372
%%EndPageSetup
q 6 12 372 360 rectclip
1 0 0 -1 0 384 cm q
q
375.09 132.855 m 318 98.602 l 318 18 l 318 14.688 315.312 12 312 12 c 72
 12 l 68.688 12 66 14.688 66 18 c 66 98.602 l 8.91 132.855 l 7.105 133.941
 6 135.895 6 138 c 6 366 l 6 369.312 8.688 372 12 372 c 372 372 l 375.312
 372 378 369.312 378 366 c 378 138 l 378 135.895 376.895 133.941 375.09 
132.855 c h
318 112.598 m 365.34 141 l 318 169.402 l h
78 24 m 306 24 l 306 176.602 l 192 245.004 l 78 176.602 l h
66 112.598 m 66 169.402 l 18.66 141 l h
18 360 m 18 154.598 l 126.375 219.621 l 32.789 360 l h
47.211 360 m 136.672 225.801 l 188.91 257.145 l 190.812 258.285 193.188
 258.285 195.09 257.145 c 247.32 225.801 l 336.09 360 l h
366 360 m 350.477 360 l 257.625 219.621 l 366 154.598 l h
366 360 m W n
[0.75 0 0 0.75 0 0] concat
/CairoFunction
<< /FunctionType 3
   /Domain [ 0 1 ]
   /Functions [
   << /FunctionType 2
      /Domain [ 0 1 ]
      /C0 [ 0 0.247059 0.541176 ]
      /C1 [ 0 0.843137 0.87451 ]
      /N 1
   >>
   << /FunctionType 2
      /Domain [ 0 1 ]
      /C0 [ 0 0.843137 0.87451 ]
      /C1 [ 0 0.427451 0.941176 ]
      /N 1
   >>
   ]
   /Bounds [ 0.518 ]
   /Encode [ 1 1 2 { pop 0 1 } for ]
>>
def
   << /ShadingType 2
      /ColorSpace /DeviceRGB
      /Coords [ 5.42 546.578979 528.495972 23.504 ]
      /Extend [ true true ]
      /Function CairoFunction
   >>
shfill
Q
q
192 90 m 201.707 90 210.457 84.152 214.172 75.184 c 217.887 66.215 215.836
 55.895 208.969 49.031 c 202.105 42.164 191.785 40.113 182.816 43.828 c 
173.848 47.543 168 56.293 168 66 c 168.016 79.25 178.75 89.984 192 90 c 
h
192 54 m 196.855 54 201.23 56.922 203.086 61.406 c 204.945 65.891 203.918
 71.055 200.484 74.484 c 197.055 77.918 191.891 78.945 187.406 77.086 c 
182.922 75.23 180 70.855 180 66 c 180.008 59.375 185.375 54.008 192 54 c
 h
192 54 m W n
[0.75 0 0 0.75 0 0] concat
/CairoFunction
<< /FunctionType 3
   /Domain [ 0 1 ]
   /Functions [
   << /FunctionType 2
      /Domain [ 0 1 ]
      /C0 [ 0 0.247059 0.541176 ]
      /C1 [ 0 0.843137 0.87451 ]
      /N 1
   >>
   << /FunctionType 2
      /Domain [ 0 1 ]
      /C0 [ 0 0.843137 0.87451 ]
      /C1 [ 0 0.427451 0.941176 ]
      /N 1
   >>
   ]
   /Bounds [ 0.518 ]
   /Encode [ 1 1 2 { pop 0 1 } for ]
>>
def
   << /ShadingType 2
      /ColorSpace /DeviceRGB
      /Coords [ -98.580002 442.579987 424.496002 -80.496002 ]
      /Extend [ true true ]
      /Function CairoFunction
   >>
shfill
Q
q
174 204 m 210 204 l 213.312 204 216 201.312 216 198 c 216 102 l 216 98.688
 213.312 96 210 96 c 174 96 l 170.688 96 168 98.688 168 102 c 168 198 l 
168 201.312 170.688 204 174 204 c h
180 108 m 204 108 l 204 192 l 180 192 l h
180 108 m W n
[0.75 0 0 0.75 0 0] concat
/CairoFunction
<< /FunctionType 3
   /Domain [ 0 1 ]
   /Functions [
   << /FunctionType 2
      /Domain [ 0 1 ]
      /C0 [ 0 0.247059 0.541176 ]
      /C1 [ 0 0.843137 0.87451 ]
      /N 1
   >>
   << /FunctionType 2
      /Domain [ 0 1 ]
      /C0 [ 0 0.843137 0.87451 ]
      /C1 [ 0 0.427451 0.941176 ]
      /N 1
   >>
   ]
   /Bounds [ 0.518 ]
   /Encode [ 1 1 2 { pop 0 1 } for ]
>>
def
   << /ShadingType 2
      /ColorSpace /DeviceRGB
      /Coords [ -42.580002 498.579987 480.496002 -24.496 ]
      /Extend [ true true ]
      /Function CairoFunction
   >>
shfill
Q
Q Q
showpage
%%Trailer
end
%%EOF
