%!PS-Adobe-3.0 EPSF-3.0
%%Creator: cairo 1.16.0 (https://cairographics.org)
%%CreationDate: Thu Dec  3 11:23:35 2020
%%Pages: 1
%%DocumentData: Clean7Bit
%%LanguageLevel: 3
%%BoundingBox: 6 6 378 378
%%EndComments
%%BeginProlog
50 dict begin
/q { gsave } bind def
/Q { grestore } bind def
/cm { 6 array astore concat } bind def
/w { setlinewidth } bind def
/J { setlinecap } bind def
/j { setlinejoin } bind def
/M { setmiterlimit } bind def
/d { setdash } bind def
/m { moveto } bind def
/l { lineto } bind def
/c { curveto } bind def
/h { closepath } bind def
/re { exch dup neg 3 1 roll 5 3 roll moveto 0 rlineto
      0 exch rlineto 0 rlineto closepath } bind def
/S { stroke } bind def
/f { fill } bind def
/f* { eofill } bind def
/n { newpath } bind def
/W { clip } bind def
/W* { eoclip } bind def
/BT { } bind def
/ET { } bind def
/BDC { mark 3 1 roll /BDC pdfmark } bind def
/EMC { mark /EMC pdfmark } bind def
/cairo_store_point { /cairo_point_y exch def /cairo_point_x exch def } def
/Tj { show currentpoint cairo_store_point } bind def
/TJ {
  {
    dup
    type /stringtype eq
    { show } { -0.001 mul 0 cairo_font_matrix dtransform rmoveto } ifelse
  } forall
  currentpoint cairo_store_point
} bind def
/cairo_selectfont { cairo_font_matrix aload pop pop pop 0 0 6 array astore
    cairo_font exch selectfont cairo_point_x cairo_point_y moveto } bind def
/Tf { pop /cairo_font exch def /cairo_font_matrix where
      { pop cairo_selectfont } if } bind def
/Td { matrix translate cairo_font_matrix matrix concatmatrix dup
      /cairo_font_matrix exch def dup 4 get exch 5 get cairo_store_point
      /cairo_font where { pop cairo_selectfont } if } bind def
/Tm { 2 copy 8 2 roll 6 array astore /cairo_font_matrix exch def
      cairo_store_point /cairo_font where { pop cairo_selectfont } if } bind def
/g { setgray } bind def
/rg { setrgbcolor } bind def
/d1 { setcachedevice } bind def
/cairo_data_source {
  CairoDataIndex CairoData length lt
    { CairoData CairoDataIndex get /CairoDataIndex CairoDataIndex 1 add def }
    { () } ifelse
} def
/cairo_flush_ascii85_file { cairo_ascii85_file status { cairo_ascii85_file flushfile } if } def
/cairo_image { image cairo_flush_ascii85_file } def
/cairo_imagemask { imagemask cairo_flush_ascii85_file } def
%%EndProlog
%%BeginSetup
%%EndSetup
%%Page: 1 1
%%BeginPageSetup
%%PageBoundingBox: 6 6 378 378
%%EndPageSetup
q 6 6 372 372 rectclip
1 0 0 -1 0 384 cm q
q
96 144 m 96 147.312 93.312 150 90 150 c 86.688 150 84 147.312 84 144 c 
84 140.688 86.688 138 90 138 c 93.312 138 96 140.688 96 144 c h
96 144 m W n
[0.75 0 0 0.75 0 0] concat
/CairoFunction
<< /FunctionType 3
   /Domain [ 0 1 ]
   /Functions [
   << /FunctionType 2
      /Domain [ 0 1 ]
      /C0 [ 0 0.247059 0.541176 ]
      /C1 [ 0 0.843137 0.87451 ]
      /N 1
   >>
   << /FunctionType 2
      /Domain [ 0 1 ]
      /C0 [ 0 0.843137 0.87451 ]
      /C1 [ 0 0.427451 0.941176 ]
      /N 1
   >>
   ]
   /Bounds [ 0.518 ]
   /Encode [ 1 1 2 { pop 0 1 } for ]
>>
def
   << /ShadingType 2
      /ColorSpace /DeviceRGB
      /Coords [ -89.648003 401.64801 406.472992 -94.473 ]
      /Extend [ true true ]
      /Function CairoFunction
   >>
shfill
Q
q
132 144 m 132 147.312 129.312 150 126 150 c 122.688 150 120 147.312 120
 144 c 120 140.688 122.688 138 126 138 c 129.312 138 132 140.688 132 144
 c h
132 144 m W n
[0.75 0 0 0.75 0 0] concat
/CairoFunction
<< /FunctionType 3
   /Domain [ 0 1 ]
   /Functions [
   << /FunctionType 2
      /Domain [ 0 1 ]
      /C0 [ 0 0.247059 0.541176 ]
      /C1 [ 0 0.843137 0.87451 ]
      /N 1
   >>
   << /FunctionType 2
      /Domain [ 0 1 ]
      /C0 [ 0 0.843137 0.87451 ]
      /C1 [ 0 0.427451 0.941176 ]
      /N 1
   >>
   ]
   /Bounds [ 0.518 ]
   /Encode [ 1 1 2 { pop 0 1 } for ]
>>
def
   << /ShadingType 2
      /ColorSpace /DeviceRGB
      /Coords [ -65.648003 425.64801 430.472992 -70.473 ]
      /Extend [ true true ]
      /Function CairoFunction
   >>
shfill
Q
q
372 276 m 180 276 l 180 258 l 179.938 231.785 161.105 209.379 135.293 204.809
 c 132 201.516 l 132 193.156 l 139.414 188.859 145.062 182.07 147.938 174
 c 153 174 l 161.281 173.992 167.992 167.281 168 159 c 168 147 l 167.992
 139.875 162.98 133.734 156 132.301 c 156 114 l 156 87.492 134.508 66 108
 66 c 81.492 66 60 87.492 60 114 c 60 132.301 l 53.02 133.734 48.008 139.875
 48 147 c 48 159 l 48.008 167.281 54.719 173.992 63 174 c 68.062 174 l 70.938
 182.07 76.586 188.859 84 193.156 c 84 201.516 l 80.707 204.809 l 54.895
 209.379 36.062 231.785 36 258 c 36 276 l 12 276 l 8.688 276 6 278.688 6
 282 c 6 306 l 6 309.312 8.688 312 12 312 c 24 312 l 24 372 l 24 375.312
 26.688 378 30 378 c 354 378 l 357.312 378 360 375.312 360 372 c 360 312
 l 372 312 l 375.312 312 378 309.312 378 306 c 378 282 l 378 278.688 375.312
 276 372 276 c h
150 144 m 153 144 l 154.656 144 156 145.344 156 147 c 156 159 l 156 160.656
 154.656 162 153 162 c 150 162 l h
66 162 m 63 162 l 61.344 162 60 160.656 60 159 c 60 147 l 60 145.344 61.344
 144 63 144 c 66 144 l h
72 119.91 m 72 114 l 72 94.117 88.117 78 108 78 c 127.883 78 144 94.117
 144 114 c 144 120 l 137.398 120 128.34 109.664 124.996 104.672 c 123.996
 103.176 122.379 102.207 120.59 102.031 c 118.801 101.852 117.027 102.484
 115.754 103.754 c 107.332 112.184 82.223 118.094 72 119.91 c h
78 162 m 78 130.988 l 87.375 129.09 106.875 124.441 118.914 116.504 c 123.047
 121.477 129.988 128.484 138 131.023 c 138 162 l 137.984 175.246 127.246
 185.984 114 186 c 102 186 l 88.754 185.984 78.016 175.246 78 162 c h
96 201.996 m 96 197.488 l 97.98 197.828 99.988 198 102 198 c 114 198 l 
116.012 198 118.02 197.828 120 197.488 c 120 201.996 l 108 218.004 l h
99.398 226.523 m 92.324 231.238 l 85.297 217.184 l 89.348 213.137 l h
126.652 213.137 m 130.703 217.184 l 123.676 231.238 l 116.602 226.523 l
 h
48 258 m 48.043 241.363 57.863 226.305 73.074 219.562 c 84.629 242.684 
l 85.402 244.223 86.797 245.355 88.461 245.797 c 88.965 245.934 89.48 246
 90 246 c 91.184 246 92.344 245.648 93.328 244.996 c 108 235.207 l 122.672
 244.996 l 123.656 245.648 124.816 246 126 246 c 126.52 246 127.035 245.934
 127.539 245.797 c 129.203 245.355 130.598 244.223 131.371 242.684 c 142.926
 219.562 l 158.137 226.305 167.957 241.363 168 258 c 168 276 l 48 276 l 
h
348 366 m 36 366 l 36 312 l 348 312 l h
366 300 m 18 300 l 18 288 l 366 288 l h
366 300 m W n
[0.75 0 0 0.75 0 0] concat
/CairoFunction
<< /FunctionType 3
   /Domain [ 0 1 ]
   /Functions [
   << /FunctionType 2
      /Domain [ 0 1 ]
      /C0 [ 0 0.247059 0.541176 ]
      /C1 [ 0 0.843137 0.87451 ]
      /N 1
   >>
   << /FunctionType 2
      /Domain [ 0 1 ]
      /C0 [ 0 0.843137 0.87451 ]
      /C1 [ 0 0.427451 0.941176 ]
      /N 1
   >>
   ]
   /Bounds [ 0.518 ]
   /Encode [ 1 1 2 { pop 0 1 } for ]
>>
def
   << /ShadingType 2
      /ColorSpace /DeviceRGB
      /Coords [ 50.563999 541.859985 546.684998 45.737999 ]
      /Extend [ true true ]
      /Function CairoFunction
   >>
shfill
Q
q
359.863 26.977 m 359.84 15.395 350.449 6.012 338.863 6 c 195 6 l 183.406
 6.012 174.012 15.406 174 27 c 174 123 l 174.012 134.594 183.406 143.988
 195 144 c 210 144 l 210 174 l 210 176.43 211.461 178.617 213.703 179.547
 c 215.945 180.477 218.527 179.965 220.246 178.246 c 254.484 144 l 338.984
 144 l 344.559 144 349.902 141.785 353.844 137.84 c 357.781 133.898 359.992
 128.551 359.984 122.977 c h
345.352 129.359 m 343.668 131.055 341.375 132.008 338.984 132 c 252 132
 l 250.41 132 248.883 132.629 247.754 133.754 c 222 159.516 l 222 138 l 
222 134.688 219.312 132 216 132 c 195 132 l 190.031 131.996 186.004 127.969
 186 123 c 186 27 l 186.004 22.031 190.031 18.004 195 18 c 338.863 18 l 
343.828 18.008 347.852 22.027 347.863 26.992 c 347.984 122.992 l 347.996
 125.383 347.047 127.676 345.352 129.359 c h
345.352 129.359 m W n
[0.75 0 0 0.75 0 0] concat
/CairoFunction
<< /FunctionType 3
   /Domain [ 0 1 ]
   /Functions [
   << /FunctionType 2
      /Domain [ 0 1 ]
      /C0 [ 0 0.247059 0.541176 ]
      /C1 [ 0 0.843137 0.87451 ]
      /N 1
   >>
   << /FunctionType 2
      /Domain [ 0 1 ]
      /C0 [ 0 0.843137 0.87451 ]
      /C1 [ 0 0.427451 0.941176 ]
      /N 1
   >>
   ]
   /Bounds [ 0.518 ]
   /Encode [ 1 1 2 { pop 0 1 } for ]
>>
def
   << /ShadingType 2
      /ColorSpace /DeviceRGB
      /Coords [ -17.648001 473.64801 478.472992 -22.473 ]
      /Extend [ true true ]
      /Function CairoFunction
   >>
shfill
Q
q
258 126 m 282 126 l 285.312 126 288 123.312 288 120 c 288 72 l 288 68.688
 285.312 66 282 66 c 258 66 l 254.688 66 252 68.688 252 72 c 252 120 l 252
 123.312 254.688 126 258 126 c h
264 78 m 276 78 l 276 114 l 264 114 l h
264 78 m W n
[0.75 0 0 0.75 0 0] concat
/CairoFunction
<< /FunctionType 3
   /Domain [ 0 1 ]
   /Functions [
   << /FunctionType 2
      /Domain [ 0 1 ]
      /C0 [ 0 0.247059 0.541176 ]
      /C1 [ 0 0.843137 0.87451 ]
      /N 1
   >>
   << /FunctionType 2
      /Domain [ 0 1 ]
      /C0 [ 0 0.843137 0.87451 ]
      /C1 [ 0 0.427451 0.941176 ]
      /N 1
   >>
   ]
   /Bounds [ 0.518 ]
   /Encode [ 1 1 2 { pop 0 1 } for ]
>>
def
   << /ShadingType 2
      /ColorSpace /DeviceRGB
      /Coords [ -1.648 489.64801 494.472992 -6.473 ]
      /Extend [ true true ]
      /Function CairoFunction
   >>
shfill
Q
q
258 60 m 282 60 l 285.312 60 288 57.312 288 54 c 288 30 l 288 26.688 285.312
 24 282 24 c 258 24 l 254.688 24 252 26.688 252 30 c 252 54 l 252 57.312
 254.688 60 258 60 c h
264 36 m 276 36 l 276 48 l 264 48 l h
264 36 m W n
[0.75 0 0 0.75 0 0] concat
/CairoFunction
<< /FunctionType 3
   /Domain [ 0 1 ]
   /Functions [
   << /FunctionType 2
      /Domain [ 0 1 ]
      /C0 [ 0 0.247059 0.541176 ]
      /C1 [ 0 0.843137 0.87451 ]
      /N 1
   >>
   << /FunctionType 2
      /Domain [ 0 1 ]
      /C0 [ 0 0.843137 0.87451 ]
      /C1 [ 0 0.427451 0.941176 ]
      /N 1
   >>
   ]
   /Bounds [ 0.518 ]
   /Encode [ 1 1 2 { pop 0 1 } for ]
>>
def
   << /ShadingType 2
      /ColorSpace /DeviceRGB
      /Coords [ -37.647999 453.64801 458.472992 -42.473 ]
      /Extend [ true true ]
      /Function CairoFunction
   >>
shfill
Q
Q Q
showpage
%%Trailer
end
%%EOF
