%!PS-Adobe-3.0 EPSF-3.0
%%Creator: cairo 1.16.0 (https://cairographics.org)
%%CreationDate: Thu Dec  3 11:23:35 2020
%%Pages: 1
%%DocumentData: Clean7Bit
%%LanguageLevel: 3
%%BoundingBox: 6 6 378 379
%%EndComments
%%BeginProlog
50 dict begin
/q { gsave } bind def
/Q { grestore } bind def
/cm { 6 array astore concat } bind def
/w { setlinewidth } bind def
/J { setlinecap } bind def
/j { setlinejoin } bind def
/M { setmiterlimit } bind def
/d { setdash } bind def
/m { moveto } bind def
/l { lineto } bind def
/c { curveto } bind def
/h { closepath } bind def
/re { exch dup neg 3 1 roll 5 3 roll moveto 0 rlineto
      0 exch rlineto 0 rlineto closepath } bind def
/S { stroke } bind def
/f { fill } bind def
/f* { eofill } bind def
/n { newpath } bind def
/W { clip } bind def
/W* { eoclip } bind def
/BT { } bind def
/ET { } bind def
/BDC { mark 3 1 roll /BDC pdfmark } bind def
/EMC { mark /EMC pdfmark } bind def
/cairo_store_point { /cairo_point_y exch def /cairo_point_x exch def } def
/Tj { show currentpoint cairo_store_point } bind def
/TJ {
  {
    dup
    type /stringtype eq
    { show } { -0.001 mul 0 cairo_font_matrix dtransform rmoveto } ifelse
  } forall
  currentpoint cairo_store_point
} bind def
/cairo_selectfont { cairo_font_matrix aload pop pop pop 0 0 6 array astore
    cairo_font exch selectfont cairo_point_x cairo_point_y moveto } bind def
/Tf { pop /cairo_font exch def /cairo_font_matrix where
      { pop cairo_selectfont } if } bind def
/Td { matrix translate cairo_font_matrix matrix concatmatrix dup
      /cairo_font_matrix exch def dup 4 get exch 5 get cairo_store_point
      /cairo_font where { pop cairo_selectfont } if } bind def
/Tm { 2 copy 8 2 roll 6 array astore /cairo_font_matrix exch def
      cairo_store_point /cairo_font where { pop cairo_selectfont } if } bind def
/g { setgray } bind def
/rg { setrgbcolor } bind def
/d1 { setcachedevice } bind def
/cairo_data_source {
  CairoDataIndex CairoData length lt
    { CairoData CairoDataIndex get /CairoDataIndex CairoDataIndex 1 add def }
    { () } ifelse
} def
/cairo_flush_ascii85_file { cairo_ascii85_file status { cairo_ascii85_file flushfile } if } def
/cairo_image { image cairo_flush_ascii85_file } def
/cairo_imagemask { imagemask cairo_flush_ascii85_file } def
%%EndProlog
%%BeginSetup
%%EndSetup
%%Page: 1 1
%%BeginPageSetup
%%PageBoundingBox: 6 6 378 379
%%EndPageSetup
q 6 6 372 373 rectclip
1 0 0 -1 0 384 cm q
q
349.926 101.957 m 332.957 84.984 l 331.832 83.859 330.305 83.227 328.715
 83.227 c 327.121 83.227 325.594 83.859 324.469 84.984 c 318.105 91.348 
l 316.934 92.52 315.035 92.52 313.863 91.348 c 292.648 70.137 l 291.477 
68.965 291.477 67.066 292.648 65.895 c 299.016 59.531 l 300.141 58.406 300.77
 56.879 300.77 55.285 c 300.77 53.695 300.141 52.168 299.016 51.043 c 282.043
 34.074 l 280.918 32.949 279.395 32.316 277.801 32.316 c 276.211 32.316 
274.684 32.949 273.559 34.074 c 254.469 53.164 l 250.527 57.105 248.316 
62.445 248.316 68.016 c 248.316 73.586 250.527 78.926 254.469 82.867 c 301.137
 129.535 l 309.344 137.723 322.629 137.723 330.836 129.535 c 349.926 110.441
 l 351.055 109.316 351.684 107.789 351.684 106.199 c 351.684 104.605 351.051
 103.082 349.926 101.957 c h
322.352 121.051 m 320.664 122.738 318.371 123.688 315.984 123.688 c 313.598
 123.688 311.309 122.738 309.621 121.051 c 262.949 74.379 l 259.441 70.863
 259.441 65.168 262.949 61.652 c 277.801 46.801 l 286.285 55.285 l 284.164
 57.406 l 278.305 63.266 278.305 72.762 284.164 78.621 c 305.379 99.836 
l 311.234 105.691 320.734 105.691 326.59 99.836 c 328.711 97.711 l 337.199
 106.199 l h
322.352 121.051 m W n
[0.75 0 0 0.75 0 0] concat
/CairoFunction
<< /FunctionType 3
   /Domain [ 0 1 ]
   /Functions [
   << /FunctionType 2
      /Domain [ 0 1 ]
      /C0 [ 0 0.247059 0.541176 ]
      /C1 [ 0 0.843137 0.87451 ]
      /N 1
   >>
   << /FunctionType 2
      /Domain [ 0 1 ]
      /C0 [ 0 0.843137 0.87451 ]
      /C1 [ 0 0.427451 0.941176 ]
      /N 1
   >>
   ]
   /Bounds [ 0.518 ]
   /Encode [ 1 1 2 { pop 0 1 } for ]
>>
def
   << /ShadingType 2
      /ColorSpace /DeviceRGB
      /Coords [ 16.326 495.674011 511.682007 0.318 ]
      /Extend [ true true ]
      /Function CairoFunction
   >>
shfill
Q
q
378 84 m 378.004 47.375 352.523 15.68 316.75 7.82 c 280.98 -0.043 244.555
 18.043 229.199 51.293 c 155.281 25.617 73.426 54.422 31.871 120.727 c -9.688
 187.031 0.078 273.254 55.414 328.586 c 110.746 383.922 196.969 393.688 
263.273 352.129 c 329.578 310.574 358.383 228.719 332.707 154.801 c 360.301
 142.027 377.969 114.402 378 84 c h
137.301 58.371 m 128.469 66.816 120.398 78.398 113.438 92.852 c 99.008 
122.812 90.781 162.09 90.059 204 c 18.129 204 l 20.812 133.273 70.809 74.469
 137.301 58.371 c h
18.129 216 m 90.059 216 l 90.781 257.91 99.008 297.188 113.438 327.148 
c 120.398 341.602 128.469 353.184 137.301 361.629 c 70.809 345.531 20.812
 286.727 18.129 216 c h
168 365.43 m 151.785 362.414 136.434 347.25 124.254 321.945 c 110.578 293.559
 102.766 256.125 102.059 216 c 168 216 l h
168 204 m 102.059 204 l 102.766 163.875 110.578 126.441 124.254 98.055 
c 136.434 72.75 151.785 57.586 168 54.57 c h
225 62.543 m 224.055 65.859 223.328 69.234 222.824 72.645 c 219.242 67.492
 215.164 62.699 210.652 58.336 c 215.496 59.504 220.281 60.906 225 62.543
 c h
180 54.57 m 195.887 57.523 210.961 72.18 223.02 96.594 c 224.758 107.223
 228.688 117.375 234.562 126.406 c 241.539 149.738 245.445 176.43 245.941
 204 c 180 204 l h
180 365.43 m 180 216 l 245.941 216 l 245.234 256.125 237.422 293.559 223.746
 321.945 c 211.566 347.25 196.215 362.414 180 365.43 c h
210.699 361.629 m 219.531 353.184 227.602 341.602 234.562 327.148 c 248.992
 297.188 257.219 257.91 257.941 216 c 329.871 216 l 327.188 286.727 277.191
 345.531 210.699 361.629 c h
257.949 204 m 257.648 184.223 255.527 164.516 251.609 145.125 c 271.297
 160.738 297.301 165.902 321.457 159 c 326.477 173.5 329.316 188.664 329.879
 204 c h
300 150 m 273.305 150 249.238 133.918 239.023 109.258 c 228.809 84.594 
234.457 56.207 253.332 37.332 c 272.207 18.457 300.594 12.809 325.258 23.023
 c 349.918 33.238 366 57.305 366 84 c 365.957 120.434 336.434 149.957 300
 150 c h
300 150 m W n
[0.75 0 0 0.75 0 0] concat
/CairoFunction
<< /FunctionType 3
   /Domain [ 0 1 ]
   /Functions [
   << /FunctionType 2
      /Domain [ 0 1 ]
      /C0 [ 0 0.247059 0.541176 ]
      /C1 [ 0 0.843137 0.87451 ]
      /N 1
   >>
   << /FunctionType 2
      /Domain [ 0 1 ]
      /C0 [ 0 0.843137 0.87451 ]
      /C1 [ 0 0.427451 0.941176 ]
      /N 1
   >>
   ]
   /Bounds [ 0.518 ]
   /Encode [ 1 1 2 { pop 0 1 } for ]
>>
def
   << /ShadingType 2
      /ColorSpace /DeviceRGB
      /Coords [ 16.326 495.674011 511.682007 0.318 ]
      /Extend [ true true ]
      /Function CairoFunction
   >>
shfill
Q
Q Q
showpage
%%Trailer
end
%%EOF
