%!PS-Adobe-3.0 EPSF-3.0
%%Creator: cairo 1.16.0 (https://cairographics.org)
%%CreationDate: Thu Dec  3 11:23:36 2020
%%Pages: 1
%%DocumentData: Clean7Bit
%%LanguageLevel: 3
%%BoundingBox: 6 18 378 366
%%EndComments
%%BeginProlog
50 dict begin
/q { gsave } bind def
/Q { grestore } bind def
/cm { 6 array astore concat } bind def
/w { setlinewidth } bind def
/J { setlinecap } bind def
/j { setlinejoin } bind def
/M { setmiterlimit } bind def
/d { setdash } bind def
/m { moveto } bind def
/l { lineto } bind def
/c { curveto } bind def
/h { closepath } bind def
/re { exch dup neg 3 1 roll 5 3 roll moveto 0 rlineto
      0 exch rlineto 0 rlineto closepath } bind def
/S { stroke } bind def
/f { fill } bind def
/f* { eofill } bind def
/n { newpath } bind def
/W { clip } bind def
/W* { eoclip } bind def
/BT { } bind def
/ET { } bind def
/BDC { mark 3 1 roll /BDC pdfmark } bind def
/EMC { mark /EMC pdfmark } bind def
/cairo_store_point { /cairo_point_y exch def /cairo_point_x exch def } def
/Tj { show currentpoint cairo_store_point } bind def
/TJ {
  {
    dup
    type /stringtype eq
    { show } { -0.001 mul 0 cairo_font_matrix dtransform rmoveto } ifelse
  } forall
  currentpoint cairo_store_point
} bind def
/cairo_selectfont { cairo_font_matrix aload pop pop pop 0 0 6 array astore
    cairo_font exch selectfont cairo_point_x cairo_point_y moveto } bind def
/Tf { pop /cairo_font exch def /cairo_font_matrix where
      { pop cairo_selectfont } if } bind def
/Td { matrix translate cairo_font_matrix matrix concatmatrix dup
      /cairo_font_matrix exch def dup 4 get exch 5 get cairo_store_point
      /cairo_font where { pop cairo_selectfont } if } bind def
/Tm { 2 copy 8 2 roll 6 array astore /cairo_font_matrix exch def
      cairo_store_point /cairo_font where { pop cairo_selectfont } if } bind def
/g { setgray } bind def
/rg { setrgbcolor } bind def
/d1 { setcachedevice } bind def
/cairo_data_source {
  CairoDataIndex CairoData length lt
    { CairoData CairoDataIndex get /CairoDataIndex CairoDataIndex 1 add def }
    { () } ifelse
} def
/cairo_flush_ascii85_file { cairo_ascii85_file status { cairo_ascii85_file flushfile } if } def
/cairo_image { image cairo_flush_ascii85_file } def
/cairo_imagemask { imagemask cairo_flush_ascii85_file } def
%%EndProlog
%%BeginSetup
%%EndSetup
%%Page: 1 1
%%BeginPageSetup
%%PageBoundingBox: 6 18 378 366
%%EndPageSetup
q 6 18 372 348 rectclip
1 0 0 -1 0 384 cm q
q
96 96 m 96 99.312 93.312 102 90 102 c 86.688 102 84 99.312 84 96 c 84 92.688
 86.688 90 90 90 c 93.312 90 96 92.688 96 96 c h
96 96 m W n
[0.75 0 0 0.75 0 0] concat
/CairoFunction
<< /FunctionType 3
   /Domain [ 0 1 ]
   /Functions [
   << /FunctionType 2
      /Domain [ 0 1 ]
      /C0 [ 0 0.247059 0.541176 ]
      /C1 [ 0 0.843137 0.87451 ]
      /N 1
   >>
   << /FunctionType 2
      /Domain [ 0 1 ]
      /C0 [ 0 0.843137 0.87451 ]
      /C1 [ 0 0.427451 0.941176 ]
      /N 1
   >>
   ]
   /Bounds [ 0.518 ]
   /Encode [ 1 1 2 { pop 0 1 } for ]
>>
def
   << /ShadingType 2
      /ColorSpace /DeviceRGB
      /Coords [ -105.241997 353.242004 341.841003 -93.841003 ]
      /Extend [ true true ]
      /Function CairoFunction
   >>
shfill
Q
q
132 96 m 132 99.312 129.312 102 126 102 c 122.688 102 120 99.312 120 96
 c 120 92.688 122.688 90 126 90 c 129.312 90 132 92.688 132 96 c h
132 96 m W n
[0.75 0 0 0.75 0 0] concat
/CairoFunction
<< /FunctionType 3
   /Domain [ 0 1 ]
   /Functions [
   << /FunctionType 2
      /Domain [ 0 1 ]
      /C0 [ 0 0.247059 0.541176 ]
      /C1 [ 0 0.843137 0.87451 ]
      /N 1
   >>
   << /FunctionType 2
      /Domain [ 0 1 ]
      /C0 [ 0 0.843137 0.87451 ]
      /C1 [ 0 0.427451 0.941176 ]
      /N 1
   >>
   ]
   /Bounds [ 0.518 ]
   /Encode [ 1 1 2 { pop 0 1 } for ]
>>
def
   << /ShadingType 2
      /ColorSpace /DeviceRGB
      /Coords [ -81.241997 377.242004 365.841003 -69.841003 ]
      /Extend [ true true ]
      /Function CairoFunction
   >>
shfill
Q
q
372 228 m 312.699 228 l 307.234 225.168 301.32 223.301 295.223 222.48 c
 294.961 222.445 294.695 222.426 294.426 222.426 c 294 222.426 l 294 211.176
 l 301.426 206.887 307.074 200.086 309.93 192 c 315 192 l 323.281 191.992
 329.992 185.281 330 177 c 330 165 l 329.988 157.867 324.965 151.727 317.977
 150.301 c 317.984 150.203 318 150.098 318 150 c 318 132 l 318 105.492 296.508
 84 270 84 c 243.492 84 222 105.492 222 132 c 222 150 l 222 150.098 222.016
 150.203 222.023 150.301 c 215.035 151.727 210.012 157.867 210 165 c 210
 177 l 210.008 185.281 216.719 191.992 225 192 c 230.07 192 l 232.926 200.086
 238.574 206.887 246 211.176 c 246 222.426 l 245.574 222.426 l 245.305 222.426
 245.039 222.445 244.777 222.48 c 238.68 223.301 232.766 225.168 227.301
 228 c 180 228 l 180 210 l 179.938 183.785 161.105 161.379 135.293 156.809
 c 132 153.516 l 132 145.156 l 139.414 140.859 145.062 134.07 147.938 126
 c 153 126 l 161.281 125.992 167.992 119.281 168 111 c 168 99 l 167.992 
91.875 162.98 85.734 156 84.301 c 156 66 l 156 39.492 134.508 18 108 18 
c 81.492 18 60 39.492 60 66 c 60 84.301 l 53.02 85.734 48.008 91.875 48 
99 c 48 111 l 48.008 119.281 54.719 125.992 63 126 c 68.062 126 l 70.938
 134.07 76.586 140.859 84 145.156 c 84 153.516 l 80.707 156.809 l 54.895
 161.379 36.062 183.785 36 210 c 36 228 l 12 228 l 8.688 228 6 230.688 6
 234 c 6 258 l 6 261.312 8.688 264 12 264 c 24 264 l 24 330 l 24 333.312
 26.688 336 30 336 c 198 336 l 198 360 l 198 363.312 200.688 366 204 366
 c 336 366 l 339.312 366 342 363.312 342 360 c 342 336 l 354 336 l 357.312
 336 360 333.312 360 330 c 360 264 l 372 264 l 375.312 264 378 261.312 378
 258 c 378 234 l 378 230.688 375.312 228 372 228 c h
312 162 m 315 162 l 316.656 162 318 163.344 318 165 c 318 177 l 318 178.656
 316.656 180 315 180 c 312 180 l h
228 180 m 225 180 l 223.344 180 222 178.656 222 177 c 222 165 l 222 163.344
 223.344 162 225 162 c 228 162 l h
150 96 m 153 96 l 154.656 96 156 97.344 156 99 c 156 111 l 156 112.656 
154.656 114 153 114 c 150 114 l h
66 114 m 63 114 l 61.344 114 60 112.656 60 111 c 60 99 l 60 97.344 61.344
 96 63 96 c 66 96 l h
234 148.133 m 234 132 l 234 112.117 250.117 96 270 96 c 289.883 96 306 
112.117 306 132 c 306 148.156 l 296.551 161.863 279.84 180 270 180 c 264.547
 180 256.078 174.188 246.766 164.047 c 242.188 159.008 237.926 153.695 234
 148.133 c h
240 180 m 240 174.367 l 251.258 186.066 261.336 192 270 192 c 278.664 192
 288.742 186.066 300 174.367 c 300 180 l 300 189.543 294.344 198.18 285.602
 201.996 c 283.414 202.949 282 205.109 282 207.496 c 282 222.426 l 258 222.426
 l 258 207.496 l 258 205.109 256.586 202.949 254.398 201.996 c 245.656 198.18
 240 189.543 240 180 c h
72 71.91 m 72 66 l 72 46.117 88.117 30 108 30 c 127.883 30 144 46.117 144
 66 c 144 72 l 137.398 72 128.34 61.664 124.996 56.672 c 123.996 55.176 
122.379 54.207 120.59 54.031 c 118.801 53.852 117.027 54.484 115.754 55.754
 c 107.332 64.184 82.223 70.094 72 71.91 c h
78 114 m 78 82.988 l 87.375 81.09 106.875 76.441 118.914 68.504 c 123.047
 73.477 129.988 80.484 138 83.023 c 138 114 l 137.984 127.246 127.246 137.984
 114 138 c 102 138 l 88.754 137.984 78.016 127.246 78 114 c h
96 153.996 m 96 149.488 l 97.98 149.828 99.988 150 102 150 c 114 150 l 
116.012 150 118.02 149.828 120 149.488 c 120 153.996 l 108 170.004 l h
99.398 178.523 m 92.324 183.238 l 85.297 169.184 l 89.348 165.137 l h
126.652 165.137 m 130.703 169.184 l 123.676 183.238 l 116.602 178.523 l
 h
48 210 m 48.043 193.363 57.863 178.305 73.074 171.562 c 84.629 194.684 
l 85.402 196.223 86.797 197.355 88.461 197.797 c 88.965 197.934 89.48 198
 90 198 c 91.184 198 92.344 197.648 93.328 196.996 c 108 187.207 l 122.672
 196.996 l 123.656 197.648 124.816 198 126 198 c 126.52 198 127.035 197.934
 127.539 197.797 c 129.203 197.355 130.598 196.223 131.371 194.684 c 142.926
 171.562 l 158.137 178.305 167.957 193.363 168 210 c 168 228 l 48 228 l 
h
198 276 m 198 324 l 36 324 l 36 264 l 199.363 264 l 198.457 267.934 198
 271.961 198 276 c h
203.672 252 m 18 252 l 18 240 l 211.824 240 l 208.582 243.617 205.84 247.652
 203.672 252 c h
330 354 m 210 354 l 210 276 l 210.043 255.141 225.348 237.457 245.984 234.426
 c 294.016 234.426 l 314.652 237.457 329.957 255.141 330 276 c h
348 324 m 342 324 l 342 276 l 342 271.961 341.543 267.934 340.637 264 c
 348 264 l h
366 252 m 336.328 252 l 334.16 247.652 331.418 243.617 328.176 240 c 366
 240 l h
366 252 m W n
[0.75 0 0 0.75 0 0] concat
/CairoFunction
<< /FunctionType 3
   /Domain [ 0 1 ]
   /Functions [
   << /FunctionType 2
      /Domain [ 0 1 ]
      /C0 [ 0 0.247059 0.541176 ]
      /C1 [ 0 0.843137 0.87451 ]
      /N 1
   >>
   << /FunctionType 2
      /Domain [ 0 1 ]
      /C0 [ 0 0.843137 0.87451 ]
      /C1 [ 0 0.427451 0.941176 ]
      /N 1
   >>
   ]
   /Bounds [ 0.518 ]
   /Encode [ 1 1 2 { pop 0 1 } for ]
>>
def
   << /ShadingType 2
      /ColorSpace /DeviceRGB
      /Coords [ 40.970001 499.45401 488.053009 52.370998 ]
      /Extend [ true true ]
      /Function CairoFunction
   >>
shfill
Q
Q Q
showpage
%%Trailer
end
%%EOF
