%!PS-Adobe-3.0 EPSF-3.0
%%Creator: cairo 1.16.0 (https://cairographics.org)
%%CreationDate: Thu Dec  3 11:23:36 2020
%%Pages: 1
%%DocumentData: Clean7Bit
%%LanguageLevel: 3
%%BoundingBox: 42 6 342 378
%%EndComments
%%BeginProlog
50 dict begin
/q { gsave } bind def
/Q { grestore } bind def
/cm { 6 array astore concat } bind def
/w { setlinewidth } bind def
/J { setlinecap } bind def
/j { setlinejoin } bind def
/M { setmiterlimit } bind def
/d { setdash } bind def
/m { moveto } bind def
/l { lineto } bind def
/c { curveto } bind def
/h { closepath } bind def
/re { exch dup neg 3 1 roll 5 3 roll moveto 0 rlineto
      0 exch rlineto 0 rlineto closepath } bind def
/S { stroke } bind def
/f { fill } bind def
/f* { eofill } bind def
/n { newpath } bind def
/W { clip } bind def
/W* { eoclip } bind def
/BT { } bind def
/ET { } bind def
/BDC { mark 3 1 roll /BDC pdfmark } bind def
/EMC { mark /EMC pdfmark } bind def
/cairo_store_point { /cairo_point_y exch def /cairo_point_x exch def } def
/Tj { show currentpoint cairo_store_point } bind def
/TJ {
  {
    dup
    type /stringtype eq
    { show } { -0.001 mul 0 cairo_font_matrix dtransform rmoveto } ifelse
  } forall
  currentpoint cairo_store_point
} bind def
/cairo_selectfont { cairo_font_matrix aload pop pop pop 0 0 6 array astore
    cairo_font exch selectfont cairo_point_x cairo_point_y moveto } bind def
/Tf { pop /cairo_font exch def /cairo_font_matrix where
      { pop cairo_selectfont } if } bind def
/Td { matrix translate cairo_font_matrix matrix concatmatrix dup
      /cairo_font_matrix exch def dup 4 get exch 5 get cairo_store_point
      /cairo_font where { pop cairo_selectfont } if } bind def
/Tm { 2 copy 8 2 roll 6 array astore /cairo_font_matrix exch def
      cairo_store_point /cairo_font where { pop cairo_selectfont } if } bind def
/g { setgray } bind def
/rg { setrgbcolor } bind def
/d1 { setcachedevice } bind def
/cairo_data_source {
  CairoDataIndex CairoData length lt
    { CairoData CairoDataIndex get /CairoDataIndex CairoDataIndex 1 add def }
    { () } ifelse
} def
/cairo_flush_ascii85_file { cairo_ascii85_file status { cairo_ascii85_file flushfile } if } def
/cairo_image { image cairo_flush_ascii85_file } def
/cairo_imagemask { imagemask cairo_flush_ascii85_file } def
%%EndProlog
%%BeginSetup
%%EndSetup
%%Page: 1 1
%%BeginPageSetup
%%PageBoundingBox: 42 6 342 378
%%EndPageSetup
q 42 6 300 372 rectclip
1 0 0 -1 0 384 cm q
q
321 78 m 246 78 l 246 27 l 245.988 15.406 236.594 6.012 225 6 c 63 6 l 
51.406 6.012 42.012 15.406 42 27 c 42 357 l 42.012 368.594 51.406 377.988
 63 378 c 225 378 l 236.594 377.988 245.988 368.594 246 357 c 246 240 l 
321 240 l 332.594 239.988 341.988 230.594 342 219 c 342 99 l 341.988 87.406
 332.594 78.012 321 78 c h
172.312 18 m 169.312 30 l 118.688 30 l 115.688 18 l h
234 357 m 233.996 361.969 229.969 365.996 225 366 c 63 366 l 58.031 365.996
 54.004 361.969 54 357 c 54 27 l 54.004 22.031 58.031 18.004 63 18 c 103.312
 18 l 108.18 37.453 l 108.848 40.125 111.246 42 114 42 c 174 42 l 176.754
 42 179.152 40.125 179.82 37.453 c 184.688 18 l 225 18 l 229.969 18.004 
233.996 22.031 234 27 c 234 78 l 135 78 l 123.406 78.012 114.012 87.406 
114 99 c 114 219 l 114.012 230.594 123.406 239.988 135 240 c 234 240 l h
126 118.695 m 178.809 150.969 l 140.297 228 l 135 228 l 130.031 227.996
 126.004 223.969 126 219 c h
153.703 228 m 189.082 157.254 l 224.871 179.121 l 226.793 180.293 229.207
 180.293 231.129 179.121 c 266.918 157.254 l 302.297 228 l h
330 219 m 329.996 223.969 325.969 227.996 321 228 c 315.703 228 l 277.191
 150.969 l 330 118.695 l h
330 104.633 m 228 166.965 l 126 104.633 l 126 99 l 126.004 94.031 130.031
 90.004 135 90 c 321 90 l 325.969 90.004 329.996 94.031 330 99 c h
330 104.633 m W n
[0.75 0 0 0.75 0 0] concat
/CairoFunction
<< /FunctionType 3
   /Domain [ 0 1 ]
   /Functions [
   << /FunctionType 2
      /Domain [ 0 1 ]
      /C0 [ 0 0.247059 0.541176 ]
      /C1 [ 0 0.843137 0.87451 ]
      /N 1
   >>
   << /FunctionType 2
      /Domain [ 0 1 ]
      /C0 [ 0 0.843137 0.87451 ]
      /C1 [ 0 0.427451 0.941176 ]
      /N 1
   >>
   ]
   /Bounds [ 0.518 ]
   /Encode [ 1 1 2 { pop 0 1 } for ]
>>
def
   << /ShadingType 2
      /ColorSpace /DeviceRGB
      /Coords [ -35.771999 483.772003 469.585999 -21.586 ]
      /Extend [ true true ]
      /Function CairoFunction
   >>
shfill
Q
Q Q
showpage
%%Trailer
end
%%EOF
