%!PS-Adobe-3.0 EPSF-3.0
%%Creator: cairo 1.16.0 (https://cairographics.org)
%%CreationDate: Thu Dec  3 11:23:37 2020
%%Pages: 1
%%DocumentData: Clean7Bit
%%LanguageLevel: 3
%%BoundingBox: 6 60 378 318
%%EndComments
%%BeginProlog
50 dict begin
/q { gsave } bind def
/Q { grestore } bind def
/cm { 6 array astore concat } bind def
/w { setlinewidth } bind def
/J { setlinecap } bind def
/j { setlinejoin } bind def
/M { setmiterlimit } bind def
/d { setdash } bind def
/m { moveto } bind def
/l { lineto } bind def
/c { curveto } bind def
/h { closepath } bind def
/re { exch dup neg 3 1 roll 5 3 roll moveto 0 rlineto
      0 exch rlineto 0 rlineto closepath } bind def
/S { stroke } bind def
/f { fill } bind def
/f* { eofill } bind def
/n { newpath } bind def
/W { clip } bind def
/W* { eoclip } bind def
/BT { } bind def
/ET { } bind def
/BDC { mark 3 1 roll /BDC pdfmark } bind def
/EMC { mark /EMC pdfmark } bind def
/cairo_store_point { /cairo_point_y exch def /cairo_point_x exch def } def
/Tj { show currentpoint cairo_store_point } bind def
/TJ {
  {
    dup
    type /stringtype eq
    { show } { -0.001 mul 0 cairo_font_matrix dtransform rmoveto } ifelse
  } forall
  currentpoint cairo_store_point
} bind def
/cairo_selectfont { cairo_font_matrix aload pop pop pop 0 0 6 array astore
    cairo_font exch selectfont cairo_point_x cairo_point_y moveto } bind def
/Tf { pop /cairo_font exch def /cairo_font_matrix where
      { pop cairo_selectfont } if } bind def
/Td { matrix translate cairo_font_matrix matrix concatmatrix dup
      /cairo_font_matrix exch def dup 4 get exch 5 get cairo_store_point
      /cairo_font where { pop cairo_selectfont } if } bind def
/Tm { 2 copy 8 2 roll 6 array astore /cairo_font_matrix exch def
      cairo_store_point /cairo_font where { pop cairo_selectfont } if } bind def
/g { setgray } bind def
/rg { setrgbcolor } bind def
/d1 { setcachedevice } bind def
/cairo_data_source {
  CairoDataIndex CairoData length lt
    { CairoData CairoDataIndex get /CairoDataIndex CairoDataIndex 1 add def }
    { () } ifelse
} def
/cairo_flush_ascii85_file { cairo_ascii85_file status { cairo_ascii85_file flushfile } if } def
/cairo_image { image cairo_flush_ascii85_file } def
/cairo_imagemask { imagemask cairo_flush_ascii85_file } def
%%EndProlog
%%BeginSetup
%%EndSetup
%%Page: 1 1
%%BeginPageSetup
%%PageBoundingBox: 6 60 378 318
%%EndPageSetup
q 6 60 372 258 rectclip
1 0 0 -1 0 384 cm q
q
357 66 m 171 66 l 159.406 66.012 150.012 75.406 150 87 c 150 162 l 27 162
 l 15.406 162.012 6.012 171.406 6 183 c 6 303 l 6.012 314.594 15.406 323.988
 27 324 c 213 324 l 224.594 323.988 233.988 314.594 234 303 c 234 228 l 
357 228 l 368.594 227.988 377.988 218.594 378 207 c 378 87 l 377.988 75.406
 368.594 66.012 357 66 c h
162 106.695 m 214.809 138.969 l 203.297 162 l 162 162 l h
27 312 m 22.031 311.996 18.004 307.969 18 303 c 18 202.695 l 70.809 234.969
 l 32.297 312 l h
45.703 312 m 81.082 241.254 l 116.871 263.121 l 118.793 264.293 121.207
 264.293 123.129 263.121 c 158.918 241.254 l 194.297 312 l h
222 303 m 221.996 307.969 217.969 311.996 213 312 c 207.703 312 l 169.191
 234.969 l 222 202.695 l h
222 188.633 m 120 250.965 l 18 188.633 l 18 183 l 18.004 178.031 22.031
 174.004 27 174 c 213 174 l 217.969 174.004 221.996 178.031 222 183 c h
234 216 m 234 183 l 233.984 172.781 226.625 164.051 216.555 162.309 c 225.082
 145.254 l 260.871 167.121 l 262.793 168.293 265.207 168.293 267.129 167.121
 c 302.918 145.254 l 338.297 216 l h
366 207 m 365.996 211.969 361.969 215.996 357 216 c 351.703 216 l 313.191
 138.969 l 366 106.695 l h
366 92.633 m 264 154.965 l 162 92.633 l 162 87 l 162.004 82.031 166.031
 78.004 171 78 c 357 78 l 361.969 78.004 365.996 82.031 366 87 c h
366 92.633 m W n
[0.75 0 0 0.75 0 0] concat
/CairoFunction
<< /FunctionType 3
   /Domain [ 0 1 ]
   /Functions [
   << /FunctionType 2
      /Domain [ 0 1 ]
      /C0 [ 0 0.247059 0.541176 ]
      /C1 [ 0 0.843137 0.87451 ]
      /N 1
   >>
   << /FunctionType 2
      /Domain [ 0 1 ]
      /C0 [ 0 0.843137 0.87451 ]
      /C1 [ 0 0.427451 0.941176 ]
      /N 1
   >>
   ]
   /Bounds [ 0.518 ]
   /Encode [ 1 1 2 { pop 0 1 } for ]
>>
def
   << /ShadingType 2
      /ColorSpace /DeviceRGB
      /Coords [ -5.84 521.840027 493.132996 22.867001 ]
      /Extend [ true true ]
      /Function CairoFunction
   >>
shfill
Q
q
48 156 m 72 156 l 75.312 156 78 153.312 78 150 c 78 120 l 90 120 l 90 132
 l 90 134.246 91.258 136.305 93.254 137.336 c 95.254 138.363 97.656 138.188
 99.488 136.883 c 141.488 106.883 l 143.062 105.758 144 103.938 144 102 
c 144 100.062 143.062 98.242 141.488 97.117 c 99.488 67.117 l 97.656 65.812
 95.254 65.637 93.254 66.664 c 91.258 67.695 90 69.754 90 72 c 90 84 l 57
 84 l 48.719 84.008 42.008 90.719 42 99 c 42 150 l 42 153.312 44.688 156
 48 156 c h
54 99 m 54 97.344 55.344 96 57 96 c 96 96 l 99.312 96 102 93.312 102 90
 c 102 83.66 l 127.676 102 l 102 120.34 l 102 114 l 102 110.688 99.312 108
 96 108 c 72 108 l 68.688 108 66 110.688 66 114 c 66 144 l 54 144 l h
54 99 m W n
[0.75 0 0 0.75 0 0] concat
/CairoFunction
<< /FunctionType 3
   /Domain [ 0 1 ]
   /Functions [
   << /FunctionType 2
      /Domain [ 0 1 ]
      /C0 [ 0 0.247059 0.541176 ]
      /C1 [ 0 0.843137 0.87451 ]
      /N 1
   >>
   << /FunctionType 2
      /Domain [ 0 1 ]
      /C0 [ 0 0.843137 0.87451 ]
      /C1 [ 0 0.427451 0.941176 ]
      /N 1
   >>
   ]
   /Bounds [ 0.518 ]
   /Encode [ 1 1 2 { pop 0 1 } for ]
>>
def
   << /ShadingType 2
      /ColorSpace /DeviceRGB
      /Coords [ -136.078995 391.601013 362.894012 -107.373001 ]
      /Extend [ true true ]
      /Function CairoFunction
   >>
shfill
Q
q
336 234 m 312 234 l 308.688 234 306 236.688 306 240 c 306 270 l 294 270
 l 294 258 l 294 255.754 292.742 253.695 290.746 252.664 c 288.746 251.637
 286.344 251.812 284.512 253.117 c 242.512 283.117 l 240.938 284.242 240
 286.062 240 288 c 240 289.938 240.938 291.758 242.512 292.883 c 284.512
 322.883 l 286.344 324.188 288.746 324.363 290.746 323.336 c 292.742 322.305
 294 320.246 294 318 c 294 306 l 327 306 l 335.281 305.992 341.992 299.281
 342 291 c 342 240 l 342 236.688 339.312 234 336 234 c h
330 291 m 330 292.656 328.656 294 327 294 c 288 294 l 284.688 294 282 296.688
 282 300 c 282 306.34 l 256.324 288 l 282 269.66 l 282 276 l 282 279.312
 284.688 282 288 282 c 312 282 l 315.312 282 318 279.312 318 276 c 318 246
 l 330 246 l h
330 291 m W n
[0.75 0 0 0.75 0 0] concat
/CairoFunction
<< /FunctionType 3
   /Domain [ 0 1 ]
   /Functions [
   << /FunctionType 2
      /Domain [ 0 1 ]
      /C0 [ 0 0.247059 0.541176 ]
      /C1 [ 0 0.843137 0.87451 ]
      /N 1
   >>
   << /FunctionType 2
      /Domain [ 0 1 ]
      /C0 [ 0 0.843137 0.87451 ]
      /C1 [ 0 0.427451 0.941176 ]
      /N 1
   >>
   ]
   /Bounds [ 0.518 ]
   /Encode [ 1 1 2 { pop 0 1 } for ]
>>
def
   << /ShadingType 2
      /ColorSpace /DeviceRGB
      /Coords [ 124.399002 652.078979 623.372986 153.106003 ]
      /Extend [ true true ]
      /Function CairoFunction
   >>
shfill
Q
Q Q
showpage
%%Trailer
end
%%EOF
