%!PS-Adobe-3.0 EPSF-3.0
%%Creator: cairo 1.16.0 (https://cairographics.org)
%%CreationDate: Thu Dec  3 11:23:38 2020
%%Pages: 1
%%DocumentData: Clean7Bit
%%LanguageLevel: 3
%%BoundingBox: 6 6 378 378
%%EndComments
%%BeginProlog
50 dict begin
/q { gsave } bind def
/Q { grestore } bind def
/cm { 6 array astore concat } bind def
/w { setlinewidth } bind def
/J { setlinecap } bind def
/j { setlinejoin } bind def
/M { setmiterlimit } bind def
/d { setdash } bind def
/m { moveto } bind def
/l { lineto } bind def
/c { curveto } bind def
/h { closepath } bind def
/re { exch dup neg 3 1 roll 5 3 roll moveto 0 rlineto
      0 exch rlineto 0 rlineto closepath } bind def
/S { stroke } bind def
/f { fill } bind def
/f* { eofill } bind def
/n { newpath } bind def
/W { clip } bind def
/W* { eoclip } bind def
/BT { } bind def
/ET { } bind def
/BDC { mark 3 1 roll /BDC pdfmark } bind def
/EMC { mark /EMC pdfmark } bind def
/cairo_store_point { /cairo_point_y exch def /cairo_point_x exch def } def
/Tj { show currentpoint cairo_store_point } bind def
/TJ {
  {
    dup
    type /stringtype eq
    { show } { -0.001 mul 0 cairo_font_matrix dtransform rmoveto } ifelse
  } forall
  currentpoint cairo_store_point
} bind def
/cairo_selectfont { cairo_font_matrix aload pop pop pop 0 0 6 array astore
    cairo_font exch selectfont cairo_point_x cairo_point_y moveto } bind def
/Tf { pop /cairo_font exch def /cairo_font_matrix where
      { pop cairo_selectfont } if } bind def
/Td { matrix translate cairo_font_matrix matrix concatmatrix dup
      /cairo_font_matrix exch def dup 4 get exch 5 get cairo_store_point
      /cairo_font where { pop cairo_selectfont } if } bind def
/Tm { 2 copy 8 2 roll 6 array astore /cairo_font_matrix exch def
      cairo_store_point /cairo_font where { pop cairo_selectfont } if } bind def
/g { setgray } bind def
/rg { setrgbcolor } bind def
/d1 { setcachedevice } bind def
/cairo_data_source {
  CairoDataIndex CairoData length lt
    { CairoData CairoDataIndex get /CairoDataIndex CairoDataIndex 1 add def }
    { () } ifelse
} def
/cairo_flush_ascii85_file { cairo_ascii85_file status { cairo_ascii85_file flushfile } if } def
/cairo_image { image cairo_flush_ascii85_file } def
/cairo_imagemask { imagemask cairo_flush_ascii85_file } def
%%EndProlog
%%BeginSetup
%%EndSetup
%%Page: 1 1
%%BeginPageSetup
%%PageBoundingBox: 6 6 378 378
%%EndPageSetup
q 6 6 372 372 rectclip
1 0 0 -1 0 384 cm q
q
357 114 m 342 114 l 342 87 l 341.988 75.406 332.594 66.012 321 66 c 300
 66 l 300 51 l 299.988 39.406 290.594 30.012 279 30 c 264 30 l 264 21 l 
263.992 12.719 257.281 6.008 249 6 c 135 6 l 126.719 6.008 120.008 12.719
 120 21 c 120 30 l 105 30 l 93.406 30.012 84.012 39.406 84 51 c 84 66 l 
63 66 l 51.406 66.012 42.012 75.406 42 87 c 42 114 l 27 114 l 15.406 114.012
 6.012 123.406 6 135 c 6 357 l 6.012 368.594 15.406 377.988 27 378 c 357
 378 l 368.594 377.988 377.988 368.594 378 357 c 378 135 l 377.988 123.406
 368.594 114.012 357 114 c h
132 21 m 132 19.344 133.344 18 135 18 c 249 18 l 250.656 18 252 19.344 
252 21 c 252 30 l 132 30 l h
96 51 m 96.004 46.031 100.031 42.004 105 42 c 279 42 l 283.969 42.004 287.996
 46.031 288 51 c 288 66 l 96 66 l h
54 87 m 54.004 82.031 58.031 78.004 63 78 c 321 78 l 325.969 78.004 329.996
 82.031 330 87 c 330 114 l 54 114 l h
27 366 m 22.031 365.996 18.004 361.969 18 357 c 18 160.598 l 126.375 225.621
 l 32.789 366 l h
47.211 366 m 136.672 231.801 l 188.91 263.145 l 190.812 264.285 193.188
 264.285 195.09 263.145 c 247.32 231.801 l 336.09 366 l h
366 357 m 365.996 361.969 361.969 365.996 357 366 c 350.477 366 l 257.625
 225.621 l 366 160.598 l h
366 146.602 m 192 251.004 l 18 146.602 l 18 135 l 18.004 130.031 22.031
 126.004 27 126 c 357 126 l 361.969 126.004 365.996 130.031 366 135 c h
366 146.602 m W n
[0.75 0 0 0.75 0 0] concat
/CairoFunction
<< /FunctionType 3
   /Domain [ 0 1 ]
   /Functions [
   << /FunctionType 2
      /Domain [ 0 1 ]
      /C0 [ 0 0.247059 0.541176 ]
      /C1 [ 0 0.843137 0.87451 ]
      /N 1
   >>
   << /FunctionType 2
      /Domain [ 0 1 ]
      /C0 [ 0 0.843137 0.87451 ]
      /C1 [ 0 0.427451 0.941176 ]
      /N 1
   >>
   ]
   /Bounds [ 0.518 ]
   /Encode [ 1 1 2 { pop 0 1 } for ]
>>
def
   << /ShadingType 2
      /ColorSpace /DeviceRGB
      /Coords [ 43.237999 532.762024 530.630005 45.369999 ]
      /Extend [ true true ]
      /Function CairoFunction
   >>
shfill
Q
Q Q
showpage
%%Trailer
end
%%EOF
