%!PS-Adobe-3.0 EPSF-3.0
%%Creator: cairo 1.16.0 (https://cairographics.org)
%%CreationDate: Thu Dec  3 11:23:39 2020
%%Pages: 1
%%DocumentData: Clean7Bit
%%LanguageLevel: 3
%%BoundingBox: 6 18 378 366
%%EndComments
%%BeginProlog
50 dict begin
/q { gsave } bind def
/Q { grestore } bind def
/cm { 6 array astore concat } bind def
/w { setlinewidth } bind def
/J { setlinecap } bind def
/j { setlinejoin } bind def
/M { setmiterlimit } bind def
/d { setdash } bind def
/m { moveto } bind def
/l { lineto } bind def
/c { curveto } bind def
/h { closepath } bind def
/re { exch dup neg 3 1 roll 5 3 roll moveto 0 rlineto
      0 exch rlineto 0 rlineto closepath } bind def
/S { stroke } bind def
/f { fill } bind def
/f* { eofill } bind def
/n { newpath } bind def
/W { clip } bind def
/W* { eoclip } bind def
/BT { } bind def
/ET { } bind def
/BDC { mark 3 1 roll /BDC pdfmark } bind def
/EMC { mark /EMC pdfmark } bind def
/cairo_store_point { /cairo_point_y exch def /cairo_point_x exch def } def
/Tj { show currentpoint cairo_store_point } bind def
/TJ {
  {
    dup
    type /stringtype eq
    { show } { -0.001 mul 0 cairo_font_matrix dtransform rmoveto } ifelse
  } forall
  currentpoint cairo_store_point
} bind def
/cairo_selectfont { cairo_font_matrix aload pop pop pop 0 0 6 array astore
    cairo_font exch selectfont cairo_point_x cairo_point_y moveto } bind def
/Tf { pop /cairo_font exch def /cairo_font_matrix where
      { pop cairo_selectfont } if } bind def
/Td { matrix translate cairo_font_matrix matrix concatmatrix dup
      /cairo_font_matrix exch def dup 4 get exch 5 get cairo_store_point
      /cairo_font where { pop cairo_selectfont } if } bind def
/Tm { 2 copy 8 2 roll 6 array astore /cairo_font_matrix exch def
      cairo_store_point /cairo_font where { pop cairo_selectfont } if } bind def
/g { setgray } bind def
/rg { setrgbcolor } bind def
/d1 { setcachedevice } bind def
/cairo_data_source {
  CairoDataIndex CairoData length lt
    { CairoData CairoDataIndex get /CairoDataIndex CairoDataIndex 1 add def }
    { () } ifelse
} def
/cairo_flush_ascii85_file { cairo_ascii85_file status { cairo_ascii85_file flushfile } if } def
/cairo_image { image cairo_flush_ascii85_file } def
/cairo_imagemask { imagemask cairo_flush_ascii85_file } def
%%EndProlog
%%BeginSetup
%%EndSetup
%%Page: 1 1
%%BeginPageSetup
%%PageBoundingBox: 6 18 378 366
%%EndPageSetup
q 6 18 372 348 rectclip
1 0 0 -1 0 384 cm q
q
144 156 m 144 159.312 141.312 162 138 162 c 134.688 162 132 159.312 132
 156 c 132 152.688 134.688 150 138 150 c 141.312 150 144 152.688 144 156
 c h
144 156 m W n
[0.75 0 0 0.75 0 0] concat
/CairoFunction
<< /FunctionType 3
   /Domain [ 0 1 ]
   /Functions [
   << /FunctionType 2
      /Domain [ 0 1 ]
      /C0 [ 0 0.247059 0.541176 ]
      /C1 [ 0 0.843137 0.87451 ]
      /N 1
   >>
   << /FunctionType 2
      /Domain [ 0 1 ]
      /C0 [ 0 0.843137 0.87451 ]
      /C1 [ 0 0.427451 0.941176 ]
      /N 1
   >>
   ]
   /Bounds [ 0.518 ]
   /Encode [ 1 1 2 { pop 0 1 } for ]
>>
def
   << /ShadingType 2
      /ColorSpace /DeviceRGB
      /Coords [ -39.471001 431.471008 441.734985 -49.735001 ]
      /Extend [ true true ]
      /Function CairoFunction
   >>
shfill
Q
q
180 156 m 180 159.312 177.312 162 174 162 c 170.688 162 168 159.312 168
 156 c 168 152.688 170.688 150 174 150 c 177.312 150 180 152.688 180 156
 c h
180 156 m W n
[0.75 0 0 0.75 0 0] concat
/CairoFunction
<< /FunctionType 3
   /Domain [ 0 1 ]
   /Functions [
   << /FunctionType 2
      /Domain [ 0 1 ]
      /C0 [ 0 0.247059 0.541176 ]
      /C1 [ 0 0.843137 0.87451 ]
      /N 1
   >>
   << /FunctionType 2
      /Domain [ 0 1 ]
      /C0 [ 0 0.843137 0.87451 ]
      /C1 [ 0 0.427451 0.941176 ]
      /N 1
   >>
   ]
   /Bounds [ 0.518 ]
   /Encode [ 1 1 2 { pop 0 1 } for ]
>>
def
   << /ShadingType 2
      /ColorSpace /DeviceRGB
      /Coords [ -15.471 455.471008 465.734985 -25.735001 ]
      /Extend [ true true ]
      /Function CairoFunction
   >>
shfill
Q
q
246 54 m 306 54 l 309.312 54 312 51.312 312 48 c 312 44.688 309.312 42 
306 42 c 246 42 l 242.688 42 240 44.688 240 48 c 240 51.312 242.688 54 246
 54 c h
246 54 m W n
[0.75 0 0 0.75 0 0] concat
/CairoFunction
<< /FunctionType 3
   /Domain [ 0 1 ]
   /Functions [
   << /FunctionType 2
      /Domain [ 0 1 ]
      /C0 [ 0 0.247059 0.541176 ]
      /C1 [ 0 0.843137 0.87451 ]
      /N 1
   >>
   << /FunctionType 2
      /Domain [ 0 1 ]
      /C0 [ 0 0.843137 0.87451 ]
      /C1 [ 0 0.427451 0.941176 ]
      /N 1
   >>
   ]
   /Bounds [ 0.518 ]
   /Encode [ 1 1 2 { pop 0 1 } for ]
>>
def
   << /ShadingType 2
      /ColorSpace /DeviceRGB
      /Coords [ -19.471001 451.471008 461.734985 -29.735001 ]
      /Extend [ true true ]
      /Function CairoFunction
   >>
shfill
Q
q
246 72 m 306 72 l 309.312 72 312 69.312 312 66 c 312 62.688 309.312 60 
306 60 c 246 60 l 242.688 60 240 62.688 240 66 c 240 69.312 242.688 72 246
 72 c h
246 72 m W n
[0.75 0 0 0.75 0 0] concat
/CairoFunction
<< /FunctionType 3
   /Domain [ 0 1 ]
   /Functions [
   << /FunctionType 2
      /Domain [ 0 1 ]
      /C0 [ 0 0.247059 0.541176 ]
      /C1 [ 0 0.843137 0.87451 ]
      /N 1
   >>
   << /FunctionType 2
      /Domain [ 0 1 ]
      /C0 [ 0 0.843137 0.87451 ]
      /C1 [ 0 0.427451 0.941176 ]
      /N 1
   >>
   ]
   /Bounds [ 0.518 ]
   /Encode [ 1 1 2 { pop 0 1 } for ]
>>
def
   << /ShadingType 2
      /ColorSpace /DeviceRGB
      /Coords [ -7.471 463.471008 473.734985 -17.735001 ]
      /Extend [ true true ]
      /Function CairoFunction
   >>
shfill
Q
q
246 90 m 270 90 l 273.312 90 276 87.312 276 84 c 276 80.688 273.312 78 
270 78 c 246 78 l 242.688 78 240 80.688 240 84 c 240 87.312 242.688 90 246
 90 c h
246 90 m W n
[0.75 0 0 0.75 0 0] concat
/CairoFunction
<< /FunctionType 3
   /Domain [ 0 1 ]
   /Functions [
   << /FunctionType 2
      /Domain [ 0 1 ]
      /C0 [ 0 0.247059 0.541176 ]
      /C1 [ 0 0.843137 0.87451 ]
      /N 1
   >>
   << /FunctionType 2
      /Domain [ 0 1 ]
      /C0 [ 0 0.843137 0.87451 ]
      /C1 [ 0 0.427451 0.941176 ]
      /N 1
   >>
   ]
   /Bounds [ 0.518 ]
   /Encode [ 1 1 2 { pop 0 1 } for ]
>>
def
   << /ShadingType 2
      /ColorSpace /DeviceRGB
      /Coords [ -7.471 463.471008 473.734985 -17.735001 ]
      /Extend [ true true ]
      /Function CairoFunction
   >>
shfill
Q
q
294 78 m 288 78 l 284.688 78 282 80.688 282 84 c 282 87.312 284.688 90 
288 90 c 294 90 l 297.312 90 300 87.312 300 84 c 300 80.688 297.312 78 294
 78 c h
294 78 m W n
[0.75 0 0 0.75 0 0] concat
/CairoFunction
<< /FunctionType 3
   /Domain [ 0 1 ]
   /Functions [
   << /FunctionType 2
      /Domain [ 0 1 ]
      /C0 [ 0 0.247059 0.541176 ]
      /C1 [ 0 0.843137 0.87451 ]
      /N 1
   >>
   << /FunctionType 2
      /Domain [ 0 1 ]
      /C0 [ 0 0.843137 0.87451 ]
      /C1 [ 0 0.427451 0.941176 ]
      /N 1
   >>
   ]
   /Bounds [ 0.518 ]
   /Encode [ 1 1 2 { pop 0 1 } for ]
>>
def
   << /ShadingType 2
      /ColorSpace /DeviceRGB
      /Coords [ 14.529 485.471008 495.734985 4.265 ]
      /Extend [ true true ]
      /Function CairoFunction
   >>
shfill
Q
q
372 48 m 341.879 48 l 341.863 38.977 l 341.84 27.395 332.449 18.012 320.863
 18 c 231 18 l 219.406 18.012 210.012 27.406 210 39 c 210 48 l 12 48 l 8.688
 48 6 50.688 6 54 c 6 318 l 6 321.312 8.688 324 12 324 c 132 324 l 132 336
 l 108 336 l 104.688 336 102 338.688 102 342 c 102 360 l 102 363.312 104.688
 366 108 366 c 276 366 l 279.312 366 282 363.312 282 360 c 282 342 l 282
 338.688 279.312 336 276 336 c 252 336 l 252 324 l 372 324 l 375.312 324
 378 321.312 378 318 c 378 54 l 378 50.688 375.312 48 372 48 c h
222 39 m 222.004 34.031 226.031 30.004 231 30 c 320.863 30 l 325.828 30.008
 329.852 34.027 329.863 38.992 c 329.984 104.992 l 329.988 107.379 329.039
 109.672 327.352 111.359 c 325.664 113.051 323.375 114 320.984 114 c 288
 114 l 286.41 114 284.883 114.629 283.754 115.754 c 258 141.516 l 258 120
 l 258 116.688 255.312 114 252 114 c 231 114 l 226.031 113.996 222.004 109.969
 222 105 c h
270 348 m 270 354 l 114 354 l 114 348 l h
144 336 m 144 324 l 240 324 l 240 336 l h
366 312 m 18 312 l 18 300 l 366 300 l h
126 142.988 m 135.375 141.09 154.875 136.441 166.914 128.504 c 171.047 
133.477 177.988 140.484 186 143.023 c 186 174 l 185.984 187.246 175.246 
197.984 162 198 c 150 198 l 136.754 197.984 126.016 187.246 126 174 c h
120 131.91 m 120 126 l 120 106.117 136.117 90 156 90 c 175.883 90 192 106.117
 192 126 c 192 132 l 185.398 132 176.34 121.664 172.996 116.672 c 171.996
 115.176 170.379 114.207 168.59 114.031 c 166.801 113.852 165.027 114.484
 163.754 115.754 c 155.332 124.184 130.223 130.094 120 131.91 c h
144 213.996 m 144 209.488 l 145.98 209.828 147.988 210 150 210 c 162 210
 l 164.012 210 166.02 209.828 168 209.488 c 168 213.996 l 156 230.004 l 
h
147.398 238.523 m 140.324 243.238 l 133.297 229.184 l 137.348 225.137 l
 h
174.652 225.137 m 178.703 229.184 l 171.676 243.238 l 164.602 238.523 l
 h
136.461 257.797 m 136.965 257.934 137.48 258 138 258 c 139.184 258 140.344
 257.648 141.328 256.996 c 156 247.207 l 170.672 256.996 l 171.656 257.648
 172.816 258 174 258 c 174.52 258 175.035 257.934 175.539 257.797 c 177.203
 257.355 178.598 256.223 179.371 254.684 c 190.926 231.562 l 206.137 238.305
 215.957 253.363 216 270 c 216 288 l 96 288 l 96 270 l 96.043 253.363 105.863
 238.305 121.074 231.562 c 132.629 254.684 l 133.402 256.223 134.797 257.355
 136.461 257.797 c h
366 288 m 228 288 l 228 270 l 227.938 243.785 209.105 221.379 183.293 216.809
 c 180 213.516 l 180 205.156 l 187.414 200.859 193.062 194.07 195.938 186
 c 201 186 l 209.281 185.992 215.992 179.281 216 171 c 216 159 l 215.992
 151.875 210.98 145.734 204 144.301 c 204 126 l 204 99.492 182.508 78 156
 78 c 129.492 78 108 99.492 108 126 c 108 144.301 l 101.02 145.734 96.008
 151.875 96 159 c 96 171 l 96.008 179.281 102.719 185.992 111 186 c 116.062
 186 l 118.938 194.07 124.586 200.859 132 205.156 c 132 213.516 l 128.707
 216.809 l 102.895 221.379 84.062 243.785 84 270 c 84 288 l 18 288 l 18 
60 l 210 60 l 210 105 l 210.012 116.594 219.406 125.988 231 126 c 246 126
 l 246 156 l 246 158.43 247.461 160.617 249.703 161.547 c 251.945 162.477
 254.527 161.965 256.246 160.246 c 290.484 126 l 320.984 126 l 326.559 126
 331.906 123.785 335.844 119.84 c 339.785 115.895 341.992 110.543 341.984
 104.969 c 341.902 60 l 366 60 l h
198 174 m 198 156 l 201 156 l 202.656 156 204 157.344 204 159 c 204 171
 l 204 172.656 202.656 174 201 174 c h
114 156 m 114 174 l 111 174 l 109.344 174 108 172.656 108 171 c 108 159
 l 108 157.344 109.344 156 111 156 c h
114 156 m W n
[0.75 0 0 0.75 0 0] concat
/CairoFunction
<< /FunctionType 3
   /Domain [ 0 1 ]
   /Functions [
   << /FunctionType 2
      /Domain [ 0 1 ]
      /C0 [ 0 0.247059 0.541176 ]
      /C1 [ 0 0.843137 0.87451 ]
      /N 1
   >>
   << /FunctionType 2
      /Domain [ 0 1 ]
      /C0 [ 0 0.843137 0.87451 ]
      /C1 [ 0 0.427451 0.941176 ]
      /N 1
   >>
   ]
   /Bounds [ 0.518 ]
   /Encode [ 1 1 2 { pop 0 1 } for ]
>>
def
   << /ShadingType 2
      /ColorSpace /DeviceRGB
      /Coords [ 16.528999 487.471008 497.734985 6.265 ]
      /Extend [ true true ]
      /Function CairoFunction
   >>
shfill
Q
Q Q
showpage
%%Trailer
end
%%EOF
