%!PS-Adobe-3.0 EPSF-3.0
%%Creator: cairo 1.16.0 (https://cairographics.org)
%%CreationDate: Thu Dec  3 11:23:40 2020
%%Pages: 1
%%DocumentData: Clean7Bit
%%LanguageLevel: 3
%%BoundingBox: 30 6 361 378
%%EndComments
%%BeginProlog
50 dict begin
/q { gsave } bind def
/Q { grestore } bind def
/cm { 6 array astore concat } bind def
/w { setlinewidth } bind def
/J { setlinecap } bind def
/j { setlinejoin } bind def
/M { setmiterlimit } bind def
/d { setdash } bind def
/m { moveto } bind def
/l { lineto } bind def
/c { curveto } bind def
/h { closepath } bind def
/re { exch dup neg 3 1 roll 5 3 roll moveto 0 rlineto
      0 exch rlineto 0 rlineto closepath } bind def
/S { stroke } bind def
/f { fill } bind def
/f* { eofill } bind def
/n { newpath } bind def
/W { clip } bind def
/W* { eoclip } bind def
/BT { } bind def
/ET { } bind def
/BDC { mark 3 1 roll /BDC pdfmark } bind def
/EMC { mark /EMC pdfmark } bind def
/cairo_store_point { /cairo_point_y exch def /cairo_point_x exch def } def
/Tj { show currentpoint cairo_store_point } bind def
/TJ {
  {
    dup
    type /stringtype eq
    { show } { -0.001 mul 0 cairo_font_matrix dtransform rmoveto } ifelse
  } forall
  currentpoint cairo_store_point
} bind def
/cairo_selectfont { cairo_font_matrix aload pop pop pop 0 0 6 array astore
    cairo_font exch selectfont cairo_point_x cairo_point_y moveto } bind def
/Tf { pop /cairo_font exch def /cairo_font_matrix where
      { pop cairo_selectfont } if } bind def
/Td { matrix translate cairo_font_matrix matrix concatmatrix dup
      /cairo_font_matrix exch def dup 4 get exch 5 get cairo_store_point
      /cairo_font where { pop cairo_selectfont } if } bind def
/Tm { 2 copy 8 2 roll 6 array astore /cairo_font_matrix exch def
      cairo_store_point /cairo_font where { pop cairo_selectfont } if } bind def
/g { setgray } bind def
/rg { setrgbcolor } bind def
/d1 { setcachedevice } bind def
/cairo_data_source {
  CairoDataIndex CairoData length lt
    { CairoData CairoDataIndex get /CairoDataIndex CairoDataIndex 1 add def }
    { () } ifelse
} def
/cairo_flush_ascii85_file { cairo_ascii85_file status { cairo_ascii85_file flushfile } if } def
/cairo_image { image cairo_flush_ascii85_file } def
/cairo_imagemask { imagemask cairo_flush_ascii85_file } def
%%EndProlog
%%BeginSetup
%%EndSetup
%%Page: 1 1
%%BeginPageSetup
%%PageBoundingBox: 30 6 361 378
%%EndPageSetup
q 30 6 331 372 rectclip
1 0 0 -1 0 384 cm q
q
162 114 m 222 114 l 225.312 114 228 111.312 228 108 c 228 104.688 225.312
 102 222 102 c 162 102 l 158.688 102 156 104.688 156 108 c 156 111.312 158.688
 114 162 114 c h
162 114 m W n
[0.75 0 0 0.75 0 0] concat
/CairoFunction
<< /FunctionType 3
   /Domain [ 0 1 ]
   /Functions [
   << /FunctionType 2
      /Domain [ 0 1 ]
      /C0 [ 0 0.247059 0.541176 ]
      /C1 [ 0 0.843137 0.87451 ]
      /N 1
   >>
   << /FunctionType 2
      /Domain [ 0 1 ]
      /C0 [ 0 0.843137 0.87451 ]
      /C1 [ 0 0.427451 0.941176 ]
      /N 1
   >>
   ]
   /Bounds [ 0.518 ]
   /Encode [ 1 1 2 { pop 0 1 } for ]
>>
def
   << /ShadingType 2
      /ColorSpace /DeviceRGB
      /Coords [ -59.771999 459.772003 461.424011 -61.424 ]
      /Extend [ true true ]
      /Function CairoFunction
   >>
shfill
Q
q
162 138 m 240 138 l 243.312 138 246 135.312 246 132 c 246 128.688 243.312
 126 240 126 c 162 126 l 158.688 126 156 128.688 156 132 c 156 135.312 158.688
 138 162 138 c h
162 138 m W n
[0.75 0 0 0.75 0 0] concat
/CairoFunction
<< /FunctionType 3
   /Domain [ 0 1 ]
   /Functions [
   << /FunctionType 2
      /Domain [ 0 1 ]
      /C0 [ 0 0.247059 0.541176 ]
      /C1 [ 0 0.843137 0.87451 ]
      /N 1
   >>
   << /FunctionType 2
      /Domain [ 0 1 ]
      /C0 [ 0 0.843137 0.87451 ]
      /C1 [ 0 0.427451 0.941176 ]
      /N 1
   >>
   ]
   /Bounds [ 0.518 ]
   /Encode [ 1 1 2 { pop 0 1 } for ]
>>
def
   << /ShadingType 2
      /ColorSpace /DeviceRGB
      /Coords [ -37.771999 481.772003 483.424011 -39.424 ]
      /Extend [ true true ]
      /Function CairoFunction
   >>
shfill
Q
q
288 150 m 162 150 l 158.688 150 156 152.688 156 156 c 156 159.312 158.688
 162 162 162 c 288 162 l 291.312 162 294 159.312 294 156 c 294 152.688 291.312
 150 288 150 c h
288 150 m W n
[0.75 0 0 0.75 0 0] concat
/CairoFunction
<< /FunctionType 3
   /Domain [ 0 1 ]
   /Functions [
   << /FunctionType 2
      /Domain [ 0 1 ]
      /C0 [ 0 0.247059 0.541176 ]
      /C1 [ 0 0.843137 0.87451 ]
      /N 1
   >>
   << /FunctionType 2
      /Domain [ 0 1 ]
      /C0 [ 0 0.843137 0.87451 ]
      /C1 [ 0 0.427451 0.941176 ]
      /N 1
   >>
   ]
   /Bounds [ 0.518 ]
   /Encode [ 1 1 2 { pop 0 1 } for ]
>>
def
   << /ShadingType 2
      /ColorSpace /DeviceRGB
      /Coords [ -5.772 513.771973 515.424011 -7.424 ]
      /Extend [ true true ]
      /Function CairoFunction
   >>
shfill
Q
q
288 174 m 162 174 l 158.688 174 156 176.688 156 180 c 156 183.312 158.688
 186 162 186 c 288 186 l 291.312 186 294 183.312 294 180 c 294 176.688 291.312
 174 288 174 c h
288 174 m W n
[0.75 0 0 0.75 0 0] concat
/CairoFunction
<< /FunctionType 3
   /Domain [ 0 1 ]
   /Functions [
   << /FunctionType 2
      /Domain [ 0 1 ]
      /C0 [ 0 0.247059 0.541176 ]
      /C1 [ 0 0.843137 0.87451 ]
      /N 1
   >>
   << /FunctionType 2
      /Domain [ 0 1 ]
      /C0 [ 0 0.843137 0.87451 ]
      /C1 [ 0 0.427451 0.941176 ]
      /N 1
   >>
   ]
   /Bounds [ 0.518 ]
   /Encode [ 1 1 2 { pop 0 1 } for ]
>>
def
   << /ShadingType 2
      /ColorSpace /DeviceRGB
      /Coords [ 10.228 529.771973 531.424011 8.576 ]
      /Extend [ true true ]
      /Function CairoFunction
   >>
shfill
Q
q
288 198 m 162 198 l 158.688 198 156 200.688 156 204 c 156 207.312 158.688
 210 162 210 c 288 210 l 291.312 210 294 207.312 294 204 c 294 200.688 291.312
 198 288 198 c h
288 198 m W n
[0.75 0 0 0.75 0 0] concat
/CairoFunction
<< /FunctionType 3
   /Domain [ 0 1 ]
   /Functions [
   << /FunctionType 2
      /Domain [ 0 1 ]
      /C0 [ 0 0.247059 0.541176 ]
      /C1 [ 0 0.843137 0.87451 ]
      /N 1
   >>
   << /FunctionType 2
      /Domain [ 0 1 ]
      /C0 [ 0 0.843137 0.87451 ]
      /C1 [ 0 0.427451 0.941176 ]
      /N 1
   >>
   ]
   /Bounds [ 0.518 ]
   /Encode [ 1 1 2 { pop 0 1 } for ]
>>
def
   << /ShadingType 2
      /ColorSpace /DeviceRGB
      /Coords [ 26.228001 545.771973 547.424011 24.576 ]
      /Extend [ true true ]
      /Function CairoFunction
   >>
shfill
Q
q
300 24 m 269.203 24.039 243.418 47.359 240.301 78 c 234 78 l 234 27 l 233.988
 15.406 224.594 6.012 213 6 c 51 6 l 39.406 6.012 30.012 15.406 30 27 c 
30 357 l 30.012 368.594 39.406 377.988 51 378 c 213 378 l 224.594 377.988
 233.988 368.594 234 357 c 234 234 l 312 234 l 315.312 234 318 231.312 318
 228 c 318 141.238 l 346.262 132.359 363.812 104.176 359.316 74.895 c 354.82
 45.613 329.625 23.996 300 24 c h
160.312 18 m 157.312 30 l 106.688 30 l 103.688 18 l h
222 357 m 221.996 361.969 217.969 365.996 213 366 c 51 366 l 46.031 365.996
 42.004 361.969 42 357 c 42 27 l 42.004 22.031 46.031 18.004 51 18 c 91.312
 18 l 96.18 37.453 l 96.848 40.125 99.246 42 102 42 c 162 42 l 164.754 42
 167.152 40.125 167.82 37.453 c 172.688 18 l 213 18 l 217.969 18.004 221.996
 22.031 222 27 c 222 78 l 132 78 l 128.688 78 126 80.688 126 84 c 126 228
 l 126 231.312 128.688 234 132 234 c 162 234 l 162 264 l 162 266.43 163.461
 268.617 165.703 269.547 c 167.945 270.477 170.527 269.965 172.246 268.246
 c 206.484 234 l 222 234 l h
306 222 m 204 222 l 202.41 222 200.883 222.629 199.754 223.754 c 174 249.516
 l 174 228 l 174 224.688 171.312 222 168 222 c 138 222 l 138 90 l 240.301
 90 l 243.418 120.641 269.203 143.961 300 144 c 302.023 144 304.027 143.895
 306 143.699 c h
300 132 m 280.586 132 263.082 120.305 255.652 102.367 c 248.223 84.434 
252.332 63.785 266.059 50.059 c 279.785 36.332 300.434 32.223 318.367 39.652
 c 336.305 47.082 348 64.586 348 84 c 347.969 110.496 326.496 131.969 300
 132 c h
300 132 m W n
[0.75 0 0 0.75 0 0] concat
/CairoFunction
<< /FunctionType 3
   /Domain [ 0 1 ]
   /Functions [
   << /FunctionType 2
      /Domain [ 0 1 ]
      /C0 [ 0 0.247059 0.541176 ]
      /C1 [ 0 0.843137 0.87451 ]
      /N 1
   >>
   << /FunctionType 2
      /Domain [ 0 1 ]
      /C0 [ 0 0.843137 0.87451 ]
      /C1 [ 0 0.427451 0.941176 ]
      /N 1
   >>
   ]
   /Bounds [ 0.518 ]
   /Encode [ 1 1 2 { pop 0 1 } for ]
>>
def
   << /ShadingType 2
      /ColorSpace /DeviceRGB
      /Coords [ -43.771999 475.772003 477.424011 -45.424 ]
      /Extend [ true true ]
      /Function CairoFunction
   >>
shfill
Q
q
329.691 100.102 m 324 83.023 l 324 72 l 324 58.746 313.254 48 300 48 c 
286.746 48 276 58.746 276 72 c 276 83.023 l 270.309 100.102 l 269.699 101.934
 270.004 103.945 271.133 105.508 c 272.262 107.074 274.07 108 276 108 c 
282 108 l 282 117.941 290.059 126 300 126 c 309.941 126 318 117.941 318 
108 c 324 108 l 325.93 108 327.738 107.074 328.867 105.508 c 329.996 103.945
 330.301 101.934 329.691 100.102 c h
300 114 m 296.688 113.996 294.004 111.312 294 108 c 306 108 l 305.996 111.312
 303.312 113.996 300 114 c h
284.324 96 m 287.691 85.898 l 287.895 85.285 288 84.645 288 84 c 288 72
 l 288 65.371 293.371 60 300 60 c 306.629 60 312 65.371 312 72 c 312 84 
l 312 84.645 312.105 85.285 312.309 85.898 c 315.676 96 l h
284.324 96 m W n
[0.75 0 0 0.75 0 0] concat
/CairoFunction
<< /FunctionType 3
   /Domain [ 0 1 ]
   /Functions [
   << /FunctionType 2
      /Domain [ 0 1 ]
      /C0 [ 0 0.247059 0.541176 ]
      /C1 [ 0 0.843137 0.87451 ]
      /N 1
   >>
   << /FunctionType 2
      /Domain [ 0 1 ]
      /C0 [ 0 0.843137 0.87451 ]
      /C1 [ 0 0.427451 0.941176 ]
      /N 1
   >>
   ]
   /Bounds [ 0.518 ]
   /Encode [ 1 1 2 { pop 0 1 } for ]
>>
def
   << /ShadingType 2
      /ColorSpace /DeviceRGB
      /Coords [ -2.252 517.29303 518.94397 -3.904 ]
      /Extend [ true true ]
      /Function CairoFunction
   >>
shfill
Q
Q Q
showpage
%%Trailer
end
%%EOF
