%!PS-Adobe-3.0 EPSF-3.0
%%Creator: cairo 1.16.0 (https://cairographics.org)
%%CreationDate: Thu Dec  3 11:23:41 2020
%%Pages: 1
%%DocumentData: Clean7Bit
%%LanguageLevel: 3
%%BoundingBox: 54 6 330 378
%%EndComments
%%BeginProlog
50 dict begin
/q { gsave } bind def
/Q { grestore } bind def
/cm { 6 array astore concat } bind def
/w { setlinewidth } bind def
/J { setlinecap } bind def
/j { setlinejoin } bind def
/M { setmiterlimit } bind def
/d { setdash } bind def
/m { moveto } bind def
/l { lineto } bind def
/c { curveto } bind def
/h { closepath } bind def
/re { exch dup neg 3 1 roll 5 3 roll moveto 0 rlineto
      0 exch rlineto 0 rlineto closepath } bind def
/S { stroke } bind def
/f { fill } bind def
/f* { eofill } bind def
/n { newpath } bind def
/W { clip } bind def
/W* { eoclip } bind def
/BT { } bind def
/ET { } bind def
/BDC { mark 3 1 roll /BDC pdfmark } bind def
/EMC { mark /EMC pdfmark } bind def
/cairo_store_point { /cairo_point_y exch def /cairo_point_x exch def } def
/Tj { show currentpoint cairo_store_point } bind def
/TJ {
  {
    dup
    type /stringtype eq
    { show } { -0.001 mul 0 cairo_font_matrix dtransform rmoveto } ifelse
  } forall
  currentpoint cairo_store_point
} bind def
/cairo_selectfont { cairo_font_matrix aload pop pop pop 0 0 6 array astore
    cairo_font exch selectfont cairo_point_x cairo_point_y moveto } bind def
/Tf { pop /cairo_font exch def /cairo_font_matrix where
      { pop cairo_selectfont } if } bind def
/Td { matrix translate cairo_font_matrix matrix concatmatrix dup
      /cairo_font_matrix exch def dup 4 get exch 5 get cairo_store_point
      /cairo_font where { pop cairo_selectfont } if } bind def
/Tm { 2 copy 8 2 roll 6 array astore /cairo_font_matrix exch def
      cairo_store_point /cairo_font where { pop cairo_selectfont } if } bind def
/g { setgray } bind def
/rg { setrgbcolor } bind def
/d1 { setcachedevice } bind def
/cairo_data_source {
  CairoDataIndex CairoData length lt
    { CairoData CairoDataIndex get /CairoDataIndex CairoDataIndex 1 add def }
    { () } ifelse
} def
/cairo_flush_ascii85_file { cairo_ascii85_file status { cairo_ascii85_file flushfile } if } def
/cairo_image { image cairo_flush_ascii85_file } def
/cairo_imagemask { imagemask cairo_flush_ascii85_file } def
%%EndProlog
%%BeginSetup
%%EndSetup
%%Page: 1 1
%%BeginPageSetup
%%PageBoundingBox: 54 6 330 378
%%EndPageSetup
q 54 6 276 372 rectclip
1 0 0 -1 0 384 cm q
q
258 60.227 m 258 27 l 257.988 15.406 248.594 6.012 237 6 c 75 6 l 63.406
 6.012 54.012 15.406 54 27 c 54 357 l 54.012 368.594 63.406 377.988 75 378
 c 237 378 l 248.594 377.988 257.988 368.594 258 357 c 258 215.773 l 298.629
 212.637 330 178.75 330 138 c 330 97.25 298.629 63.363 258 60.227 c h
184.312 18 m 181.312 30 l 130.688 30 l 127.688 18 l h
246 357 m 245.996 361.969 241.969 365.996 237 366 c 75 366 l 70.031 365.996
 66.004 361.969 66 357 c 66 27 l 66.004 22.031 70.031 18.004 75 18 c 115.312
 18 l 120.18 37.453 l 120.848 40.125 123.246 42 126 42 c 186 42 l 188.754
 42 191.152 40.125 191.82 37.453 c 196.688 18 l 237 18 l 241.969 18.004 
245.996 22.031 246 27 c 246 60.227 l 205.371 63.363 174 97.25 174 138 c 
174 178.75 205.371 212.637 246 215.773 c h
252 204 m 225.305 204 201.238 187.918 191.023 163.258 c 180.809 138.594
 186.457 110.207 205.332 91.332 c 224.207 72.457 252.594 66.809 277.258 
77.023 c 301.918 87.238 318 111.305 318 138 c 317.957 174.434 288.434 203.957
 252 204 c h
252 204 m W n
[0.75 0 0 0.75 0 0] concat
/CairoFunction
<< /FunctionType 3
   /Domain [ 0 1 ]
   /Functions [
   << /FunctionType 2
      /Domain [ 0 1 ]
      /C0 [ 0 0.247059 0.541176 ]
      /C1 [ 0 0.843137 0.87451 ]
      /N 1
   >>
   << /FunctionType 2
      /Domain [ 0 1 ]
      /C0 [ 0 0.843137 0.87451 ]
      /C1 [ 0 0.427451 0.941176 ]
      /N 1
   >>
   ]
   /Bounds [ 0.518 ]
   /Encode [ 1 1 2 { pop 0 1 } for ]
>>
def
   << /ShadingType 2
      /ColorSpace /DeviceRGB
      /Coords [ -1.445 465.445007 482.484009 -18.483999 ]
      /Extend [ true true ]
      /Function CairoFunction
   >>
shfill
Q
q
301.926 155.953 m 284.953 138.984 l 282.613 136.641 278.816 136.641 276.473
 138.984 c 270.105 145.352 l 268.934 146.52 267.039 146.52 265.867 145.352
 c 244.648 124.133 l 244.32 123.805 244.07 123.406 243.922 122.961 c 243.824
 122.656 243.773 122.34 243.773 122.016 c 243.77 121.223 244.086 120.457
 244.648 119.895 c 251.016 113.527 l 253.359 111.184 253.359 107.387 251.016
 105.047 c 234.047 88.074 l 231.703 85.73 227.906 85.73 225.562 88.074 c
 206.469 107.168 l 202.527 111.105 200.316 116.449 200.316 122.016 c 200.316
 127.586 202.527 132.93 206.469 136.867 c 253.133 183.531 l 261.34 191.723
 274.625 191.723 282.832 183.531 c 301.926 164.438 l 304.27 162.094 304.27
 158.297 301.926 155.953 c h
274.352 175.051 m 270.832 178.559 265.141 178.559 261.621 175.051 c 214.949
 128.379 l 211.441 124.859 211.441 119.168 214.949 115.648 c 229.801 100.801
 l 238.289 109.289 l 236.168 111.406 l 233.352 114.219 231.773 118.035 231.773
 122.016 c 231.773 125.992 233.352 129.809 236.168 132.621 c 257.379 153.832
 l 263.242 159.684 272.73 159.684 278.594 153.832 c 280.711 151.711 l 289.199
 160.199 l h
274.352 175.051 m W n
[0.75 0 0 0.75 0 0] concat
/CairoFunction
<< /FunctionType 3
   /Domain [ 0 1 ]
   /Functions [
   << /FunctionType 2
      /Domain [ 0 1 ]
      /C0 [ 0 0.247059 0.541176 ]
      /C1 [ 0 0.843137 0.87451 ]
      /N 1
   >>
   << /FunctionType 2
      /Domain [ 0 1 ]
      /C0 [ 0 0.843137 0.87451 ]
      /C1 [ 0 0.427451 0.941176 ]
      /N 1
   >>
   ]
   /Bounds [ 0.518 ]
   /Encode [ 1 1 2 { pop 0 1 } for ]
>>
def
   << /ShadingType 2
      /ColorSpace /DeviceRGB
      /Coords [ 26.555 493.445007 510.484009 9.516 ]
      /Extend [ true true ]
      /Function CairoFunction
   >>
shfill
Q
q
185.691 286.102 m 180 269.023 l 180 258 l 180 244.746 169.254 234 156 234
 c 142.746 234 132 244.746 132 258 c 132 269.023 l 126.309 286.102 l 125.699
 287.934 126.004 289.945 127.133 291.508 c 128.262 293.074 130.07 294 132
 294 c 138 294 l 138 303.941 146.059 312 156 312 c 165.941 312 174 303.941
 174 294 c 180 294 l 181.93 294 183.738 293.074 184.867 291.508 c 185.996
 289.945 186.301 287.934 185.691 286.102 c h
156 300 m 152.688 299.996 150.004 297.312 150 294 c 162 294 l 161.996 297.312
 159.312 299.996 156 300 c h
140.324 282 m 143.691 271.898 l 143.895 271.285 144 270.645 144 270 c 144
 258 l 144 251.371 149.371 246 156 246 c 162.629 246 168 251.371 168 258
 c 168 270 l 168 270.645 168.105 271.285 168.309 271.898 c 171.676 282 l
 h
140.324 282 m W n
[0.75 0 0 0.75 0 0] concat
/CairoFunction
<< /FunctionType 3
   /Domain [ 0 1 ]
   /Functions [
   << /FunctionType 2
      /Domain [ 0 1 ]
      /C0 [ 0 0.247059 0.541176 ]
      /C1 [ 0 0.843137 0.87451 ]
      /N 1
   >>
   << /FunctionType 2
      /Domain [ 0 1 ]
      /C0 [ 0 0.843137 0.87451 ]
      /C1 [ 0 0.427451 0.941176 ]
      /N 1
   >>
   ]
   /Bounds [ 0.518 ]
   /Encode [ 1 1 2 { pop 0 1 } for ]
>>
def
   << /ShadingType 2
      /ColorSpace /DeviceRGB
      /Coords [ 52.076 518.965027 536.005005 35.035999 ]
      /Extend [ true true ]
      /Function CairoFunction
   >>
shfill
Q
q
204.301 245.836 m 202.801 242.902 199.211 241.727 196.266 243.207 c 193.32
 244.684 192.121 248.262 193.574 251.219 c 199.477 263.043 199.477 276.957
 193.574 288.781 c 192.848 290.207 192.719 291.859 193.215 293.379 c 193.711
 294.902 194.797 296.16 196.227 296.875 c 197.656 297.594 199.312 297.711
 200.828 297.199 c 202.344 296.691 203.594 295.598 204.301 294.164 c 211.898
 278.949 211.898 261.051 204.301 245.836 c h
204.301 245.836 m W n
[0.75 0 0 0.75 0 0] concat
/CairoFunction
<< /FunctionType 3
   /Domain [ 0 1 ]
   /Functions [
   << /FunctionType 2
      /Domain [ 0 1 ]
      /C0 [ 0 0.247059 0.541176 ]
      /C1 [ 0 0.843137 0.87451 ]
      /N 1
   >>
   << /FunctionType 2
      /Domain [ 0 1 ]
      /C0 [ 0 0.843137 0.87451 ]
      /C1 [ 0 0.427451 0.941176 ]
      /N 1
   >>
   ]
   /Bounds [ 0.518 ]
   /Encode [ 1 1 2 { pop 0 1 } for ]
>>
def
   << /ShadingType 2
      /ColorSpace /DeviceRGB
      /Coords [ 79.18 546.070007 563.109009 62.140999 ]
      /Extend [ true true ]
      /Function CairoFunction
   >>
shfill
Q
q
115.754 243.164 m 112.793 241.68 109.188 242.875 107.699 245.836 c 100.102
 261.051 100.102 278.949 107.699 294.164 c 108.406 295.598 109.656 296.691
 111.172 297.199 c 112.688 297.711 114.344 297.594 115.773 296.875 c 117.203
 296.16 118.289 294.902 118.785 293.379 c 119.281 291.859 119.152 290.207
 118.426 288.781 c 112.523 276.957 112.523 263.043 118.426 251.219 c 119.91
 248.258 118.715 244.652 115.754 243.164 c h
115.754 243.164 m W n
[0.75 0 0 0.75 0 0] concat
/CairoFunction
<< /FunctionType 3
   /Domain [ 0 1 ]
   /Functions [
   << /FunctionType 2
      /Domain [ 0 1 ]
      /C0 [ 0 0.247059 0.541176 ]
      /C1 [ 0 0.843137 0.87451 ]
      /N 1
   >>
   << /FunctionType 2
      /Domain [ 0 1 ]
      /C0 [ 0 0.843137 0.87451 ]
      /C1 [ 0 0.427451 0.941176 ]
      /N 1
   >>
   ]
   /Bounds [ 0.518 ]
   /Encode [ 1 1 2 { pop 0 1 } for ]
>>
def
   << /ShadingType 2
      /ColorSpace /DeviceRGB
      /Coords [ 21.93 488.820007 505.859009 4.891 ]
      /Extend [ true true ]
      /Function CairoFunction
   >>
shfill
Q
q
212.348 235.117 m 209.387 236.602 208.191 240.211 209.676 243.172 c 218.109
 260.062 218.109 279.938 209.676 296.828 c 208.941 298.254 208.809 299.914
 209.305 301.438 c 209.801 302.961 210.887 304.223 212.32 304.941 c 213.75
 305.66 215.414 305.773 216.93 305.262 c 218.449 304.75 219.699 303.648 
220.402 302.211 c 230.531 281.93 230.531 258.07 220.402 237.789 c 218.914
 234.828 215.312 233.633 212.348 235.117 c h
212.348 235.117 m W n
[0.75 0 0 0.75 0 0] concat
/CairoFunction
<< /FunctionType 3
   /Domain [ 0 1 ]
   /Functions [
   << /FunctionType 2
      /Domain [ 0 1 ]
      /C0 [ 0 0.247059 0.541176 ]
      /C1 [ 0 0.843137 0.87451 ]
      /N 1
   >>
   << /FunctionType 2
      /Domain [ 0 1 ]
      /C0 [ 0 0.843137 0.87451 ]
      /C1 [ 0 0.427451 0.941176 ]
      /N 1
   >>
   ]
   /Bounds [ 0.518 ]
   /Encode [ 1 1 2 { pop 0 1 } for ]
>>
def
   << /ShadingType 2
      /ColorSpace /DeviceRGB
      /Coords [ 89.915001 556.804016 573.843994 72.875 ]
      /Extend [ true true ]
      /Function CairoFunction
   >>
shfill
Q
q
96 270 m 95.973 260.684 98.137 251.492 102.324 243.172 c 103.059 241.746
 103.191 240.086 102.695 238.562 c 102.199 237.039 101.113 235.777 99.68
 235.059 c 98.25 234.34 96.586 234.227 95.07 234.738 c 93.551 235.25 92.301
 236.352 91.598 237.789 c 81.469 258.07 81.469 281.93 91.598 302.211 c 93.105
 305.133 96.684 306.301 99.621 304.824 c 102.562 303.352 103.766 299.785
 102.324 296.828 c 98.137 288.508 95.973 279.316 96 270 c h
96 270 m W n
[0.75 0 0 0.75 0 0] concat
/CairoFunction
<< /FunctionType 3
   /Domain [ 0 1 ]
   /Functions [
   << /FunctionType 2
      /Domain [ 0 1 ]
      /C0 [ 0 0.247059 0.541176 ]
      /C1 [ 0 0.843137 0.87451 ]
      /N 1
   >>
   << /FunctionType 2
      /Domain [ 0 1 ]
      /C0 [ 0 0.843137 0.87451 ]
      /C1 [ 0 0.427451 0.941176 ]
      /N 1
   >>
   ]
   /Bounds [ 0.518 ]
   /Encode [ 1 1 2 { pop 0 1 } for ]
>>
def
   << /ShadingType 2
      /ColorSpace /DeviceRGB
      /Coords [ 11.196 478.084991 495.125 -5.844 ]
      /Extend [ true true ]
      /Function CairoFunction
   >>
shfill
Q
Q Q
showpage
%%Trailer
end
%%EOF
