%!PS-Adobe-3.0 EPSF-3.0
%%Creator: cairo 1.16.0 (https://cairographics.org)
%%CreationDate: Thu Dec  3 11:23:43 2020
%%Pages: 1
%%DocumentData: Clean7Bit
%%LanguageLevel: 3
%%BoundingBox: 6 6 378 379
%%EndComments
%%BeginProlog
50 dict begin
/q { gsave } bind def
/Q { grestore } bind def
/cm { 6 array astore concat } bind def
/w { setlinewidth } bind def
/J { setlinecap } bind def
/j { setlinejoin } bind def
/M { setmiterlimit } bind def
/d { setdash } bind def
/m { moveto } bind def
/l { lineto } bind def
/c { curveto } bind def
/h { closepath } bind def
/re { exch dup neg 3 1 roll 5 3 roll moveto 0 rlineto
      0 exch rlineto 0 rlineto closepath } bind def
/S { stroke } bind def
/f { fill } bind def
/f* { eofill } bind def
/n { newpath } bind def
/W { clip } bind def
/W* { eoclip } bind def
/BT { } bind def
/ET { } bind def
/BDC { mark 3 1 roll /BDC pdfmark } bind def
/EMC { mark /EMC pdfmark } bind def
/cairo_store_point { /cairo_point_y exch def /cairo_point_x exch def } def
/Tj { show currentpoint cairo_store_point } bind def
/TJ {
  {
    dup
    type /stringtype eq
    { show } { -0.001 mul 0 cairo_font_matrix dtransform rmoveto } ifelse
  } forall
  currentpoint cairo_store_point
} bind def
/cairo_selectfont { cairo_font_matrix aload pop pop pop 0 0 6 array astore
    cairo_font exch selectfont cairo_point_x cairo_point_y moveto } bind def
/Tf { pop /cairo_font exch def /cairo_font_matrix where
      { pop cairo_selectfont } if } bind def
/Td { matrix translate cairo_font_matrix matrix concatmatrix dup
      /cairo_font_matrix exch def dup 4 get exch 5 get cairo_store_point
      /cairo_font where { pop cairo_selectfont } if } bind def
/Tm { 2 copy 8 2 roll 6 array astore /cairo_font_matrix exch def
      cairo_store_point /cairo_font where { pop cairo_selectfont } if } bind def
/g { setgray } bind def
/rg { setrgbcolor } bind def
/d1 { setcachedevice } bind def
/cairo_data_source {
  CairoDataIndex CairoData length lt
    { CairoData CairoDataIndex get /CairoDataIndex CairoDataIndex 1 add def }
    { () } ifelse
} def
/cairo_flush_ascii85_file { cairo_ascii85_file status { cairo_ascii85_file flushfile } if } def
/cairo_image { image cairo_flush_ascii85_file } def
/cairo_imagemask { imagemask cairo_flush_ascii85_file } def
%%EndProlog
%%BeginSetup
%%EndSetup
%%Page: 1 1
%%BeginPageSetup
%%PageBoundingBox: 6 6 378 379
%%EndPageSetup
q 6 6 372 373 rectclip
1 0 0 -1 0 384 cm q
q
192 48 m 160.453 48 132.012 67.004 119.938 96.152 c 107.863 125.297 114.539
 158.848 136.844 181.156 c 159.152 203.461 192.703 210.137 221.848 198.062
 c 250.996 185.988 270 157.547 270 126 c 269.953 82.941 235.059 48.047 192
 48 c h
192 192 m 165.305 192 141.238 175.918 131.023 151.258 c 120.809 126.594
 126.457 98.207 145.332 79.332 c 164.207 60.457 192.594 54.809 217.258 65.023
 c 241.918 75.238 258 99.305 258 126 c 257.957 162.434 228.434 191.957 192
 192 c h
192 192 m W n
[0.75 0 0 0.75 0 0] concat
/CairoFunction
<< /FunctionType 3
   /Domain [ 0 1 ]
   /Functions [
   << /FunctionType 2
      /Domain [ 0 1 ]
      /C0 [ 0 0.247059 0.541176 ]
      /C1 [ 0 0.843137 0.87451 ]
      /N 1
   >>
   << /FunctionType 2
      /Domain [ 0 1 ]
      /C0 [ 0 0.843137 0.87451 ]
      /C1 [ 0 0.427451 0.941176 ]
      /N 1
   >>
   ]
   /Bounds [ 0.518 ]
   /Encode [ 1 1 2 { pop 0 1 } for ]
>>
def
   << /ShadingType 2
      /ColorSpace /DeviceRGB
      /Coords [ -27.419001 451.419006 456.69101 -32.691002 ]
      /Extend [ true true ]
      /Function CairoFunction
   >>
shfill
Q
q
377.559 345.742 m 328.809 225.742 l 327.891 223.477 325.691 221.996 323.25
 222 c 279.434 222 l 300.863 190.566 318 157.289 318 131.25 c 318 61.77 
261.48 5.25 192 5.25 c 122.52 5.25 66 61.77 66 131.25 c 66 157.289 83.137
 190.566 104.566 222 c 60 222 l 57.547 222 55.34 223.496 54.426 225.773 
c 6.426 345.773 l 6.145 346.48 6 347.238 6 348 c 6 372 l 6 375.312 8.688
 378 12 378 c 372 378 l 375.312 378 378 375.312 378 372 c 378 348 l 378 
347.227 377.848 346.461 377.559 345.742 c h
78 131.25 m 78 68.391 129.141 17.25 192 17.25 c 254.859 17.25 306 68.391
 306 131.25 c 306 156.977 285.719 196.41 247.352 245.301 c 224.453 274.492
 201.293 299.062 192 308.672 c 182.723 299.078 159.613 274.559 136.719 245.398
 c 98.301 196.461 78 156.988 78 131.25 c h
64.066 234 m 113.004 234 l 146.078 279.652 184.941 318.684 187.762 321.496
 c 190.102 323.836 193.898 323.836 196.238 321.496 c 199.059 318.684 237.922
 279.652 270.996 234 c 319.215 234 l 363.09 342 l 20.863 342 l h
366 366 m 18 366 l 18 354 l 366 354 l h
366 366 m W n
[0.75 0 0 0.75 0 0] concat
/CairoFunction
<< /FunctionType 3
   /Domain [ 0 1 ]
   /Functions [
   << /FunctionType 2
      /Domain [ 0 1 ]
      /C0 [ 0 0.247059 0.541176 ]
      /C1 [ 0 0.843137 0.87451 ]
      /N 1
   >>
   << /FunctionType 2
      /Domain [ 0 1 ]
      /C0 [ 0 0.843137 0.87451 ]
      /C1 [ 0 0.427451 0.941176 ]
      /N 1
   >>
   ]
   /Bounds [ 0.518 ]
   /Encode [ 1 1 2 { pop 0 1 } for ]
>>
def
   << /ShadingType 2
      /ColorSpace /DeviceRGB
      /Coords [ 59.790001 538.627014 543.900024 54.516998 ]
      /Extend [ true true ]
      /Function CairoFunction
   >>
shfill
Q
q
241.926 143.953 m 224.953 126.984 l 222.613 124.641 218.816 124.641 216.473
 126.984 c 210.105 133.352 l 208.934 134.52 207.039 134.52 205.867 133.352
 c 184.648 112.133 l 183.48 110.961 183.48 109.066 184.648 107.895 c 191.016
 101.527 l 193.359 99.184 193.359 95.387 191.016 93.047 c 174.047 76.074
 l 171.703 73.73 167.906 73.73 165.562 76.074 c 146.469 95.168 l 142.527
 99.105 140.316 104.449 140.316 110.016 c 140.316 115.586 142.527 120.93
 146.469 124.867 c 193.133 171.531 l 201.34 179.723 214.625 179.723 222.832
 171.531 c 241.926 152.438 l 244.27 150.094 244.27 146.297 241.926 143.953
 c h
214.352 163.051 m 210.832 166.559 205.141 166.559 201.621 163.051 c 154.949
 116.379 l 151.441 112.859 151.441 107.168 154.949 103.648 c 169.801 88.801
 l 178.289 97.289 l 176.168 99.406 l 173.352 102.219 171.773 106.035 171.773
 110.016 c 171.773 113.992 173.352 117.809 176.168 120.621 c 197.379 141.832
 l 200.191 144.648 204.008 146.227 207.984 146.227 c 211.965 146.227 215.781
 144.648 218.594 141.832 c 220.711 139.711 l 229.199 148.199 l h
214.352 163.051 m W n
[0.75 0 0 0.75 0 0] concat
/CairoFunction
<< /FunctionType 3
   /Domain [ 0 1 ]
   /Functions [
   << /FunctionType 2
      /Domain [ 0 1 ]
      /C0 [ 0 0.247059 0.541176 ]
      /C1 [ 0 0.843137 0.87451 ]
      /N 1
   >>
   << /FunctionType 2
      /Domain [ 0 1 ]
      /C0 [ 0 0.843137 0.87451 ]
      /C1 [ 0 0.427451 0.941176 ]
      /N 1
   >>
   ]
   /Bounds [ 0.518 ]
   /Encode [ 1 1 2 { pop 0 1 } for ]
>>
def
   << /ShadingType 2
      /ColorSpace /DeviceRGB
      /Coords [ -27.419001 451.419006 456.69101 -32.691002 ]
      /Extend [ true true ]
      /Function CairoFunction
   >>
shfill
Q
Q Q
showpage
%%Trailer
end
%%EOF
