%!PS-Adobe-3.0 EPSF-3.0
%%Creator: cairo 1.16.0 (https://cairographics.org)
%%CreationDate: Thu Dec  3 11:23:45 2020
%%Pages: 1
%%DocumentData: Clean7Bit
%%LanguageLevel: 3
%%BoundingBox: 42 6 348 378
%%EndComments
%%BeginProlog
50 dict begin
/q { gsave } bind def
/Q { grestore } bind def
/cm { 6 array astore concat } bind def
/w { setlinewidth } bind def
/J { setlinecap } bind def
/j { setlinejoin } bind def
/M { setmiterlimit } bind def
/d { setdash } bind def
/m { moveto } bind def
/l { lineto } bind def
/c { curveto } bind def
/h { closepath } bind def
/re { exch dup neg 3 1 roll 5 3 roll moveto 0 rlineto
      0 exch rlineto 0 rlineto closepath } bind def
/S { stroke } bind def
/f { fill } bind def
/f* { eofill } bind def
/n { newpath } bind def
/W { clip } bind def
/W* { eoclip } bind def
/BT { } bind def
/ET { } bind def
/BDC { mark 3 1 roll /BDC pdfmark } bind def
/EMC { mark /EMC pdfmark } bind def
/cairo_store_point { /cairo_point_y exch def /cairo_point_x exch def } def
/Tj { show currentpoint cairo_store_point } bind def
/TJ {
  {
    dup
    type /stringtype eq
    { show } { -0.001 mul 0 cairo_font_matrix dtransform rmoveto } ifelse
  } forall
  currentpoint cairo_store_point
} bind def
/cairo_selectfont { cairo_font_matrix aload pop pop pop 0 0 6 array astore
    cairo_font exch selectfont cairo_point_x cairo_point_y moveto } bind def
/Tf { pop /cairo_font exch def /cairo_font_matrix where
      { pop cairo_selectfont } if } bind def
/Td { matrix translate cairo_font_matrix matrix concatmatrix dup
      /cairo_font_matrix exch def dup 4 get exch 5 get cairo_store_point
      /cairo_font where { pop cairo_selectfont } if } bind def
/Tm { 2 copy 8 2 roll 6 array astore /cairo_font_matrix exch def
      cairo_store_point /cairo_font where { pop cairo_selectfont } if } bind def
/g { setgray } bind def
/rg { setrgbcolor } bind def
/d1 { setcachedevice } bind def
/cairo_data_source {
  CairoDataIndex CairoData length lt
    { CairoData CairoDataIndex get /CairoDataIndex CairoDataIndex 1 add def }
    { () } ifelse
} def
/cairo_flush_ascii85_file { cairo_ascii85_file status { cairo_ascii85_file flushfile } if } def
/cairo_image { image cairo_flush_ascii85_file } def
/cairo_imagemask { imagemask cairo_flush_ascii85_file } def
%%EndProlog
%%BeginSetup
%%EndSetup
%%Page: 1 1
%%BeginPageSetup
%%PageBoundingBox: 42 6 348 378
%%EndPageSetup
q 42 6 306 372 rectclip
1 0 0 -1 0 384 cm q
q
347.863 74.977 m 347.836 63.395 338.445 54.02 326.863 54 c 294 54 l 294
 27 l 293.988 15.406 284.594 6.012 273 6 c 111 6 l 99.406 6.012 90.012 15.406
 90 27 c 90 132 l 63.121 132 l 51.539 132.016 42.148 141.395 42.121 152.977
 c 42 248.977 l 41.992 254.551 44.203 259.898 48.145 263.84 c 52.082 267.785
 57.426 270 63 270 c 90 270 l 90 357 l 90.012 368.594 99.406 377.988 111
 378 c 273 378 l 284.594 377.988 293.988 368.594 294 357 c 294 192 l 326.984
 192 l 332.559 192 337.902 189.785 341.844 185.84 c 345.781 181.898 347.992
 176.551 347.984 170.977 c h
220.312 18 m 217.312 30 l 166.688 30 l 163.688 18 l h
63 258 m 60.613 258 58.32 257.051 56.633 255.359 c 54.945 253.672 53.996
 251.379 54 248.992 c 54.121 152.992 l 54.133 148.027 58.156 144.008 63.121
 144 c 170.984 144 l 175.953 144.004 179.98 148.031 179.984 153 c 179.984
 249 l 179.98 253.969 175.953 257.996 170.984 258 c 149.984 258 l 146.672
 258 143.984 260.688 143.984 264 c 143.984 285.516 l 118.23 259.754 l 117.102
 258.629 115.578 258 113.984 258 c h
282 357 m 281.996 361.969 277.969 365.996 273 366 c 111 366 l 106.031 365.996
 102.004 361.969 102 357 c 102 270 l 111.504 270 l 145.738 304.246 l 147.457
 305.965 150.039 306.477 152.281 305.547 c 154.523 304.617 155.988 302.43
 155.984 300 c 155.984 270 l 170.984 270 l 182.578 269.988 191.973 260.594
 191.984 249 c 191.984 153 l 191.973 141.406 182.578 132.012 170.984 132
 c 102 132 l 102 27 l 102.004 22.031 106.031 18.004 111 18 c 151.312 18 
l 156.18 37.453 l 156.848 40.125 159.246 42 162 42 c 222 42 l 224.754 42
 227.152 40.125 227.82 37.453 c 232.688 18 l 273 18 l 277.969 18.004 281.996
 22.031 282 27 c 282 54 l 219 54 l 207.406 54.012 198.012 63.406 198 75 
c 198 171 l 198.012 182.594 207.406 191.988 219 192 c 234 192 l 234 222 
l 234 224.43 235.461 226.617 237.703 227.547 c 239.945 228.477 242.527 227.965
 244.246 226.246 c 278.484 192 l 282 192 l h
333.352 177.359 m 331.668 179.055 329.375 180.008 326.984 180 c 276 180
 l 274.41 180 272.883 180.629 271.754 181.754 c 246 207.516 l 246 186 l 
246 182.688 243.312 180 240 180 c 219 180 l 214.031 179.996 210.004 175.969
 210 171 c 210 75 l 210.004 70.031 214.031 66.004 219 66 c 326.863 66 l 
331.828 66.008 335.852 70.027 335.863 74.992 c 335.984 170.992 l 335.996
 173.383 335.047 175.676 333.352 177.359 c h
333.352 177.359 m W n
[0.75 0 0 0.75 0 0] concat
/CairoFunction
<< /FunctionType 3
   /Domain [ 0 1 ]
   /Functions [
   << /FunctionType 2
      /Domain [ 0 1 ]
      /C0 [ 0 0.247059 0.541176 ]
      /C1 [ 0 0.843137 0.87451 ]
      /N 1
   >>
   << /FunctionType 2
      /Domain [ 0 1 ]
      /C0 [ 0 0.843137 0.87451 ]
      /C1 [ 0 0.427451 0.941176 ]
      /N 1
   >>
   ]
   /Bounds [ 0.518 ]
   /Encode [ 1 1 2 { pop 0 1 } for ]
>>
def
   << /ShadingType 2
      /ColorSpace /DeviceRGB
      /Coords [ 13.654 498.346008 533.538025 -21.538 ]
      /Extend [ true true ]
      /Function CairoFunction
   >>
shfill
Q
q
291.469 144.984 m 293.133 141.922 294.004 138.488 294 135 c 294 105 l 293.988
 93.406 284.594 84.012 273 84 c 267 84 l 255.406 84.012 246.012 93.406 246
 105 c 246 135 l 246.012 146.594 255.406 155.988 267 156 c 273 156 l 276.488
 156.004 279.922 155.133 282.984 153.469 c 289.758 160.242 l 292.102 162.586
 295.898 162.586 298.242 160.242 c 300.586 157.898 300.586 154.102 298.242
 151.758 c h
273 144 m 267 144 l 262.031 143.996 258.004 139.969 258 135 c 258 105 l
 258.004 100.031 262.031 96.004 267 96 c 273 96 l 277.969 96.004 281.996
 100.031 282 105 c 282 135 l 282 135.164 281.984 135.328 281.977 135.488
 c 280.242 133.758 l 277.898 131.414 274.102 131.414 271.758 133.758 c 269.414
 136.102 269.414 139.898 271.758 142.242 c 273.488 143.977 l 273.328 143.984
 273.164 144 273 144 c h
273 144 m W n
[0.75 0 0 0.75 0 0] concat
/CairoFunction
<< /FunctionType 3
   /Domain [ 0 1 ]
   /Functions [
   << /FunctionType 2
      /Domain [ 0 1 ]
      /C0 [ 0 0.247059 0.541176 ]
      /C1 [ 0 0.843137 0.87451 ]
      /N 1
   >>
   << /FunctionType 2
      /Domain [ 0 1 ]
      /C0 [ 0 0.843137 0.87451 ]
      /C1 [ 0 0.427451 0.941176 ]
      /N 1
   >>
   ]
   /Bounds [ 0.518 ]
   /Encode [ 1 1 2 { pop 0 1 } for ]
>>
def
   << /ShadingType 2
      /ColorSpace /DeviceRGB
      /Coords [ 24.587999 509.278992 544.471985 -10.605 ]
      /Extend [ true true ]
      /Function CairoFunction
   >>
shfill
Q
q
102 228 m 102 204 l 126 204 l 126 228 l 126 231.312 128.688 234 132 234
 c 135.312 234 138 231.312 138 228 c 138 183 l 137.988 171.406 128.594 162.012
 117 162 c 111 162 l 99.406 162.012 90.012 171.406 90 183 c 90 228 l 90 
231.312 92.688 234 96 234 c 99.312 234 102 231.312 102 228 c h
111 174 m 117 174 l 121.969 174.004 125.996 178.031 126 183 c 126 192 l
 102 192 l 102 183 l 102.004 178.031 106.031 174.004 111 174 c h
111 174 m W n
[0.75 0 0 0.75 0 0] concat
/CairoFunction
<< /FunctionType 3
   /Domain [ 0 1 ]
   /Functions [
   << /FunctionType 2
      /Domain [ 0 1 ]
      /C0 [ 0 0.247059 0.541176 ]
      /C1 [ 0 0.843137 0.87451 ]
      /N 1
   >>
   << /FunctionType 2
      /Domain [ 0 1 ]
      /C0 [ 0 0.843137 0.87451 ]
      /C1 [ 0 0.427451 0.941176 ]
      /N 1
   >>
   ]
   /Bounds [ 0.518 ]
   /Encode [ 1 1 2 { pop 0 1 } for ]
>>
def
   << /ShadingType 2
      /ColorSpace /DeviceRGB
      /Coords [ -31.412001 453.278992 488.471985 -66.605003 ]
      /Extend [ true true ]
      /Function CairoFunction
   >>
shfill
Q
Q Q
showpage
%%Trailer
end
%%EOF
