%!PS-Adobe-3.0 EPSF-3.0
%%Creator: cairo 1.16.0 (https://cairographics.org)
%%CreationDate: Thu Dec  3 11:23:45 2020
%%Pages: 1
%%DocumentData: Clean7Bit
%%LanguageLevel: 3
%%BoundingBox: 6 12 378 372
%%EndComments
%%BeginProlog
50 dict begin
/q { gsave } bind def
/Q { grestore } bind def
/cm { 6 array astore concat } bind def
/w { setlinewidth } bind def
/J { setlinecap } bind def
/j { setlinejoin } bind def
/M { setmiterlimit } bind def
/d { setdash } bind def
/m { moveto } bind def
/l { lineto } bind def
/c { curveto } bind def
/h { closepath } bind def
/re { exch dup neg 3 1 roll 5 3 roll moveto 0 rlineto
      0 exch rlineto 0 rlineto closepath } bind def
/S { stroke } bind def
/f { fill } bind def
/f* { eofill } bind def
/n { newpath } bind def
/W { clip } bind def
/W* { eoclip } bind def
/BT { } bind def
/ET { } bind def
/BDC { mark 3 1 roll /BDC pdfmark } bind def
/EMC { mark /EMC pdfmark } bind def
/cairo_store_point { /cairo_point_y exch def /cairo_point_x exch def } def
/Tj { show currentpoint cairo_store_point } bind def
/TJ {
  {
    dup
    type /stringtype eq
    { show } { -0.001 mul 0 cairo_font_matrix dtransform rmoveto } ifelse
  } forall
  currentpoint cairo_store_point
} bind def
/cairo_selectfont { cairo_font_matrix aload pop pop pop 0 0 6 array astore
    cairo_font exch selectfont cairo_point_x cairo_point_y moveto } bind def
/Tf { pop /cairo_font exch def /cairo_font_matrix where
      { pop cairo_selectfont } if } bind def
/Td { matrix translate cairo_font_matrix matrix concatmatrix dup
      /cairo_font_matrix exch def dup 4 get exch 5 get cairo_store_point
      /cairo_font where { pop cairo_selectfont } if } bind def
/Tm { 2 copy 8 2 roll 6 array astore /cairo_font_matrix exch def
      cairo_store_point /cairo_font where { pop cairo_selectfont } if } bind def
/g { setgray } bind def
/rg { setrgbcolor } bind def
/d1 { setcachedevice } bind def
/cairo_data_source {
  CairoDataIndex CairoData length lt
    { CairoData CairoDataIndex get /CairoDataIndex CairoDataIndex 1 add def }
    { () } ifelse
} def
/cairo_flush_ascii85_file { cairo_ascii85_file status { cairo_ascii85_file flushfile } if } def
/cairo_image { image cairo_flush_ascii85_file } def
/cairo_imagemask { imagemask cairo_flush_ascii85_file } def
%%EndProlog
%%BeginSetup
%%EndSetup
%%Page: 1 1
%%BeginPageSetup
%%PageBoundingBox: 6 12 378 372
%%EndPageSetup
q 6 12 372 360 rectclip
1 0 0 -1 0 384 cm q
q
375.09 132.855 m 318 98.602 l 318 18 l 318 14.688 315.312 12 312 12 c 72
 12 l 68.688 12 66 14.688 66 18 c 66 98.602 l 8.91 132.855 l 7.105 133.941
 6 135.895 6 138 c 6 366 l 6 369.312 8.688 372 12 372 c 372 372 l 375.312
 372 378 369.312 378 366 c 378 138 l 378 135.895 376.895 133.941 375.09 
132.855 c h
318 112.598 m 365.34 141 l 318 169.402 l h
78 24 m 306 24 l 306 176.602 l 192 245.004 l 78 176.602 l h
66 112.598 m 66 169.402 l 18.66 141 l h
18 360 m 18 154.598 l 126.375 219.621 l 32.789 360 l h
47.211 360 m 136.672 225.801 l 188.91 257.145 l 190.812 258.285 193.188
 258.285 195.09 257.145 c 247.32 225.801 l 336.09 360 l h
366 360 m 350.477 360 l 257.625 219.621 l 366 154.598 l h
366 360 m W n
[0.75 0 0 0.75 0 0] concat
/CairoFunction
<< /FunctionType 3
   /Domain [ 0 1 ]
   /Functions [
   << /FunctionType 2
      /Domain [ 0 1 ]
      /C0 [ 0 0.247059 0.541176 ]
      /C1 [ 0 0.843137 0.87451 ]
      /N 1
   >>
   << /FunctionType 2
      /Domain [ 0 1 ]
      /C0 [ 0 0.843137 0.87451 ]
      /C1 [ 0 0.427451 0.941176 ]
      /N 1
   >>
   ]
   /Bounds [ 0.518 ]
   /Encode [ 1 1 2 { pop 0 1 } for ]
>>
def
   << /ShadingType 2
      /ColorSpace /DeviceRGB
      /Coords [ 26.915001 525.085022 549.453979 2.546 ]
      /Extend [ true true ]
      /Function CairoFunction
   >>
shfill
Q
q
192 168 m 184.719 168 178.156 172.387 175.371 179.113 c 172.586 185.836
 174.125 193.578 179.273 198.727 c 184.422 203.875 192.164 205.414 198.887
 202.629 c 205.613 199.844 210 193.281 210 186 c 209.988 176.062 201.938
 168.012 192 168 c h
192 192 m 189.574 192 187.387 190.539 186.457 188.297 c 185.527 186.055
 186.043 183.473 187.758 181.758 c 189.473 180.043 192.055 179.527 194.297
 180.457 c 196.539 181.387 198 183.574 198 186 c 197.996 189.312 195.312
 191.996 192 192 c h
192 192 m W n
[0.75 0 0 0.75 0 0] concat
/CairoFunction
<< /FunctionType 3
   /Domain [ 0 1 ]
   /Functions [
   << /FunctionType 2
      /Domain [ 0 1 ]
      /C0 [ 0 0.247059 0.541176 ]
      /C1 [ 0 0.843137 0.87451 ]
      /N 1
   >>
   << /FunctionType 2
      /Domain [ 0 1 ]
      /C0 [ 0 0.843137 0.87451 ]
      /C1 [ 0 0.427451 0.941176 ]
      /N 1
   >>
   ]
   /Bounds [ 0.518 ]
   /Encode [ 1 1 2 { pop 0 1 } for ]
>>
def
   << /ShadingType 2
      /ColorSpace /DeviceRGB
      /Coords [ 2.915 501.084991 525.453979 -21.454 ]
      /Extend [ true true ]
      /Function CairoFunction
   >>
shfill
Q
q
144 96 m 168 96 l 171.312 96 174 93.312 174 90 c 174 82.719 178.387 76.156
 185.113 73.371 c 191.836 70.586 199.578 72.125 204.727 77.273 c 209.875
 82.422 211.414 90.164 208.629 96.887 c 205.844 103.613 199.281 108 192 
108 c 180 108 l 176.688 108 174 110.688 174 114 c 174 156 l 174 159.312 
176.688 162 180 162 c 204 162 l 207.312 162 210 159.312 210 156 c 210 140.934
 l 229.031 134.207 242.727 117.434 245.504 97.441 c 248.281 77.449 239.676
 57.574 223.199 45.918 c 206.719 34.262 185.117 32.766 167.188 42.043 c 
149.262 51.316 138.004 69.816 138 90 c 138 93.312 140.688 96 144 96 c h
192 48 m 213.148 48.008 230.996 63.738 233.66 84.719 c 236.324 105.699 
222.977 125.387 202.5 130.684 c 199.852 131.367 198 133.758 198 136.492 
c 198 150 l 186 150 l 186 120 l 192 120 l 203.586 119.996 214.133 113.324
 219.098 102.855 c 224.066 92.387 222.559 79.996 215.23 71.023 c 207.902
 62.051 196.062 58.098 184.812 60.871 c 173.562 63.645 164.918 72.648 162.602
 84 c 150.426 84 l 153.438 63.348 171.133 48.027 192 48 c h
192 48 m W n
[0.75 0 0 0.75 0 0] concat
/CairoFunction
<< /FunctionType 3
   /Domain [ 0 1 ]
   /Functions [
   << /FunctionType 2
      /Domain [ 0 1 ]
      /C0 [ 0 0.247059 0.541176 ]
      /C1 [ 0 0.843137 0.87451 ]
      /N 1
   >>
   << /FunctionType 2
      /Domain [ 0 1 ]
      /C0 [ 0 0.843137 0.87451 ]
      /C1 [ 0 0.427451 0.941176 ]
      /N 1
   >>
   ]
   /Bounds [ 0.518 ]
   /Encode [ 1 1 2 { pop 0 1 } for ]
>>
def
   << /ShadingType 2
      /ColorSpace /DeviceRGB
      /Coords [ -57.700001 440.470001 464.838989 -82.07 ]
      /Extend [ true true ]
      /Function CairoFunction
   >>
shfill
Q
Q Q
showpage
%%Trailer
end
%%EOF
