%!PS-Adobe-3.0 EPSF-3.0
%%Creator: cairo 1.16.0 (https://cairographics.org)
%%CreationDate: Thu Dec  3 11:23:46 2020
%%Pages: 1
%%DocumentData: Clean7Bit
%%LanguageLevel: 3
%%BoundingBox: 6 6 378 378
%%EndComments
%%BeginProlog
50 dict begin
/q { gsave } bind def
/Q { grestore } bind def
/cm { 6 array astore concat } bind def
/w { setlinewidth } bind def
/J { setlinecap } bind def
/j { setlinejoin } bind def
/M { setmiterlimit } bind def
/d { setdash } bind def
/m { moveto } bind def
/l { lineto } bind def
/c { curveto } bind def
/h { closepath } bind def
/re { exch dup neg 3 1 roll 5 3 roll moveto 0 rlineto
      0 exch rlineto 0 rlineto closepath } bind def
/S { stroke } bind def
/f { fill } bind def
/f* { eofill } bind def
/n { newpath } bind def
/W { clip } bind def
/W* { eoclip } bind def
/BT { } bind def
/ET { } bind def
/BDC { mark 3 1 roll /BDC pdfmark } bind def
/EMC { mark /EMC pdfmark } bind def
/cairo_store_point { /cairo_point_y exch def /cairo_point_x exch def } def
/Tj { show currentpoint cairo_store_point } bind def
/TJ {
  {
    dup
    type /stringtype eq
    { show } { -0.001 mul 0 cairo_font_matrix dtransform rmoveto } ifelse
  } forall
  currentpoint cairo_store_point
} bind def
/cairo_selectfont { cairo_font_matrix aload pop pop pop 0 0 6 array astore
    cairo_font exch selectfont cairo_point_x cairo_point_y moveto } bind def
/Tf { pop /cairo_font exch def /cairo_font_matrix where
      { pop cairo_selectfont } if } bind def
/Td { matrix translate cairo_font_matrix matrix concatmatrix dup
      /cairo_font_matrix exch def dup 4 get exch 5 get cairo_store_point
      /cairo_font where { pop cairo_selectfont } if } bind def
/Tm { 2 copy 8 2 roll 6 array astore /cairo_font_matrix exch def
      cairo_store_point /cairo_font where { pop cairo_selectfont } if } bind def
/g { setgray } bind def
/rg { setrgbcolor } bind def
/d1 { setcachedevice } bind def
/cairo_data_source {
  CairoDataIndex CairoData length lt
    { CairoData CairoDataIndex get /CairoDataIndex CairoDataIndex 1 add def }
    { () } ifelse
} def
/cairo_flush_ascii85_file { cairo_ascii85_file status { cairo_ascii85_file flushfile } if } def
/cairo_image { image cairo_flush_ascii85_file } def
/cairo_imagemask { imagemask cairo_flush_ascii85_file } def
%%EndProlog
%%BeginSetup
%%EndSetup
%%Page: 1 1
%%BeginPageSetup
%%PageBoundingBox: 6 6 378 378
%%EndPageSetup
q 6 6 372 372 rectclip
1 0 0 -1 0 384 cm q
q
241.602 80.34 m 211.773 74.781 l 197.27 48.133 l 196.219 46.203 194.195
 45 192 45 c 189.805 45 187.781 46.203 186.73 48.133 c 172.227 74.781 l 
142.398 80.34 l 140.234 80.746 138.469 82.297 137.789 84.387 c 137.109 86.477
 137.629 88.77 139.141 90.367 c 160.004 112.398 l 156.074 142.484 l 155.789
 144.66 156.719 146.82 158.496 148.113 c 160.277 149.406 162.617 149.621
 164.602 148.68 c 192 135.645 l 219.398 148.68 l 221.383 149.621 223.727
 149.406 225.504 148.113 c 227.281 146.82 228.211 144.66 227.926 142.484
 c 223.996 112.398 l 244.859 90.367 l 246.371 88.77 246.891 86.477 246.211
 84.387 c 245.531 82.297 243.766 80.746 241.602 80.34 c h
213.324 106.215 m 212.082 107.527 211.496 109.328 211.73 111.121 c 214.602
 133.105 l 194.574 123.578 l 192.945 122.805 191.051 122.805 189.422 123.578
 c 169.395 133.105 l 172.266 111.121 l 172.5 109.328 171.914 107.527 170.672
 106.215 c 155.43 90.117 l 177.227 86.055 l 179 85.723 180.531 84.609 181.395
 83.023 c 192 63.551 l 202.602 83.023 l 203.465 84.609 204.996 85.723 206.77
 86.055 c 228.566 90.117 l h
213.324 106.215 m W n
[0.75 0 0 0.75 0 0] concat
/CairoFunction
<< /FunctionType 3
   /Domain [ 0 1 ]
   /Functions [
   << /FunctionType 2
      /Domain [ 0 1 ]
      /C0 [ 0 0.247059 0.541176 ]
      /C1 [ 0 0.843137 0.87451 ]
      /N 1
   >>
   << /FunctionType 2
      /Domain [ 0 1 ]
      /C0 [ 0 0.843137 0.87451 ]
      /C1 [ 0 0.427451 0.941176 ]
      /N 1
   >>
   ]
   /Bounds [ 0.518 ]
   /Encode [ 1 1 2 { pop 0 1 } for ]
>>
def
   << /ShadingType 2
      /ColorSpace /DeviceRGB
      /Coords [ -46.182999 442.830994 411.076996 -14.429 ]
      /Extend [ true true ]
      /Function CairoFunction
   >>
shfill
Q
q
127.602 80.34 m 97.773 74.781 l 83.27 48.133 l 82.219 46.203 80.195 45 
78 45 c 75.805 45 73.781 46.203 72.73 48.133 c 58.227 74.781 l 28.398 80.34
 l 26.234 80.746 24.469 82.297 23.789 84.387 c 23.109 86.477 23.629 88.77
 25.141 90.367 c 46.004 112.398 l 42.074 142.484 l 41.789 144.66 42.719 
146.82 44.496 148.113 c 46.277 149.406 48.617 149.621 50.602 148.68 c 78
 135.645 l 105.398 148.68 l 107.383 149.621 109.727 149.406 111.504 148.113
 c 113.281 146.82 114.211 144.66 113.926 142.484 c 109.996 112.398 l 130.859
 90.367 l 132.371 88.77 132.891 86.477 132.211 84.387 c 131.531 82.297 129.766
 80.746 127.602 80.34 c h
99.324 106.215 m 98.082 107.527 97.496 109.328 97.73 111.121 c 100.602 
133.105 l 80.574 123.578 l 78.945 122.805 77.051 122.805 75.422 123.578 
c 55.395 133.105 l 58.266 111.121 l 58.5 109.328 57.914 107.527 56.672 106.215
 c 41.434 90.117 l 63.23 86.055 l 65.004 85.723 66.535 84.609 67.398 83.023
 c 78 63.551 l 88.602 83.023 l 89.465 84.609 90.996 85.723 92.77 86.055 
c 114.566 90.117 l h
99.324 106.215 m W n
[0.75 0 0 0.75 0 0] concat
/CairoFunction
<< /FunctionType 3
   /Domain [ 0 1 ]
   /Functions [
   << /FunctionType 2
      /Domain [ 0 1 ]
      /C0 [ 0 0.247059 0.541176 ]
      /C1 [ 0 0.843137 0.87451 ]
      /N 1
   >>
   << /FunctionType 2
      /Domain [ 0 1 ]
      /C0 [ 0 0.843137 0.87451 ]
      /C1 [ 0 0.427451 0.941176 ]
      /N 1
   >>
   ]
   /Bounds [ 0.518 ]
   /Encode [ 1 1 2 { pop 0 1 } for ]
>>
def
   << /ShadingType 2
      /ColorSpace /DeviceRGB
      /Coords [ -122.182999 366.830994 335.076996 -90.429001 ]
      /Extend [ true true ]
      /Function CairoFunction
   >>
shfill
Q
q
355.602 80.34 m 325.773 74.781 l 311.27 48.133 l 310.219 46.203 308.195
 45 306 45 c 303.805 45 301.781 46.203 300.73 48.133 c 286.227 74.781 l 
256.398 80.34 l 254.234 80.746 252.469 82.297 251.789 84.387 c 251.109 86.477
 251.629 88.77 253.141 90.367 c 274.004 112.398 l 270.074 142.484 l 269.789
 144.66 270.719 146.82 272.496 148.113 c 274.277 149.406 276.617 149.621
 278.602 148.68 c 306 135.645 l 333.398 148.68 l 335.383 149.621 337.727
 149.406 339.504 148.113 c 341.281 146.82 342.211 144.66 341.926 142.484
 c 337.996 112.398 l 358.859 90.367 l 360.371 88.77 360.891 86.477 360.211
 84.387 c 359.531 82.297 357.766 80.746 355.602 80.34 c h
327.324 106.215 m 326.082 107.527 325.496 109.328 325.73 111.121 c 328.602
 133.105 l 308.574 123.578 l 306.945 122.805 305.051 122.805 303.422 123.578
 c 283.395 133.105 l 286.266 111.121 l 286.5 109.328 285.914 107.527 284.672
 106.215 c 269.43 90.117 l 291.227 86.055 l 293 85.723 294.531 84.609 295.395
 83.023 c 306 63.551 l 316.602 83.023 l 317.465 84.609 318.996 85.723 320.77
 86.055 c 342.566 90.117 l h
327.324 106.215 m W n
[0.75 0 0 0.75 0 0] concat
/CairoFunction
<< /FunctionType 3
   /Domain [ 0 1 ]
   /Functions [
   << /FunctionType 2
      /Domain [ 0 1 ]
      /C0 [ 0 0.247059 0.541176 ]
      /C1 [ 0 0.843137 0.87451 ]
      /N 1
   >>
   << /FunctionType 2
      /Domain [ 0 1 ]
      /C0 [ 0 0.843137 0.87451 ]
      /C1 [ 0 0.427451 0.941176 ]
      /N 1
   >>
   ]
   /Bounds [ 0.518 ]
   /Encode [ 1 1 2 { pop 0 1 } for ]
>>
def
   << /ShadingType 2
      /ColorSpace /DeviceRGB
      /Coords [ 29.816999 518.830994 487.076996 61.570999 ]
      /Extend [ true true ]
      /Function CairoFunction
   >>
shfill
Q
q
357 6 m 27 6 l 15.406 6.012 6.012 15.406 6 27 c 6 171 l 6.012 182.594 15.406
 191.988 27 192 c 167.293 192 l 186.633 230.684 l 187.648 232.715 189.727
 234 192 234 c 194.273 234 196.352 232.715 197.367 230.684 c 216.707 192
 l 357 192 l 368.594 191.988 377.988 182.594 378 171 c 378 27 l 377.988 
15.406 368.594 6.012 357 6 c h
366 171 m 365.996 175.969 361.969 179.996 357 180 c 213 180 l 210.727 180
 208.648 181.285 207.633 183.316 c 192 214.582 l 176.367 183.316 l 175.352
 181.285 173.273 180 171 180 c 27 180 l 22.031 179.996 18.004 175.969 18
 171 c 18 27 l 18.004 22.031 22.031 18.004 27 18 c 357 18 l 361.969 18.004
 365.996 22.031 366 27 c h
366 171 m W n
[0.75 0 0 0.75 0 0] concat
/CairoFunction
<< /FunctionType 3
   /Domain [ 0 1 ]
   /Functions [
   << /FunctionType 2
      /Domain [ 0 1 ]
      /C0 [ 0 0.247059 0.541176 ]
      /C1 [ 0 0.843137 0.87451 ]
      /N 1
   >>
   << /FunctionType 2
      /Domain [ 0 1 ]
      /C0 [ 0 0.843137 0.87451 ]
      /C1 [ 0 0.427451 0.941176 ]
      /N 1
   >>
   ]
   /Bounds [ 0.518 ]
   /Encode [ 1 1 2 { pop 0 1 } for ]
>>
def
   << /ShadingType 2
      /ColorSpace /DeviceRGB
      /Coords [ -50.507 438.506989 406.752991 -18.753 ]
      /Extend [ true true ]
      /Function CairoFunction
   >>
shfill
Q
q
192 246 m 165.305 246 141.238 262.082 131.023 286.742 c 120.809 311.406
 126.457 339.793 145.332 358.668 c 164.207 377.543 192.594 383.191 217.258
 372.977 c 241.918 362.762 258 338.695 258 312 c 257.957 275.566 228.434
 246.043 192 246 c h
192 366 m 170.16 366 150.469 352.844 142.109 332.664 c 133.754 312.488 
138.371 289.262 153.816 273.816 c 169.262 258.371 192.488 253.754 212.664
 262.109 c 232.844 270.469 246 290.16 246 312 c 245.965 341.809 221.809 
365.965 192 366 c h
192 366 m W n
[0.75 0 0 0.75 0 0] concat
/CairoFunction
<< /FunctionType 3
   /Domain [ 0 1 ]
   /Functions [
   << /FunctionType 2
      /Domain [ 0 1 ]
      /C0 [ 0 0.247059 0.541176 ]
      /C1 [ 0 0.843137 0.87451 ]
      /N 1
   >>
   << /FunctionType 2
      /Domain [ 0 1 ]
      /C0 [ 0 0.843137 0.87451 ]
      /C1 [ 0 0.427451 0.941176 ]
      /N 1
   >>
   ]
   /Bounds [ 0.518 ]
   /Encode [ 1 1 2 { pop 0 1 } for ]
>>
def
   << /ShadingType 2
      /ColorSpace /DeviceRGB
      /Coords [ 91.492996 580.507019 548.752991 123.247002 ]
      /Extend [ true true ]
      /Function CairoFunction
   >>
shfill
Q
q
216 324 m 168 324 l 164.688 324 162 326.688 162 330 c 162 343.234 175.457
 354 192 354 c 208.543 354 222 343.234 222 330 c 222 326.688 219.312 324
 216 324 c h
192 342 m 185.492 342 179.66 339.555 176.496 336 c 207.504 336 l 204.34
 339.555 198.508 342 192 342 c h
192 342 m W n
[0.75 0 0 0.75 0 0] concat
/CairoFunction
<< /FunctionType 3
   /Domain [ 0 1 ]
   /Functions [
   << /FunctionType 2
      /Domain [ 0 1 ]
      /C0 [ 0 0.247059 0.541176 ]
      /C1 [ 0 0.843137 0.87451 ]
      /N 1
   >>
   << /FunctionType 2
      /Domain [ 0 1 ]
      /C0 [ 0 0.843137 0.87451 ]
      /C1 [ 0 0.427451 0.941176 ]
      /N 1
   >>
   ]
   /Bounds [ 0.518 ]
   /Encode [ 1 1 2 { pop 0 1 } for ]
>>
def
   << /ShadingType 2
      /ColorSpace /DeviceRGB
      /Coords [ 105.466003 594.47998 562.724976 137.220001 ]
      /Extend [ true true ]
      /Function CairoFunction
   >>
shfill
Q
q
174 300 m 174 303.312 171.312 306 168 306 c 164.688 306 162 303.312 162
 300 c 162 296.688 164.688 294 168 294 c 171.312 294 174 296.688 174 300
 c h
174 300 m W n
[0.75 0 0 0.75 0 0] concat
/CairoFunction
<< /FunctionType 3
   /Domain [ 0 1 ]
   /Functions [
   << /FunctionType 2
      /Domain [ 0 1 ]
      /C0 [ 0 0.247059 0.541176 ]
      /C1 [ 0 0.843137 0.87451 ]
      /N 1
   >>
   << /FunctionType 2
      /Domain [ 0 1 ]
      /C0 [ 0 0.843137 0.87451 ]
      /C1 [ 0 0.427451 0.941176 ]
      /N 1
   >>
   ]
   /Bounds [ 0.518 ]
   /Encode [ 1 1 2 { pop 0 1 } for ]
>>
def
   << /ShadingType 2
      /ColorSpace /DeviceRGB
      /Coords [ 67.492996 556.507019 524.752991 99.247002 ]
      /Extend [ true true ]
      /Function CairoFunction
   >>
shfill
Q
q
222 300 m 222 303.312 219.312 306 216 306 c 212.688 306 210 303.312 210
 300 c 210 296.688 212.688 294 216 294 c 219.312 294 222 296.688 222 300
 c h
222 300 m W n
[0.75 0 0 0.75 0 0] concat
/CairoFunction
<< /FunctionType 3
   /Domain [ 0 1 ]
   /Functions [
   << /FunctionType 2
      /Domain [ 0 1 ]
      /C0 [ 0 0.247059 0.541176 ]
      /C1 [ 0 0.843137 0.87451 ]
      /N 1
   >>
   << /FunctionType 2
      /Domain [ 0 1 ]
      /C0 [ 0 0.843137 0.87451 ]
      /C1 [ 0 0.427451 0.941176 ]
      /N 1
   >>
   ]
   /Bounds [ 0.518 ]
   /Encode [ 1 1 2 { pop 0 1 } for ]
>>
def
   << /ShadingType 2
      /ColorSpace /DeviceRGB
      /Coords [ 99.492996 588.507019 556.752991 131.246994 ]
      /Extend [ true true ]
      /Function CairoFunction
   >>
shfill
Q
Q Q
showpage
%%Trailer
end
%%EOF
