%!PS-Adobe-3.0 EPSF-3.0
%%Creator: cairo 1.16.0 (https://cairographics.org)
%%CreationDate: Thu Dec  3 11:23:46 2020
%%Pages: 1
%%DocumentData: Clean7Bit
%%LanguageLevel: 3
%%BoundingBox: 6 6 378 378
%%EndComments
%%BeginProlog
50 dict begin
/q { gsave } bind def
/Q { grestore } bind def
/cm { 6 array astore concat } bind def
/w { setlinewidth } bind def
/J { setlinecap } bind def
/j { setlinejoin } bind def
/M { setmiterlimit } bind def
/d { setdash } bind def
/m { moveto } bind def
/l { lineto } bind def
/c { curveto } bind def
/h { closepath } bind def
/re { exch dup neg 3 1 roll 5 3 roll moveto 0 rlineto
      0 exch rlineto 0 rlineto closepath } bind def
/S { stroke } bind def
/f { fill } bind def
/f* { eofill } bind def
/n { newpath } bind def
/W { clip } bind def
/W* { eoclip } bind def
/BT { } bind def
/ET { } bind def
/BDC { mark 3 1 roll /BDC pdfmark } bind def
/EMC { mark /EMC pdfmark } bind def
/cairo_store_point { /cairo_point_y exch def /cairo_point_x exch def } def
/Tj { show currentpoint cairo_store_point } bind def
/TJ {
  {
    dup
    type /stringtype eq
    { show } { -0.001 mul 0 cairo_font_matrix dtransform rmoveto } ifelse
  } forall
  currentpoint cairo_store_point
} bind def
/cairo_selectfont { cairo_font_matrix aload pop pop pop 0 0 6 array astore
    cairo_font exch selectfont cairo_point_x cairo_point_y moveto } bind def
/Tf { pop /cairo_font exch def /cairo_font_matrix where
      { pop cairo_selectfont } if } bind def
/Td { matrix translate cairo_font_matrix matrix concatmatrix dup
      /cairo_font_matrix exch def dup 4 get exch 5 get cairo_store_point
      /cairo_font where { pop cairo_selectfont } if } bind def
/Tm { 2 copy 8 2 roll 6 array astore /cairo_font_matrix exch def
      cairo_store_point /cairo_font where { pop cairo_selectfont } if } bind def
/g { setgray } bind def
/rg { setrgbcolor } bind def
/d1 { setcachedevice } bind def
/cairo_data_source {
  CairoDataIndex CairoData length lt
    { CairoData CairoDataIndex get /CairoDataIndex CairoDataIndex 1 add def }
    { () } ifelse
} def
/cairo_flush_ascii85_file { cairo_ascii85_file status { cairo_ascii85_file flushfile } if } def
/cairo_image { image cairo_flush_ascii85_file } def
/cairo_imagemask { imagemask cairo_flush_ascii85_file } def
%%EndProlog
%%BeginSetup
%%EndSetup
%%Page: 1 1
%%BeginPageSetup
%%PageBoundingBox: 6 6 378 378
%%EndPageSetup
q 6 6 372 372 rectclip
1 0 0 -1 0 384 cm q
q
241.602 80.344 m 211.773 74.781 l 197.27 48.133 l 196.219 46.203 194.195
 45 192 45 c 189.805 45 187.781 46.203 186.73 48.133 c 172.227 74.781 l 
142.398 80.344 l 140.234 80.746 138.469 82.297 137.789 84.387 c 137.109 
86.477 137.629 88.77 139.141 90.367 c 160.004 112.398 l 156.074 142.484 
l 155.789 144.66 156.719 146.82 158.496 148.113 c 160.277 149.406 162.617
 149.621 164.602 148.68 c 192 135.645 l 219.398 148.68 l 221.383 149.621
 223.727 149.406 225.504 148.113 c 227.281 146.82 228.211 144.66 227.926
 142.484 c 223.996 112.398 l 244.859 90.367 l 246.371 88.77 246.891 86.477
 246.211 84.387 c 245.531 82.297 243.766 80.746 241.602 80.344 c h
213.32 106.219 m 212.078 107.527 211.496 109.328 211.73 111.121 c 214.602
 133.105 l 194.574 123.582 l 192.945 122.805 191.051 122.805 189.418 123.582
 c 169.395 133.105 l 172.266 111.121 l 172.5 109.328 171.914 107.527 170.672
 106.219 c 155.426 90.117 l 177.223 86.055 l 179 85.723 180.531 84.609 181.395
 83.023 c 192 63.551 l 202.602 83.023 l 203.465 84.609 204.996 85.723 206.77
 86.055 c 228.566 90.121 l h
213.32 106.219 m W n
[0.75 0 0 0.75 0 0] concat
/CairoFunction
<< /FunctionType 3
   /Domain [ 0 1 ]
   /Functions [
   << /FunctionType 2
      /Domain [ 0 1 ]
      /C0 [ 0 0.247059 0.541176 ]
      /C1 [ 0 0.843137 0.87451 ]
      /N 1
   >>
   << /FunctionType 2
      /Domain [ 0 1 ]
      /C0 [ 0 0.843137 0.87451 ]
      /C1 [ 0 0.427451 0.941176 ]
      /N 1
   >>
   ]
   /Bounds [ 0.518 ]
   /Encode [ 1 1 2 { pop 0 1 } for ]
>>
def
   << /ShadingType 2
      /ColorSpace /DeviceRGB
      /Coords [ -42.490002 439.139008 453.06601 -56.417 ]
      /Extend [ true true ]
      /Function CairoFunction
   >>
shfill
Q
q
357 6 m 27 6 l 15.406 6.012 6.012 15.406 6 27 c 6 171 l 6.012 182.594 15.406
 191.988 27 192 c 167.297 192 l 186.629 230.684 l 187.648 232.719 189.727
 234 192 234 c 194.273 234 196.352 232.719 197.371 230.684 c 216.703 192
 l 357 192 l 368.594 191.988 377.988 182.594 378 171 c 378 27 l 377.988 
15.406 368.594 6.012 357 6 c h
366 171 m 365.996 175.969 361.969 179.996 357 180 c 213 180 l 210.727 180
 208.648 181.285 207.629 183.316 c 192 214.582 l 176.371 183.316 l 175.352
 181.285 173.273 180 171 180 c 27 180 l 22.031 179.996 18.004 175.969 18
 171 c 18 27 l 18.004 22.031 22.031 18.004 27 18 c 357 18 l 361.969 18.004
 365.996 22.031 366 27 c h
366 171 m W n
[0.75 0 0 0.75 0 0] concat
/CairoFunction
<< /FunctionType 3
   /Domain [ 0 1 ]
   /Functions [
   << /FunctionType 2
      /Domain [ 0 1 ]
      /C0 [ 0 0.247059 0.541176 ]
      /C1 [ 0 0.843137 0.87451 ]
      /N 1
   >>
   << /FunctionType 2
      /Domain [ 0 1 ]
      /C0 [ 0 0.843137 0.87451 ]
      /C1 [ 0 0.427451 0.941176 ]
      /N 1
   >>
   ]
   /Bounds [ 0.518 ]
   /Encode [ 1 1 2 { pop 0 1 } for ]
>>
def
   << /ShadingType 2
      /ColorSpace /DeviceRGB
      /Coords [ -46.813999 434.813995 448.740997 -60.741001 ]
      /Extend [ true true ]
      /Function CairoFunction
   >>
shfill
Q
q
192 246 m 165.305 246 141.238 262.082 131.023 286.742 c 120.809 311.406
 126.457 339.793 145.332 358.668 c 164.207 377.543 192.594 383.191 217.258
 372.977 c 241.918 362.762 258 338.695 258 312 c 257.957 275.566 228.434
 246.043 192 246 c h
192 366 m 170.16 366 150.469 352.844 142.109 332.664 c 133.754 312.488 
138.371 289.262 153.816 273.816 c 169.262 258.371 192.488 253.754 212.664
 262.109 c 232.844 270.469 246 290.16 246 312 c 245.965 341.809 221.809 
365.965 192 366 c h
192 366 m W n
[0.75 0 0 0.75 0 0] concat
/CairoFunction
<< /FunctionType 3
   /Domain [ 0 1 ]
   /Functions [
   << /FunctionType 2
      /Domain [ 0 1 ]
      /C0 [ 0 0.247059 0.541176 ]
      /C1 [ 0 0.843137 0.87451 ]
      /N 1
   >>
   << /FunctionType 2
      /Domain [ 0 1 ]
      /C0 [ 0 0.843137 0.87451 ]
      /C1 [ 0 0.427451 0.941176 ]
      /N 1
   >>
   ]
   /Bounds [ 0.518 ]
   /Encode [ 1 1 2 { pop 0 1 } for ]
>>
def
   << /ShadingType 2
      /ColorSpace /DeviceRGB
      /Coords [ 95.185997 576.814026 590.741028 81.259003 ]
      /Extend [ true true ]
      /Function CairoFunction
   >>
shfill
Q
q
192 318 m 175.457 318 162 328.766 162 342 c 162 345.312 164.688 348 168
 348 c 171.312 348 174 345.312 174 342 c 174 335.496 182.242 330 192 330
 c 201.758 330 210 335.496 210 342 c 210 345.312 212.688 348 216 348 c 219.312
 348 222 345.312 222 342 c 222 328.766 208.543 318 192 318 c h
192 318 m W n
[0.75 0 0 0.75 0 0] concat
/CairoFunction
<< /FunctionType 3
   /Domain [ 0 1 ]
   /Functions [
   << /FunctionType 2
      /Domain [ 0 1 ]
      /C0 [ 0 0.247059 0.541176 ]
      /C1 [ 0 0.843137 0.87451 ]
      /N 1
   >>
   << /FunctionType 2
      /Domain [ 0 1 ]
      /C0 [ 0 0.843137 0.87451 ]
      /C1 [ 0 0.427451 0.941176 ]
      /N 1
   >>
   ]
   /Bounds [ 0.518 ]
   /Encode [ 1 1 2 { pop 0 1 } for ]
>>
def
   << /ShadingType 2
      /ColorSpace /DeviceRGB
      /Coords [ 113.212997 594.84198 608.768982 99.286003 ]
      /Extend [ true true ]
      /Function CairoFunction
   >>
shfill
Q
q
174 294 m 174 297.312 171.312 300 168 300 c 164.688 300 162 297.312 162
 294 c 162 290.688 164.688 288 168 288 c 171.312 288 174 290.688 174 294
 c h
174 294 m W n
[0.75 0 0 0.75 0 0] concat
/CairoFunction
<< /FunctionType 3
   /Domain [ 0 1 ]
   /Functions [
   << /FunctionType 2
      /Domain [ 0 1 ]
      /C0 [ 0 0.247059 0.541176 ]
      /C1 [ 0 0.843137 0.87451 ]
      /N 1
   >>
   << /FunctionType 2
      /Domain [ 0 1 ]
      /C0 [ 0 0.843137 0.87451 ]
      /C1 [ 0 0.427451 0.941176 ]
      /N 1
   >>
   ]
   /Bounds [ 0.518 ]
   /Encode [ 1 1 2 { pop 0 1 } for ]
>>
def
   << /ShadingType 2
      /ColorSpace /DeviceRGB
      /Coords [ 67.185997 548.814026 562.741028 53.258999 ]
      /Extend [ true true ]
      /Function CairoFunction
   >>
shfill
Q
q
222 294 m 222 297.312 219.312 300 216 300 c 212.688 300 210 297.312 210
 294 c 210 290.688 212.688 288 216 288 c 219.312 288 222 290.688 222 294
 c h
222 294 m W n
[0.75 0 0 0.75 0 0] concat
/CairoFunction
<< /FunctionType 3
   /Domain [ 0 1 ]
   /Functions [
   << /FunctionType 2
      /Domain [ 0 1 ]
      /C0 [ 0 0.247059 0.541176 ]
      /C1 [ 0 0.843137 0.87451 ]
      /N 1
   >>
   << /FunctionType 2
      /Domain [ 0 1 ]
      /C0 [ 0 0.843137 0.87451 ]
      /C1 [ 0 0.427451 0.941176 ]
      /N 1
   >>
   ]
   /Bounds [ 0.518 ]
   /Encode [ 1 1 2 { pop 0 1 } for ]
>>
def
   << /ShadingType 2
      /ColorSpace /DeviceRGB
      /Coords [ 99.185997 580.814026 594.741028 85.259003 ]
      /Extend [ true true ]
      /Function CairoFunction
   >>
shfill
Q
Q Q
showpage
%%Trailer
end
%%EOF
