%!PS-Adobe-3.0 EPSF-3.0
%%Creator: cairo 1.16.0 (https://cairographics.org)
%%CreationDate: Thu Dec  3 11:23:46 2020
%%Pages: 1
%%DocumentData: Clean7Bit
%%LanguageLevel: 3
%%BoundingBox: 6 6 378 378
%%EndComments
%%BeginProlog
50 dict begin
/q { gsave } bind def
/Q { grestore } bind def
/cm { 6 array astore concat } bind def
/w { setlinewidth } bind def
/J { setlinecap } bind def
/j { setlinejoin } bind def
/M { setmiterlimit } bind def
/d { setdash } bind def
/m { moveto } bind def
/l { lineto } bind def
/c { curveto } bind def
/h { closepath } bind def
/re { exch dup neg 3 1 roll 5 3 roll moveto 0 rlineto
      0 exch rlineto 0 rlineto closepath } bind def
/S { stroke } bind def
/f { fill } bind def
/f* { eofill } bind def
/n { newpath } bind def
/W { clip } bind def
/W* { eoclip } bind def
/BT { } bind def
/ET { } bind def
/BDC { mark 3 1 roll /BDC pdfmark } bind def
/EMC { mark /EMC pdfmark } bind def
/cairo_store_point { /cairo_point_y exch def /cairo_point_x exch def } def
/Tj { show currentpoint cairo_store_point } bind def
/TJ {
  {
    dup
    type /stringtype eq
    { show } { -0.001 mul 0 cairo_font_matrix dtransform rmoveto } ifelse
  } forall
  currentpoint cairo_store_point
} bind def
/cairo_selectfont { cairo_font_matrix aload pop pop pop 0 0 6 array astore
    cairo_font exch selectfont cairo_point_x cairo_point_y moveto } bind def
/Tf { pop /cairo_font exch def /cairo_font_matrix where
      { pop cairo_selectfont } if } bind def
/Td { matrix translate cairo_font_matrix matrix concatmatrix dup
      /cairo_font_matrix exch def dup 4 get exch 5 get cairo_store_point
      /cairo_font where { pop cairo_selectfont } if } bind def
/Tm { 2 copy 8 2 roll 6 array astore /cairo_font_matrix exch def
      cairo_store_point /cairo_font where { pop cairo_selectfont } if } bind def
/g { setgray } bind def
/rg { setrgbcolor } bind def
/d1 { setcachedevice } bind def
/cairo_data_source {
  CairoDataIndex CairoData length lt
    { CairoData CairoDataIndex get /CairoDataIndex CairoDataIndex 1 add def }
    { () } ifelse
} def
/cairo_flush_ascii85_file { cairo_ascii85_file status { cairo_ascii85_file flushfile } if } def
/cairo_image { image cairo_flush_ascii85_file } def
/cairo_imagemask { imagemask cairo_flush_ascii85_file } def
%%EndProlog
%%BeginSetup
%%EndSetup
%%Page: 1 1
%%BeginPageSetup
%%PageBoundingBox: 6 6 378 378
%%EndPageSetup
q 6 6 372 372 rectclip
1 0 0 -1 0 384 cm q
q
144 138 m 144 144.629 138.629 150 132 150 c 125.371 150 120 144.629 120
 138 c 120 131.371 125.371 126 132 126 c 138.629 126 144 131.371 144 138
 c h
144 138 m W n
[0.75 0 0 0.75 0 0] concat
/CairoFunction
<< /FunctionType 3
   /Domain [ 0 1 ]
   /Functions [
   << /FunctionType 2
      /Domain [ 0 1 ]
      /C0 [ 0 0.247059 0.541176 ]
      /C1 [ 0 0.843137 0.87451 ]
      /N 1
   >>
   << /FunctionType 2
      /Domain [ 0 1 ]
      /C0 [ 0 0.843137 0.87451 ]
      /C1 [ 0 0.427451 0.941176 ]
      /N 1
   >>
   ]
   /Bounds [ 0.518 ]
   /Encode [ 1 1 2 { pop 0 1 } for ]
>>
def
   << /ShadingType 2
      /ColorSpace /DeviceRGB
      /Coords [ -60.049 420.049011 425.265991 -65.265999 ]
      /Extend [ true true ]
      /Function CairoFunction
   >>
shfill
Q
q
216 138 m 216 144.629 210.629 150 204 150 c 197.371 150 192 144.629 192
 138 c 192 131.371 197.371 126 204 126 c 210.629 126 216 131.371 216 138
 c h
216 138 m W n
[0.75 0 0 0.75 0 0] concat
/CairoFunction
<< /FunctionType 3
   /Domain [ 0 1 ]
   /Functions [
   << /FunctionType 2
      /Domain [ 0 1 ]
      /C0 [ 0 0.247059 0.541176 ]
      /C1 [ 0 0.843137 0.87451 ]
      /N 1
   >>
   << /FunctionType 2
      /Domain [ 0 1 ]
      /C0 [ 0 0.843137 0.87451 ]
      /C1 [ 0 0.427451 0.941176 ]
      /N 1
   >>
   ]
   /Bounds [ 0.518 ]
   /Encode [ 1 1 2 { pop 0 1 } for ]
>>
def
   << /ShadingType 2
      /ColorSpace /DeviceRGB
      /Coords [ -12.049 468.049011 473.265991 -17.266001 ]
      /Extend [ true true ]
      /Function CairoFunction
   >>
shfill
Q
q
363 294 m 348 294 l 348 288 l 354 288 l 357.312 288 360 285.312 360 282
 c 360 240 l 360 236.688 357.312 234 354 234 c 349.441 234 l 354.98 225.719
 355.512 215.059 350.816 206.27 c 346.121 197.48 336.965 191.996 327 192
 c 321 192 l 311.035 191.996 301.879 197.48 297.184 206.27 c 292.488 215.059
 293.02 225.719 298.559 234 c 294 234 l 290.688 234 288 236.688 288 240 
c 288 260.781 l 285.645 259.863 283.242 259.078 280.801 258.426 c 216 241.371
 l 216 226.762 l 232.828 213.766 246.879 195.148 250.859 174 c 255 174 l
 266.594 173.988 275.988 164.594 276 153 c 276 135 l 275.988 123.406 266.594
 114.012 255 114 c 252 114 l 252 90 l 252 43.609 214.391 6 168 6 c 121.609
 6 84 43.609 84 90 c 84 114 l 81 114 l 69.406 114.012 60.012 123.406 60 
135 c 60 153 l 60.012 164.594 69.406 173.988 81 174 c 85.141 174 l 89.121
 195.148 103.172 213.766 120 226.762 c 120 241.371 l 55.207 258.426 l 26.219
 266.066 6.012 292.273 6 322.254 c 6 372 l 6 375.312 8.688 378 12 378 c 
363 378 l 371.281 377.992 377.992 371.281 378 363 c 378 309 l 377.992 300.719
 371.281 294.008 363 294 c h
252 126 m 255 126 l 259.969 126.004 263.996 130.031 264 135 c 264 153 l
 263.996 157.969 259.969 161.996 255 162 c 252 162 l h
84 162 m 81 162 l 76.031 161.996 72.004 157.969 72 153 c 72 135 l 72.004
 130.031 76.031 126.004 81 126 c 84 126 l h
321 204 m 327 204 l 335.285 204 342 210.715 342 219 c 342 227.285 335.285
 234 327 234 c 321 234 l 312.715 234 306 227.285 306 219 c 306 210.715 312.715
 204 321 204 c h
226.77 256.621 m 201.816 304.051 l 177.57 292.172 l 212.07 252.75 l h
186.367 309.84 m 176.297 330 l 159.703 330 l 149.648 309.887 l 167.859 
300.781 l h
132 243.742 m 132 234.824 l 144.285 241.934 157.094 246 168 246 c 178.906
 246 191.715 241.934 204 234.824 c 204 243.742 l 168 284.887 l h
96 90 m 96 50.234 128.234 18 168 18 c 207.766 18 240 50.234 240 90 c 240
 104.484 l 227.309 100.309 216.398 91.977 209.023 80.836 c 207.234 78.191
 203.691 77.41 200.953 79.059 c 200.496 79.328 156.367 105.504 96 107.168
 c h
96 162 m 96 119.168 l 148.695 117.816 188.871 99.137 202.336 92.016 c 211.812
 104.238 225.051 113 240 116.953 c 240 162 l 240 172.312 236.656 192.602
 214.246 212.684 c 199.801 225.629 181.641 234 168 234 c 154.359 234 136.199
 225.629 121.754 212.684 c 99.344 192.602 96 172.312 96 162 c h
123.93 252.75 m 158.371 292.109 l 134.574 304.004 l 109.59 256.523 l h
144.914 366 m 72 366 l 72 330 l 72 326.688 69.312 324 66 324 c 62.688 324
 60 326.688 60 330 c 60 366 l 18 366 l 18 322.254 l 18.012 297.727 34.543
 276.285 58.262 270.039 c 97.68 259.656 l 126.691 314.789 l 128.211 317.68
 131.762 318.824 134.684 317.371 c 138.914 315.246 l 149.762 336.938 l h
157.078 366 m 161.086 342 l 175.02 342 l 179.52 366 l h
276 366 m 234 366 l 234 354 l 252 354 l 252 357.312 254.688 360 258 360
 c 261.312 360 264 357.312 264 354 c 276 354 l h
300 330 m 297 330 l 295.344 330 294 328.656 294 327 c 294 309 l 294 307.344
 295.344 306 297 306 c 300 306 l h
300 294 m 297 294 l 288.719 294.008 282.008 300.719 282 309 c 282 327 l
 282.008 335.281 288.719 341.992 297 342 c 300 342 l 300 366 l 288 366 l
 288 348 l 288 344.688 285.312 342 282 342 c 264 342 l 264 338.688 261.312
 336 258 336 c 254.688 336 252 338.688 252 342 c 228 342 l 224.688 342 222
 344.688 222 348 c 222 366 l 191.73 366 l 186.27 336.879 l 197.145 315.121
 l 201.773 317.387 l 202.59 317.789 203.492 318 204.406 318 c 206.637 318.004
 208.684 316.766 209.723 314.789 c 238.68 259.754 l 277.746 270.039 l 281.285
 270.965 284.723 272.254 288 273.879 c 288 282 l 288 285.312 290.688 288
 294 288 c 300 288 l h
300 246 m 348 246 l 348 276 l 300 276 l h
318.301 366 m 312 366 l 312 288 l 336 288 l 336 294 l 333 294 l 324.719
 294.008 318.008 300.719 318 309 c 318 363 l 318 364.008 318.102 365.012
 318.301 366 c h
366 363 m 366 364.656 364.656 366 363 366 c 333 366 l 331.344 366 330 364.656
 330 363 c 330 309 l 330 307.344 331.344 306 333 306 c 363 306 l 364.656
 306 366 307.344 366 309 c h
366 363 m W n
[0.75 0 0 0.75 0 0] concat
/CairoFunction
<< /FunctionType 3
   /Domain [ 0 1 ]
   /Functions [
   << /FunctionType 2
      /Domain [ 0 1 ]
      /C0 [ 0 0.247059 0.541176 ]
      /C1 [ 0 0.843137 0.87451 ]
      /N 1
   >>
   << /FunctionType 2
      /Domain [ 0 1 ]
      /C0 [ 0 0.843137 0.87451 ]
      /C1 [ 0 0.427451 0.941176 ]
      /N 1
   >>
   ]
   /Bounds [ 0.518 ]
   /Encode [ 1 1 2 { pop 0 1 } for ]
>>
def
   << /ShadingType 2
      /ColorSpace /DeviceRGB
      /Coords [ 55.438999 535.536987 540.754028 50.222 ]
      /Extend [ true true ]
      /Function CairoFunction
   >>
shfill
Q
q
156 198 m 180 198 l 183.312 198 186 195.312 186 192 c 186 188.688 183.312
 186 180 186 c 156 186 l 152.688 186 150 188.688 150 192 c 150 195.312 152.688
 198 156 198 c h
156 198 m W n
[0.75 0 0 0.75 0 0] concat
/CairoFunction
<< /FunctionType 3
   /Domain [ 0 1 ]
   /Functions [
   << /FunctionType 2
      /Domain [ 0 1 ]
      /C0 [ 0 0.247059 0.541176 ]
      /C1 [ 0 0.843137 0.87451 ]
      /N 1
   >>
   << /FunctionType 2
      /Domain [ 0 1 ]
      /C0 [ 0 0.843137 0.87451 ]
      /C1 [ 0 0.427451 0.941176 ]
      /N 1
   >>
   ]
   /Bounds [ 0.518 ]
   /Encode [ 1 1 2 { pop 0 1 } for ]
>>
def
   << /ShadingType 2
      /ColorSpace /DeviceRGB
      /Coords [ -0.049 480.049011 485.265991 -5.266 ]
      /Extend [ true true ]
      /Function CairoFunction
   >>
shfill
Q
Q Q
showpage
%%Trailer
end
%%EOF
