%!PS-Adobe-3.0 EPSF-3.0
%%Creator: cairo 1.16.0 (https://cairographics.org)
%%CreationDate: Thu Dec  3 11:23:47 2020
%%Pages: 1
%%DocumentData: Clean7Bit
%%LanguageLevel: 3
%%BoundingBox: 6 6 378 378
%%EndComments
%%BeginProlog
50 dict begin
/q { gsave } bind def
/Q { grestore } bind def
/cm { 6 array astore concat } bind def
/w { setlinewidth } bind def
/J { setlinecap } bind def
/j { setlinejoin } bind def
/M { setmiterlimit } bind def
/d { setdash } bind def
/m { moveto } bind def
/l { lineto } bind def
/c { curveto } bind def
/h { closepath } bind def
/re { exch dup neg 3 1 roll 5 3 roll moveto 0 rlineto
      0 exch rlineto 0 rlineto closepath } bind def
/S { stroke } bind def
/f { fill } bind def
/f* { eofill } bind def
/n { newpath } bind def
/W { clip } bind def
/W* { eoclip } bind def
/BT { } bind def
/ET { } bind def
/BDC { mark 3 1 roll /BDC pdfmark } bind def
/EMC { mark /EMC pdfmark } bind def
/cairo_store_point { /cairo_point_y exch def /cairo_point_x exch def } def
/Tj { show currentpoint cairo_store_point } bind def
/TJ {
  {
    dup
    type /stringtype eq
    { show } { -0.001 mul 0 cairo_font_matrix dtransform rmoveto } ifelse
  } forall
  currentpoint cairo_store_point
} bind def
/cairo_selectfont { cairo_font_matrix aload pop pop pop 0 0 6 array astore
    cairo_font exch selectfont cairo_point_x cairo_point_y moveto } bind def
/Tf { pop /cairo_font exch def /cairo_font_matrix where
      { pop cairo_selectfont } if } bind def
/Td { matrix translate cairo_font_matrix matrix concatmatrix dup
      /cairo_font_matrix exch def dup 4 get exch 5 get cairo_store_point
      /cairo_font where { pop cairo_selectfont } if } bind def
/Tm { 2 copy 8 2 roll 6 array astore /cairo_font_matrix exch def
      cairo_store_point /cairo_font where { pop cairo_selectfont } if } bind def
/g { setgray } bind def
/rg { setrgbcolor } bind def
/d1 { setcachedevice } bind def
/cairo_data_source {
  CairoDataIndex CairoData length lt
    { CairoData CairoDataIndex get /CairoDataIndex CairoDataIndex 1 add def }
    { () } ifelse
} def
/cairo_flush_ascii85_file { cairo_ascii85_file status { cairo_ascii85_file flushfile } if } def
/cairo_image { image cairo_flush_ascii85_file } def
/cairo_imagemask { imagemask cairo_flush_ascii85_file } def
%%EndProlog
%%BeginSetup
%%EndSetup
%%Page: 1 1
%%BeginPageSetup
%%PageBoundingBox: 6 6 378 378
%%EndPageSetup
q 6 6 372 372 rectclip
1 0 0 -1 0 384 cm q
q
357 66 m 275.086 66 l 275.992 48.309 l 276.121 45.859 274.742 43.578 272.512
 42.555 c 194.512 6.555 l 192.918 5.812 191.082 5.812 189.488 6.555 c 111.488
 42.555 l 109.27 43.57 107.895 45.832 108.008 48.27 c 108.809 66 l 27 66
 l 15.406 66.012 6.012 75.406 6 87 c 6 309 l 6.012 320.594 15.406 329.988
 27 330 c 147.93 330 l 144.328 348 l 102 348 l 98.688 348 96 350.688 96 
354 c 96 372 l 96 375.312 98.688 378 102 378 c 282 378 l 285.312 378 288
 375.312 288 372 c 288 354 l 288 350.688 285.312 348 282 348 c 238.801 348
 l 234.75 330 l 357 330 l 368.594 329.988 377.988 320.594 378 309 c 378 
87 l 377.988 75.406 368.594 66.012 357 66 c h
192 18.609 m 263.797 51.75 l 257.438 176.211 l 191.984 209.289 l 125.836
 176.211 l 120.18 51.758 l h
276 360 m 276 366 l 108 366 l 108 360 l h
156.57 348 m 160.172 330 l 222.449 330 l 226.5 348 l h
366 309 m 365.996 313.969 361.969 317.996 357 318 c 27 318 l 22.031 317.996
 18.004 313.969 18 309 c 18 294 l 366 294 l h
366 282 m 18 282 l 18 87 l 18.004 82.031 22.031 78.004 27 78 c 109.359 
78 l 114.008 180.27 l 114.105 182.445 115.371 184.395 117.316 185.371 c 
189.316 221.371 l 191.016 222.215 193.012 222.211 194.707 221.355 c 265.957
 185.355 l 267.879 184.383 269.133 182.457 269.242 180.309 c 274.477 78 
l 357 78 l 361.969 78.004 365.996 82.031 366 87 c h
366 282 m W n
[0.75 0 0 0.75 0 0] concat
/CairoFunction
<< /FunctionType 3
   /Domain [ 0 1 ]
   /Functions [
   << /FunctionType 2
      /Domain [ 0 1 ]
      /C0 [ 0 0.247059 0.541176 ]
      /C1 [ 0 0.843137 0.87451 ]
      /N 1
   >>
   << /FunctionType 2
      /Domain [ 0 1 ]
      /C0 [ 0 0.843137 0.87451 ]
      /C1 [ 0 0.427451 0.941176 ]
      /N 1
   >>
   ]
   /Bounds [ 0.518 ]
   /Encode [ 1 1 2 { pop 0 1 } for ]
>>
def
   << /ShadingType 2
      /ColorSpace /DeviceRGB
      /Coords [ 6.592 513.40802 456.084991 63.915001 ]
      /Extend [ true true ]
      /Function CairoFunction
   >>
shfill
Q
q
140.652 170.203 m 189.262 194.504 l 190.957 195.355 192.957 195.352 194.648
 194.496 c 242.699 170.219 l 244.621 169.246 245.875 167.32 245.984 165.168
 c 251.195 63.293 l 251.32 60.848 249.941 58.566 247.715 57.539 c 194.516
 32.984 l 192.918 32.25 191.082 32.25 189.484 32.984 c 136.191 57.586 l 
133.98 58.605 132.602 60.867 132.715 63.305 c 137.34 165.113 l 137.441 167.281
 138.707 169.23 140.652 170.203 c h
192 45.043 m 239.004 66.734 l 234.18 161.078 l 191.93 182.422 l 149.168
 161.047 l 144.887 66.785 l h
192 45.043 m W n
[0.75 0 0 0.75 0 0] concat
/CairoFunction
<< /FunctionType 3
   /Domain [ 0 1 ]
   /Functions [
   << /FunctionType 2
      /Domain [ 0 1 ]
      /C0 [ 0 0.247059 0.541176 ]
      /C1 [ 0 0.843137 0.87451 ]
      /N 1
   >>
   << /FunctionType 2
      /Domain [ 0 1 ]
      /C0 [ 0 0.843137 0.87451 ]
      /C1 [ 0 0.427451 0.941176 ]
      /N 1
   >>
   ]
   /Bounds [ 0.518 ]
   /Encode [ 1 1 2 { pop 0 1 } for ]
>>
def
   << /ShadingType 2
      /ColorSpace /DeviceRGB
      /Coords [ -51.210999 455.605011 398.282013 6.113 ]
      /Extend [ true true ]
      /Function CairoFunction
   >>
shfill
Q
q
96 264 m 288 264 l 291.312 264 294 261.312 294 258 c 294 234 l 294 230.688
 291.312 228 288 228 c 96 228 l 92.688 228 90 230.688 90 234 c 90 258 l 
90 261.312 92.688 264 96 264 c h
102 240 m 282 240 l 282 252 l 102 252 l h
102 240 m W n
[0.75 0 0 0.75 0 0] concat
/CairoFunction
<< /FunctionType 3
   /Domain [ 0 1 ]
   /Functions [
   << /FunctionType 2
      /Domain [ 0 1 ]
      /C0 [ 0 0.247059 0.541176 ]
      /C1 [ 0 0.843137 0.87451 ]
      /N 1
   >>
   << /FunctionType 2
      /Domain [ 0 1 ]
      /C0 [ 0 0.843137 0.87451 ]
      /C1 [ 0 0.427451 0.941176 ]
      /N 1
   >>
   ]
   /Bounds [ 0.518 ]
   /Encode [ 1 1 2 { pop 0 1 } for ]
>>
def
   << /ShadingType 2
      /ColorSpace /DeviceRGB
      /Coords [ 38.591999 545.40802 488.084991 95.915001 ]
      /Extend [ true true ]
      /Function CairoFunction
   >>
shfill
Q
Q Q
showpage
%%Trailer
end
%%EOF
