%!PS-Adobe-3.0 EPSF-3.0
%%Creator: cairo 1.16.0 (https://cairographics.org)
%%CreationDate: Thu Dec  3 11:23:48 2020
%%Pages: 1
%%DocumentData: Clean7Bit
%%LanguageLevel: 3
%%BoundingBox: 6 6 378 378
%%EndComments
%%BeginProlog
50 dict begin
/q { gsave } bind def
/Q { grestore } bind def
/cm { 6 array astore concat } bind def
/w { setlinewidth } bind def
/J { setlinecap } bind def
/j { setlinejoin } bind def
/M { setmiterlimit } bind def
/d { setdash } bind def
/m { moveto } bind def
/l { lineto } bind def
/c { curveto } bind def
/h { closepath } bind def
/re { exch dup neg 3 1 roll 5 3 roll moveto 0 rlineto
      0 exch rlineto 0 rlineto closepath } bind def
/S { stroke } bind def
/f { fill } bind def
/f* { eofill } bind def
/n { newpath } bind def
/W { clip } bind def
/W* { eoclip } bind def
/BT { } bind def
/ET { } bind def
/BDC { mark 3 1 roll /BDC pdfmark } bind def
/EMC { mark /EMC pdfmark } bind def
/cairo_store_point { /cairo_point_y exch def /cairo_point_x exch def } def
/Tj { show currentpoint cairo_store_point } bind def
/TJ {
  {
    dup
    type /stringtype eq
    { show } { -0.001 mul 0 cairo_font_matrix dtransform rmoveto } ifelse
  } forall
  currentpoint cairo_store_point
} bind def
/cairo_selectfont { cairo_font_matrix aload pop pop pop 0 0 6 array astore
    cairo_font exch selectfont cairo_point_x cairo_point_y moveto } bind def
/Tf { pop /cairo_font exch def /cairo_font_matrix where
      { pop cairo_selectfont } if } bind def
/Td { matrix translate cairo_font_matrix matrix concatmatrix dup
      /cairo_font_matrix exch def dup 4 get exch 5 get cairo_store_point
      /cairo_font where { pop cairo_selectfont } if } bind def
/Tm { 2 copy 8 2 roll 6 array astore /cairo_font_matrix exch def
      cairo_store_point /cairo_font where { pop cairo_selectfont } if } bind def
/g { setgray } bind def
/rg { setrgbcolor } bind def
/d1 { setcachedevice } bind def
/cairo_data_source {
  CairoDataIndex CairoData length lt
    { CairoData CairoDataIndex get /CairoDataIndex CairoDataIndex 1 add def }
    { () } ifelse
} def
/cairo_flush_ascii85_file { cairo_ascii85_file status { cairo_ascii85_file flushfile } if } def
/cairo_image { image cairo_flush_ascii85_file } def
/cairo_imagemask { imagemask cairo_flush_ascii85_file } def
%%EndProlog
%%BeginSetup
%%EndSetup
%%Page: 1 1
%%BeginPageSetup
%%PageBoundingBox: 6 6 378 378
%%EndPageSetup
q 6 6 372 372 rectclip
1 0 0 -1 0 384 cm q
q
372 144 m 334.148 144 l 331.996 137.648 329.426 131.445 326.445 125.438
 c 353.219 98.664 l 355.562 96.32 355.562 92.523 353.219 90.18 c 293.82 
30.781 l 291.477 28.438 287.68 28.438 285.336 30.781 c 258.562 57.555 l 
252.555 54.574 246.352 52.004 240 49.852 c 240 12 l 240 8.688 237.312 6 
234 6 c 150 6 l 146.688 6 144 8.688 144 12 c 144 49.852 l 137.648 52.004
 131.445 54.574 125.438 57.555 c 98.664 30.781 l 96.32 28.438 92.523 28.438
 90.18 30.781 c 30.781 90.18 l 28.438 92.523 28.438 96.32 30.781 98.664 
c 57.555 125.438 l 54.574 131.445 52.004 137.648 49.852 144 c 12 144 l 8.688
 144 6 146.688 6 150 c 6 234 l 6 237.312 8.688 240 12 240 c 49.852 240 l
 52.004 246.352 54.574 252.555 57.555 258.562 c 30.781 285.336 l 28.438 
287.68 28.438 291.477 30.781 293.82 c 90.18 353.219 l 92.523 355.562 96.32
 355.562 98.664 353.219 c 125.438 326.445 l 131.445 329.426 137.648 331.996
 144 334.148 c 144 372 l 144 375.312 146.688 378 150 378 c 234 378 l 237.312
 378 240 375.312 240 372 c 240 334.148 l 246.352 331.996 252.555 329.426
 258.562 326.445 c 285.336 353.219 l 287.68 355.562 291.477 355.562 293.82
 353.219 c 353.219 293.82 l 355.562 291.477 355.562 287.68 353.219 285.336
 c 326.445 258.562 l 329.422 252.555 331.996 246.352 334.148 240 c 372 240
 l 375.312 240 378 237.312 378 234 c 378 150 l 378 146.688 375.312 144 372
 144 c h
366 228 m 329.766 228 l 327.129 228 324.797 229.727 324.031 232.254 c 321.43
 240.777 318.008 249.027 313.816 256.891 c 312.57 259.219 312.996 262.09
 314.863 263.953 c 340.492 289.582 l 289.582 340.492 l 263.953 314.863 l
 262.09 312.996 259.219 312.57 256.891 313.816 c 249.027 318.008 240.777
 321.43 232.254 324.031 c 229.727 324.797 228 327.129 228 329.766 c 228 
366 l 156 366 l 156 329.766 l 156 327.129 154.273 324.797 151.746 324.031
 c 143.223 321.43 134.973 318.008 127.109 313.816 c 124.781 312.57 121.91
 312.996 120.047 314.863 c 94.418 340.492 l 43.508 289.582 l 69.137 263.953
 l 71.004 262.09 71.43 259.219 70.184 256.891 c 65.988 249.027 62.566 240.777
 59.969 232.254 c 59.203 229.727 56.871 228 54.234 228 c 18 228 l 18 156
 l 54.234 156 l 56.871 156 59.203 154.273 59.969 151.746 c 62.566 143.223
 65.988 134.973 70.184 127.109 c 71.43 124.781 71.004 121.91 69.137 120.047
 c 43.508 94.418 l 94.418 43.508 l 120.047 69.137 l 121.91 71.004 124.781
 71.43 127.109 70.184 c 134.973 65.992 143.223 62.57 151.746 59.969 c 154.273
 59.203 156 56.871 156 54.234 c 156 18 l 228 18 l 228 54.234 l 228 56.871
 229.727 59.203 232.254 59.969 c 240.777 62.57 249.027 65.992 256.891 70.184
 c 259.219 71.43 262.09 71.004 263.953 69.137 c 289.582 43.508 l 340.492
 94.418 l 314.863 120.047 l 312.996 121.91 312.57 124.781 313.816 127.109
 c 318.008 134.973 321.43 143.223 324.031 151.746 c 324.797 154.273 327.129
 156 329.766 156 c 366 156 l h
366 228 m W n
[0.75 0 0 0.75 0 0] concat
/CairoFunction
<< /FunctionType 3
   /Domain [ 0 1 ]
   /Functions [
   << /FunctionType 2
      /Domain [ 0 1 ]
      /C0 [ 0 0.247059 0.541176 ]
      /C1 [ 0 0.843137 0.87451 ]
      /N 1
   >>
   << /FunctionType 2
      /Domain [ 0 1 ]
      /C0 [ 0 0.843137 0.87451 ]
      /C1 [ 0 0.427451 0.941176 ]
      /N 1
   >>
   ]
   /Bounds [ 0.518 ]
   /Encode [ 1 1 2 { pop 0 1 } for ]
>>
def
   << /ShadingType 2
      /ColorSpace /DeviceRGB
      /Coords [ -5.168 517.16803 492.751007 19.249001 ]
      /Extend [ true true ]
      /Function CairoFunction
   >>
shfill
Q
q
192 78 m 129.141 78 78 129.141 78 192 c 78 254.859 129.141 306 192 306 
c 254.859 306 306 254.859 306 192 c 306 129.141 254.859 78 192 78 c h
192 294 m 135.758 294 90 248.242 90 192 c 90 135.758 135.758 90 192 90 
c 248.242 90 294 135.758 294 192 c 294 248.242 248.242 294 192 294 c h
192 294 m W n
[0.75 0 0 0.75 0 0] concat
/CairoFunction
<< /FunctionType 3
   /Domain [ 0 1 ]
   /Functions [
   << /FunctionType 2
      /Domain [ 0 1 ]
      /C0 [ 0 0.247059 0.541176 ]
      /C1 [ 0 0.843137 0.87451 ]
      /N 1
   >>
   << /FunctionType 2
      /Domain [ 0 1 ]
      /C0 [ 0 0.843137 0.87451 ]
      /C1 [ 0 0.427451 0.941176 ]
      /N 1
   >>
   ]
   /Bounds [ 0.518 ]
   /Encode [ 1 1 2 { pop 0 1 } for ]
>>
def
   << /ShadingType 2
      /ColorSpace /DeviceRGB
      /Coords [ -5.168 517.16803 492.751007 19.249001 ]
      /Extend [ true true ]
      /Function CairoFunction
   >>
shfill
Q
q
192 120 m 184.719 120 178.156 124.387 175.371 131.113 c 172.586 137.836
 174.125 145.578 179.273 150.727 c 184.422 155.875 192.164 157.414 198.887
 154.629 c 205.613 151.844 210 145.281 210 138 c 209.988 128.062 201.938
 120.012 192 120 c h
192 144 m 189.574 144 187.387 142.539 186.457 140.297 c 185.527 138.055
 186.043 135.473 187.758 133.758 c 189.473 132.043 192.055 131.527 194.297
 132.457 c 196.539 133.387 198 135.574 198 138 c 197.996 141.312 195.312
 143.996 192 144 c h
192 144 m W n
[0.75 0 0 0.75 0 0] concat
/CairoFunction
<< /FunctionType 3
   /Domain [ 0 1 ]
   /Functions [
   << /FunctionType 2
      /Domain [ 0 1 ]
      /C0 [ 0 0.247059 0.541176 ]
      /C1 [ 0 0.843137 0.87451 ]
      /N 1
   >>
   << /FunctionType 2
      /Domain [ 0 1 ]
      /C0 [ 0 0.843137 0.87451 ]
      /C1 [ 0 0.427451 0.941176 ]
      /N 1
   >>
   ]
   /Bounds [ 0.518 ]
   /Encode [ 1 1 2 { pop 0 1 } for ]
>>
def
   << /ShadingType 2
      /ColorSpace /DeviceRGB
      /Coords [ -41.167999 481.167999 456.751007 -16.750999 ]
      /Extend [ true true ]
      /Function CairoFunction
   >>
shfill
Q
q
204 162 m 180 162 l 176.688 162 174 164.688 174 168 c 174 258 l 174 261.312
 176.688 264 180 264 c 204 264 l 207.312 264 210 261.312 210 258 c 210 168
 l 210 164.688 207.312 162 204 162 c h
198 252 m 186 252 l 186 174 l 198 174 l h
198 252 m W n
[0.75 0 0 0.75 0 0] concat
/CairoFunction
<< /FunctionType 3
   /Domain [ 0 1 ]
   /Functions [
   << /FunctionType 2
      /Domain [ 0 1 ]
      /C0 [ 0 0.247059 0.541176 ]
      /C1 [ 0 0.843137 0.87451 ]
      /N 1
   >>
   << /FunctionType 2
      /Domain [ 0 1 ]
      /C0 [ 0 0.843137 0.87451 ]
      /C1 [ 0 0.427451 0.941176 ]
      /N 1
   >>
   ]
   /Bounds [ 0.518 ]
   /Encode [ 1 1 2 { pop 0 1 } for ]
>>
def
   << /ShadingType 2
      /ColorSpace /DeviceRGB
      /Coords [ 8.832 531.16803 506.751007 33.249001 ]
      /Extend [ true true ]
      /Function CairoFunction
   >>
shfill
Q
Q Q
showpage
%%Trailer
end
%%EOF
