%!PS-Adobe-3.0 EPSF-3.0
%%Creator: cairo 1.16.0 (https://cairographics.org)
%%CreationDate: Thu Dec  3 11:23:49 2020
%%Pages: 1
%%DocumentData: Clean7Bit
%%LanguageLevel: 3
%%BoundingBox: 6 30 378 348
%%EndComments
%%BeginProlog
50 dict begin
/q { gsave } bind def
/Q { grestore } bind def
/cm { 6 array astore concat } bind def
/w { setlinewidth } bind def
/J { setlinecap } bind def
/j { setlinejoin } bind def
/M { setmiterlimit } bind def
/d { setdash } bind def
/m { moveto } bind def
/l { lineto } bind def
/c { curveto } bind def
/h { closepath } bind def
/re { exch dup neg 3 1 roll 5 3 roll moveto 0 rlineto
      0 exch rlineto 0 rlineto closepath } bind def
/S { stroke } bind def
/f { fill } bind def
/f* { eofill } bind def
/n { newpath } bind def
/W { clip } bind def
/W* { eoclip } bind def
/BT { } bind def
/ET { } bind def
/BDC { mark 3 1 roll /BDC pdfmark } bind def
/EMC { mark /EMC pdfmark } bind def
/cairo_store_point { /cairo_point_y exch def /cairo_point_x exch def } def
/Tj { show currentpoint cairo_store_point } bind def
/TJ {
  {
    dup
    type /stringtype eq
    { show } { -0.001 mul 0 cairo_font_matrix dtransform rmoveto } ifelse
  } forall
  currentpoint cairo_store_point
} bind def
/cairo_selectfont { cairo_font_matrix aload pop pop pop 0 0 6 array astore
    cairo_font exch selectfont cairo_point_x cairo_point_y moveto } bind def
/Tf { pop /cairo_font exch def /cairo_font_matrix where
      { pop cairo_selectfont } if } bind def
/Td { matrix translate cairo_font_matrix matrix concatmatrix dup
      /cairo_font_matrix exch def dup 4 get exch 5 get cairo_store_point
      /cairo_font where { pop cairo_selectfont } if } bind def
/Tm { 2 copy 8 2 roll 6 array astore /cairo_font_matrix exch def
      cairo_store_point /cairo_font where { pop cairo_selectfont } if } bind def
/g { setgray } bind def
/rg { setrgbcolor } bind def
/d1 { setcachedevice } bind def
/cairo_data_source {
  CairoDataIndex CairoData length lt
    { CairoData CairoDataIndex get /CairoDataIndex CairoDataIndex 1 add def }
    { () } ifelse
} def
/cairo_flush_ascii85_file { cairo_ascii85_file status { cairo_ascii85_file flushfile } if } def
/cairo_image { image cairo_flush_ascii85_file } def
/cairo_imagemask { imagemask cairo_flush_ascii85_file } def
%%EndProlog
%%BeginSetup
%%EndSetup
%%Page: 1 1
%%BeginPageSetup
%%PageBoundingBox: 6 30 378 348
%%EndPageSetup
q 6 30 372 318 rectclip
1 0 0 -1 0 384 cm q
q
357 90 m 252 90 l 252 84 l 252 80.688 249.312 78 246 78 c 235.453 78 l 
242.91 70.547 l 244.039 69.422 244.672 67.895 244.672 66.305 c 244.672 64.711
 244.039 63.188 242.91 62.062 c 225.938 45.09 l 224.812 43.961 223.289 43.328
 221.695 43.328 c 220.105 43.328 218.578 43.961 217.453 45.09 c 210 52.547
 l 210 42 l 210 38.688 207.312 36 204 36 c 180 36 l 176.688 36 174 38.688
 174 42 c 174 52.547 l 166.547 45.09 l 165.422 43.961 163.895 43.328 162.305
 43.328 c 160.711 43.328 159.188 43.961 158.062 45.09 c 141.09 62.062 l 
139.961 63.188 139.328 64.711 139.328 66.305 c 139.328 67.895 139.961 69.422
 141.09 70.547 c 148.547 78 l 138 78 l 134.688 78 132 80.688 132 84 c 132
 90 l 27 90 l 15.406 90.012 6.012 99.406 6 111 c 6 333 l 6.012 344.594 15.406
 353.988 27 354 c 357 354 l 368.594 353.988 377.988 344.594 378 333 c 378
 111 l 377.988 99.406 368.594 90.012 357 90 c h
144 90 m 158.055 90 l 160.598 90 162.863 88.398 163.711 86.004 c 164.062
 85.004 164.469 84.023 164.926 83.07 c 166.023 80.773 165.555 78.039 163.754
 76.238 c 153.816 66.301 l 162.301 57.816 l 172.238 67.754 l 174.039 69.551
 176.773 70.02 179.07 68.926 c 180.023 68.469 181 68.066 181.996 67.719 
c 184.395 66.867 186 64.602 186 62.055 c 186 48 l 198 48 l 198 62.055 l 
198 64.602 199.605 66.867 202.004 67.719 c 203 68.066 203.977 68.469 204.93
 68.926 c 207.227 70.02 209.961 69.551 211.762 67.754 c 221.699 57.816 l
 230.184 66.301 l 220.246 76.238 l 218.445 78.039 217.977 80.773 219.074
 83.07 c 219.531 84.023 219.938 85.004 220.289 86.004 c 221.137 88.398 223.402
 90 225.945 90 c 240 90 l 240 102 l 225.945 102 l 223.402 102 221.137 103.602
 220.289 105.996 c 219.938 106.996 219.531 107.977 219.074 108.93 c 217.977
 111.227 218.445 113.961 220.246 115.762 c 230.184 125.699 l 221.699 134.184
 l 211.762 124.246 l 209.961 122.449 207.227 121.98 204.93 123.074 c 203.973
 123.531 202.996 123.938 201.996 124.289 c 199.602 125.137 198 127.402 198
 129.945 c 198 144 l 186 144 l 186 129.945 l 186 127.402 184.398 125.137
 182.004 124.289 c 181.004 123.938 180.027 123.531 179.07 123.074 c 176.773
 121.98 174.039 122.449 172.238 124.246 c 162.301 134.184 l 153.816 125.699
 l 163.754 115.762 l 165.555 113.961 166.023 111.227 164.926 108.93 c 164.469
 107.977 164.062 106.996 163.711 105.996 c 162.863 103.602 160.598 102 158.055
 102 c 144 102 l h
27 342 m 22.031 341.996 18.004 337.969 18 333 c 18 136.598 l 126.375 201.621
 l 32.789 342 l h
47.211 342 m 136.672 207.801 l 188.91 239.145 l 190.812 240.285 193.188
 240.285 195.09 239.145 c 247.32 207.801 l 336.09 342 l h
366 333 m 365.996 337.969 361.969 341.996 357 342 c 350.477 342 l 257.625
 201.621 l 366 136.598 l h
366 122.602 m 192 227.004 l 18 122.602 l 18 111 l 18.004 106.031 22.031
 102.004 27 102 c 132 102 l 132 108 l 132 111.312 134.688 114 138 114 c 
148.547 114 l 141.09 121.453 l 139.961 122.578 139.328 124.105 139.328 125.695
 c 139.328 127.289 139.961 128.812 141.09 129.938 c 158.062 146.91 l 159.188
 148.039 160.711 148.672 162.305 148.672 c 163.895 148.672 165.422 148.039
 166.547 146.91 c 174 139.453 l 174 150 l 174 153.312 176.688 156 180 156
 c 204 156 l 207.312 156 210 153.312 210 150 c 210 139.453 l 217.453 146.91
 l 218.578 148.039 220.105 148.672 221.695 148.672 c 223.289 148.672 224.812
 148.039 225.938 146.91 c 242.91 129.938 l 244.039 128.812 244.672 127.289
 244.672 125.695 c 244.672 124.105 244.039 122.578 242.91 121.453 c 235.453
 114 l 246 114 l 249.312 114 252 111.312 252 108 c 252 102 l 357 102 l 361.969
 102.004 365.996 106.031 366 111 c h
366 122.602 m W n
[0.75 0 0 0.75 0 0] concat
/CairoFunction
<< /FunctionType 3
   /Domain [ 0 1 ]
   /Functions [
   << /FunctionType 2
      /Domain [ 0 1 ]
      /C0 [ 0 0.247059 0.541176 ]
      /C1 [ 0 0.843137 0.87451 ]
      /N 1
   >>
   << /FunctionType 2
      /Domain [ 0 1 ]
      /C0 [ 0 0.843137 0.87451 ]
      /C1 [ 0 0.427451 0.941176 ]
      /N 1
   >>
   ]
   /Bounds [ 0.518 ]
   /Encode [ 1 1 2 { pop 0 1 } for ]
>>
def
   << /ShadingType 2
      /ColorSpace /DeviceRGB
      /Coords [ 51.591999 500.40799 508.339996 43.66 ]
      /Extend [ true true ]
      /Function CairoFunction
   >>
shfill
Q
q
192 114 m 199.281 114 205.844 109.613 208.629 102.887 c 211.414 96.164 
209.875 88.422 204.727 83.273 c 199.578 78.125 191.836 76.586 185.113 79.371
 c 178.387 82.156 174 88.719 174 96 c 174.012 105.938 182.062 113.988 192
 114 c h
192 90 m 194.426 90 196.613 91.461 197.543 93.703 c 198.473 95.945 197.957
 98.527 196.242 100.242 c 194.527 101.957 191.945 102.473 189.703 101.543
 c 187.461 100.613 186 98.426 186 96 c 186.004 92.688 188.688 90.004 192
 90 c h
192 90 m W n
[0.75 0 0 0.75 0 0] concat
/CairoFunction
<< /FunctionType 3
   /Domain [ 0 1 ]
   /Functions [
   << /FunctionType 2
      /Domain [ 0 1 ]
      /C0 [ 0 0.247059 0.541176 ]
      /C1 [ 0 0.843137 0.87451 ]
      /N 1
   >>
   << /FunctionType 2
      /Domain [ 0 1 ]
      /C0 [ 0 0.843137 0.87451 ]
      /C1 [ 0 0.427451 0.941176 ]
      /N 1
   >>
   ]
   /Bounds [ 0.518 ]
   /Encode [ 1 1 2 { pop 0 1 } for ]
>>
def
   << /ShadingType 2
      /ColorSpace /DeviceRGB
      /Coords [ -32.408001 416.40799 424.339996 -40.34 ]
      /Extend [ true true ]
      /Function CairoFunction
   >>
shfill
Q
Q Q
showpage
%%Trailer
end
%%EOF
