%!PS-Adobe-3.0 EPSF-3.0
%%Creator: cairo 1.16.0 (https://cairographics.org)
%%CreationDate: Thu Dec  3 11:23:49 2020
%%Pages: 1
%%DocumentData: Clean7Bit
%%LanguageLevel: 3
%%BoundingBox: 6 6 378 378
%%EndComments
%%BeginProlog
50 dict begin
/q { gsave } bind def
/Q { grestore } bind def
/cm { 6 array astore concat } bind def
/w { setlinewidth } bind def
/J { setlinecap } bind def
/j { setlinejoin } bind def
/M { setmiterlimit } bind def
/d { setdash } bind def
/m { moveto } bind def
/l { lineto } bind def
/c { curveto } bind def
/h { closepath } bind def
/re { exch dup neg 3 1 roll 5 3 roll moveto 0 rlineto
      0 exch rlineto 0 rlineto closepath } bind def
/S { stroke } bind def
/f { fill } bind def
/f* { eofill } bind def
/n { newpath } bind def
/W { clip } bind def
/W* { eoclip } bind def
/BT { } bind def
/ET { } bind def
/BDC { mark 3 1 roll /BDC pdfmark } bind def
/EMC { mark /EMC pdfmark } bind def
/cairo_store_point { /cairo_point_y exch def /cairo_point_x exch def } def
/Tj { show currentpoint cairo_store_point } bind def
/TJ {
  {
    dup
    type /stringtype eq
    { show } { -0.001 mul 0 cairo_font_matrix dtransform rmoveto } ifelse
  } forall
  currentpoint cairo_store_point
} bind def
/cairo_selectfont { cairo_font_matrix aload pop pop pop 0 0 6 array astore
    cairo_font exch selectfont cairo_point_x cairo_point_y moveto } bind def
/Tf { pop /cairo_font exch def /cairo_font_matrix where
      { pop cairo_selectfont } if } bind def
/Td { matrix translate cairo_font_matrix matrix concatmatrix dup
      /cairo_font_matrix exch def dup 4 get exch 5 get cairo_store_point
      /cairo_font where { pop cairo_selectfont } if } bind def
/Tm { 2 copy 8 2 roll 6 array astore /cairo_font_matrix exch def
      cairo_store_point /cairo_font where { pop cairo_selectfont } if } bind def
/g { setgray } bind def
/rg { setrgbcolor } bind def
/d1 { setcachedevice } bind def
/cairo_data_source {
  CairoDataIndex CairoData length lt
    { CairoData CairoDataIndex get /CairoDataIndex CairoDataIndex 1 add def }
    { () } ifelse
} def
/cairo_flush_ascii85_file { cairo_ascii85_file status { cairo_ascii85_file flushfile } if } def
/cairo_image { image cairo_flush_ascii85_file } def
/cairo_imagemask { imagemask cairo_flush_ascii85_file } def
%%EndProlog
%%BeginSetup
%%EndSetup
%%Page: 1 1
%%BeginPageSetup
%%PageBoundingBox: 6 6 378 378
%%EndPageSetup
q 6 6 372 372 rectclip
1 0 0 -1 0 384 cm q
q
180 144 m 180 147.312 177.312 150 174 150 c 170.688 150 168 147.312 168
 144 c 168 140.688 170.688 138 174 138 c 177.312 138 180 140.688 180 144
 c h
180 144 m W n
[0.75 0 0 0.75 0 0] concat
/CairoFunction
<< /FunctionType 3
   /Domain [ 0 1 ]
   /Functions [
   << /FunctionType 2
      /Domain [ 0 1 ]
      /C0 [ 0 0.247059 0.541176 ]
      /C1 [ 0 0.843137 0.87451 ]
      /N 1
   >>
   << /FunctionType 2
      /Domain [ 0 1 ]
      /C0 [ 0 0.843137 0.87451 ]
      /C1 [ 0 0.427451 0.941176 ]
      /N 1
   >>
   ]
   /Bounds [ 0.518 ]
   /Encode [ 1 1 2 { pop 0 1 } for ]
>>
def
   << /ShadingType 2
      /ColorSpace /DeviceRGB
      /Coords [ -18.638 442.638 487.414001 -63.414001 ]
      /Extend [ true true ]
      /Function CairoFunction
   >>
shfill
Q
q
216 144 m 216 147.312 213.312 150 210 150 c 206.688 150 204 147.312 204
 144 c 204 140.688 206.688 138 210 138 c 213.312 138 216 140.688 216 144
 c h
216 144 m W n
[0.75 0 0 0.75 0 0] concat
/CairoFunction
<< /FunctionType 3
   /Domain [ 0 1 ]
   /Functions [
   << /FunctionType 2
      /Domain [ 0 1 ]
      /C0 [ 0 0.247059 0.541176 ]
      /C1 [ 0 0.843137 0.87451 ]
      /N 1
   >>
   << /FunctionType 2
      /Domain [ 0 1 ]
      /C0 [ 0 0.843137 0.87451 ]
      /C1 [ 0 0.427451 0.941176 ]
      /N 1
   >>
   ]
   /Bounds [ 0.518 ]
   /Encode [ 1 1 2 { pop 0 1 } for ]
>>
def
   << /ShadingType 2
      /ColorSpace /DeviceRGB
      /Coords [ 5.362 466.638 511.414001 -39.414001 ]
      /Extend [ true true ]
      /Function CairoFunction
   >>
shfill
Q
q
372 276 m 264 276 l 264 258 l 263.938 231.785 245.105 209.379 219.293 204.809
 c 216 201.516 l 216 193.156 l 223.414 188.859 229.062 182.07 231.938 174
 c 237 174 l 245.281 173.992 251.992 167.281 252 159 c 252 147 l 251.992
 139.875 246.98 133.734 240 132.301 c 240 114 l 240 87.492 218.508 66 192
 66 c 165.492 66 144 87.492 144 114 c 144 132.301 l 137.02 133.734 132.008
 139.875 132 147 c 132 159 l 132.008 167.281 138.719 173.992 147 174 c 152.062
 174 l 154.938 182.07 160.586 188.859 168 193.156 c 168 201.516 l 164.707
 204.809 l 138.895 209.379 120.062 231.785 120 258 c 120 276 l 114 276 l
 114 264 l 114 260.688 111.312 258 108 258 c 78 258 l 78 212.484 l 106.246
 184.246 l 108.59 181.902 108.59 178.098 106.246 175.754 c 103.902 173.41
 100.098 173.41 97.754 175.754 c 67.754 205.754 l 66.629 206.883 66 208.41
 66 210 c 66 258 l 36 258 l 32.688 258 30 260.688 30 264 c 30 276 l 12 276
 l 8.688 276 6 278.688 6 282 c 6 306 l 6 309.312 8.688 312 12 312 c 24 312
 l 24 372 l 24 375.312 26.688 378 30 378 c 354 378 l 357.312 378 360 375.312
 360 372 c 360 312 l 372 312 l 375.312 312 378 309.312 378 306 c 378 282
 l 378 278.688 375.312 276 372 276 c h
234 144 m 237 144 l 238.656 144 240 145.344 240 147 c 240 159 l 240 160.656
 238.656 162 237 162 c 234 162 l h
150 162 m 147 162 l 145.344 162 144 160.656 144 159 c 144 147 l 144 145.344
 145.344 144 147 144 c 150 144 l h
156 119.91 m 156 114 l 156 94.117 172.117 78 192 78 c 211.883 78 228 94.117
 228 114 c 228 120 l 221.398 120 212.34 109.664 208.996 104.672 c 207.996
 103.176 206.379 102.207 204.59 102.031 c 202.801 101.852 201.027 102.484
 199.754 103.754 c 191.332 112.184 166.223 118.094 156 119.91 c h
162 162 m 162 130.988 l 171.375 129.09 190.875 124.441 202.914 116.504 
c 207.047 121.477 213.988 128.484 222 131.023 c 222 162 l 221.984 175.25
 211.25 185.984 198 186 c 186 186 l 172.75 185.984 162.016 175.25 162 162
 c h
180 201.996 m 180 197.488 l 181.98 197.828 183.988 198 186 198 c 198 198
 l 200.012 198 202.02 197.828 204 197.488 c 204 201.996 l 192 218.004 l 
h
183.398 226.523 m 176.324 231.238 l 169.297 217.184 l 173.348 213.137 l
 h
210.652 213.137 m 214.703 217.184 l 207.676 231.238 l 200.602 226.523 l
 h
132 258 m 132.043 241.363 141.863 226.305 157.074 219.562 c 168.629 242.684
 l 169.402 244.223 170.797 245.355 172.461 245.797 c 172.965 245.934 173.48
 246 174 246 c 175.184 246 176.344 245.648 177.328 244.996 c 192 235.207
 l 206.672 244.996 l 207.656 245.648 208.816 246 210 246 c 210.52 246 211.035
 245.934 211.539 245.797 c 213.203 245.355 214.598 244.223 215.371 242.684
 c 226.926 219.562 l 242.137 226.305 251.957 241.363 252 258 c 252 276 l
 132 276 l h
42 270 m 102 270 l 102 276 l 42 276 l h
348 366 m 36 366 l 36 312 l 348 312 l h
366 300 m 18 300 l 18 288 l 366 288 l h
366 300 m W n
[0.75 0 0 0.75 0 0] concat
/CairoFunction
<< /FunctionType 3
   /Domain [ 0 1 ]
   /Functions [
   << /FunctionType 2
      /Domain [ 0 1 ]
      /C0 [ 0 0.247059 0.541176 ]
      /C1 [ 0 0.843137 0.87451 ]
      /N 1
   >>
   << /FunctionType 2
      /Domain [ 0 1 ]
      /C0 [ 0 0.843137 0.87451 ]
      /C1 [ 0 0.427451 0.941176 ]
      /N 1
   >>
   ]
   /Bounds [ 0.518 ]
   /Encode [ 1 1 2 { pop 0 1 } for ]
>>
def
   << /ShadingType 2
      /ColorSpace /DeviceRGB
      /Coords [ 93.573997 554.848999 599.625 48.798 ]
      /Extend [ true true ]
      /Function CairoFunction
   >>
shfill
Q
q
267 114 m 282 114 l 282 144 l 282 146.426 283.461 148.613 285.703 149.543
 c 287.945 150.473 290.527 149.957 292.242 148.242 c 326.484 114 l 356.984
 114 l 362.559 114 367.902 111.785 371.844 107.84 c 375.781 103.895 377.992
 98.547 377.984 92.973 c 377.867 26.977 l 377.836 15.395 368.449 6.016 356.867
 6 c 267 6 l 255.406 6.012 246.012 15.406 246 27 c 246 93 l 246.012 104.594
 255.406 113.988 267 114 c h
258 27 m 258.004 22.031 262.031 18.004 267 18 c 356.867 18 l 361.832 18.008
 365.855 22.031 365.867 26.996 c 365.984 92.992 l 365.988 95.379 365.039
 97.672 363.352 99.359 c 361.664 101.051 359.371 102 356.984 102 c 324 102
 l 322.41 102 320.883 102.633 319.758 103.758 c 294 129.516 l 294 108 l 
294 104.688 291.312 102 288 102 c 267 102 l 262.031 101.996 258.004 97.969
 258 93 c h
258 27 m W n
[0.75 0 0 0.75 0 0] concat
/CairoFunction
<< /FunctionType 3
   /Domain [ 0 1 ]
   /Functions [
   << /FunctionType 2
      /Domain [ 0 1 ]
      /C0 [ 0 0.247059 0.541176 ]
      /C1 [ 0 0.843137 0.87451 ]
      /N 1
   >>
   << /FunctionType 2
      /Domain [ 0 1 ]
      /C0 [ 0 0.843137 0.87451 ]
      /C1 [ 0 0.427451 0.941176 ]
      /N 1
   >>
   ]
   /Bounds [ 0.518 ]
   /Encode [ 1 1 2 { pop 0 1 } for ]
>>
def
   << /ShadingType 2
      /ColorSpace /DeviceRGB
      /Coords [ 17.362 478.636993 523.413025 -27.414 ]
      /Extend [ true true ]
      /Function CairoFunction
   >>
shfill
Q
q
282 42 m 342 42 l 345.312 42 348 39.312 348 36 c 348 32.688 345.312 30 
342 30 c 282 30 l 278.688 30 276 32.688 276 36 c 276 39.312 278.688 42 282
 42 c h
282 42 m W n
[0.75 0 0 0.75 0 0] concat
/CairoFunction
<< /FunctionType 3
   /Domain [ 0 1 ]
   /Functions [
   << /FunctionType 2
      /Domain [ 0 1 ]
      /C0 [ 0 0.247059 0.541176 ]
      /C1 [ 0 0.843137 0.87451 ]
      /N 1
   >>
   << /FunctionType 2
      /Domain [ 0 1 ]
      /C0 [ 0 0.843137 0.87451 ]
      /C1 [ 0 0.427451 0.941176 ]
      /N 1
   >>
   ]
   /Bounds [ 0.518 ]
   /Encode [ 1 1 2 { pop 0 1 } for ]
>>
def
   << /ShadingType 2
      /ColorSpace /DeviceRGB
      /Coords [ 1.362 462.638 507.414001 -43.414001 ]
      /Extend [ true true ]
      /Function CairoFunction
   >>
shfill
Q
q
282 60 m 342 60 l 345.312 60 348 57.312 348 54 c 348 50.688 345.312 48 
342 48 c 282 48 l 278.688 48 276 50.688 276 54 c 276 57.312 278.688 60 282
 60 c h
282 60 m W n
[0.75 0 0 0.75 0 0] concat
/CairoFunction
<< /FunctionType 3
   /Domain [ 0 1 ]
   /Functions [
   << /FunctionType 2
      /Domain [ 0 1 ]
      /C0 [ 0 0.247059 0.541176 ]
      /C1 [ 0 0.843137 0.87451 ]
      /N 1
   >>
   << /FunctionType 2
      /Domain [ 0 1 ]
      /C0 [ 0 0.843137 0.87451 ]
      /C1 [ 0 0.427451 0.941176 ]
      /N 1
   >>
   ]
   /Bounds [ 0.518 ]
   /Encode [ 1 1 2 { pop 0 1 } for ]
>>
def
   << /ShadingType 2
      /ColorSpace /DeviceRGB
      /Coords [ 13.362 474.638 519.414001 -31.414 ]
      /Extend [ true true ]
      /Function CairoFunction
   >>
shfill
Q
q
282 78 m 306 78 l 309.312 78 312 75.312 312 72 c 312 68.688 309.312 66 
306 66 c 282 66 l 278.688 66 276 68.688 276 72 c 276 75.312 278.688 78 282
 78 c h
282 78 m W n
[0.75 0 0 0.75 0 0] concat
/CairoFunction
<< /FunctionType 3
   /Domain [ 0 1 ]
   /Functions [
   << /FunctionType 2
      /Domain [ 0 1 ]
      /C0 [ 0 0.247059 0.541176 ]
      /C1 [ 0 0.843137 0.87451 ]
      /N 1
   >>
   << /FunctionType 2
      /Domain [ 0 1 ]
      /C0 [ 0 0.843137 0.87451 ]
      /C1 [ 0 0.427451 0.941176 ]
      /N 1
   >>
   ]
   /Bounds [ 0.518 ]
   /Encode [ 1 1 2 { pop 0 1 } for ]
>>
def
   << /ShadingType 2
      /ColorSpace /DeviceRGB
      /Coords [ 13.362 474.638 519.414001 -31.414 ]
      /Extend [ true true ]
      /Function CairoFunction
   >>
shfill
Q
q
330 66 m 324 66 l 320.688 66 318 68.688 318 72 c 318 75.312 320.688 78 
324 78 c 330 78 l 333.312 78 336 75.312 336 72 c 336 68.688 333.312 66 330
 66 c h
330 66 m W n
[0.75 0 0 0.75 0 0] concat
/CairoFunction
<< /FunctionType 3
   /Domain [ 0 1 ]
   /Functions [
   << /FunctionType 2
      /Domain [ 0 1 ]
      /C0 [ 0 0.247059 0.541176 ]
      /C1 [ 0 0.843137 0.87451 ]
      /N 1
   >>
   << /FunctionType 2
      /Domain [ 0 1 ]
      /C0 [ 0 0.843137 0.87451 ]
      /C1 [ 0 0.427451 0.941176 ]
      /N 1
   >>
   ]
   /Bounds [ 0.518 ]
   /Encode [ 1 1 2 { pop 0 1 } for ]
>>
def
   << /ShadingType 2
      /ColorSpace /DeviceRGB
      /Coords [ 35.362 496.638 541.414001 -9.414 ]
      /Extend [ true true ]
      /Function CairoFunction
   >>
shfill
Q
Q Q
showpage
%%Trailer
end
%%EOF
