%!PS-Adobe-3.0 EPSF-3.0
%%Creator: cairo 1.16.0 (https://cairographics.org)
%%CreationDate: Thu Dec  3 11:23:50 2020
%%Pages: 1
%%DocumentData: Clean7Bit
%%LanguageLevel: 3
%%BoundingBox: 6 6 378 378
%%EndComments
%%BeginProlog
50 dict begin
/q { gsave } bind def
/Q { grestore } bind def
/cm { 6 array astore concat } bind def
/w { setlinewidth } bind def
/J { setlinecap } bind def
/j { setlinejoin } bind def
/M { setmiterlimit } bind def
/d { setdash } bind def
/m { moveto } bind def
/l { lineto } bind def
/c { curveto } bind def
/h { closepath } bind def
/re { exch dup neg 3 1 roll 5 3 roll moveto 0 rlineto
      0 exch rlineto 0 rlineto closepath } bind def
/S { stroke } bind def
/f { fill } bind def
/f* { eofill } bind def
/n { newpath } bind def
/W { clip } bind def
/W* { eoclip } bind def
/BT { } bind def
/ET { } bind def
/BDC { mark 3 1 roll /BDC pdfmark } bind def
/EMC { mark /EMC pdfmark } bind def
/cairo_store_point { /cairo_point_y exch def /cairo_point_x exch def } def
/Tj { show currentpoint cairo_store_point } bind def
/TJ {
  {
    dup
    type /stringtype eq
    { show } { -0.001 mul 0 cairo_font_matrix dtransform rmoveto } ifelse
  } forall
  currentpoint cairo_store_point
} bind def
/cairo_selectfont { cairo_font_matrix aload pop pop pop 0 0 6 array astore
    cairo_font exch selectfont cairo_point_x cairo_point_y moveto } bind def
/Tf { pop /cairo_font exch def /cairo_font_matrix where
      { pop cairo_selectfont } if } bind def
/Td { matrix translate cairo_font_matrix matrix concatmatrix dup
      /cairo_font_matrix exch def dup 4 get exch 5 get cairo_store_point
      /cairo_font where { pop cairo_selectfont } if } bind def
/Tm { 2 copy 8 2 roll 6 array astore /cairo_font_matrix exch def
      cairo_store_point /cairo_font where { pop cairo_selectfont } if } bind def
/g { setgray } bind def
/rg { setrgbcolor } bind def
/d1 { setcachedevice } bind def
/cairo_data_source {
  CairoDataIndex CairoData length lt
    { CairoData CairoDataIndex get /CairoDataIndex CairoDataIndex 1 add def }
    { () } ifelse
} def
/cairo_flush_ascii85_file { cairo_ascii85_file status { cairo_ascii85_file flushfile } if } def
/cairo_image { image cairo_flush_ascii85_file } def
/cairo_imagemask { imagemask cairo_flush_ascii85_file } def
%%EndProlog
%%BeginSetup
%%EndSetup
%%Page: 1 1
%%BeginPageSetup
%%PageBoundingBox: 6 6 378 378
%%EndPageSetup
q 6 6 372 372 rectclip
1 0 0 -1 0 384 cm q
q
180 162 m 180 165.312 177.312 168 174 168 c 170.688 168 168 165.312 168
 162 c 168 158.688 170.688 156 174 156 c 177.312 156 180 158.688 180 162
 c h
180 162 m W n
[0.75 0 0 0.75 0 0] concat
/CairoFunction
<< /FunctionType 3
   /Domain [ 0 1 ]
   /Functions [
   << /FunctionType 2
      /Domain [ 0 1 ]
      /C0 [ 0 0.247059 0.541176 ]
      /C1 [ 0 0.843137 0.87451 ]
      /N 1
   >>
   << /FunctionType 2
      /Domain [ 0 1 ]
      /C0 [ 0 0.843137 0.87451 ]
      /C1 [ 0 0.427451 0.941176 ]
      /N 1
   >>
   ]
   /Bounds [ 0.518 ]
   /Encode [ 1 1 2 { pop 0 1 } for ]
>>
def
   << /ShadingType 2
      /ColorSpace /DeviceRGB
      /Coords [ -33.986 481.985992 452.049988 -4.05 ]
      /Extend [ true true ]
      /Function CairoFunction
   >>
shfill
Q
q
216 162 m 216 165.312 213.312 168 210 168 c 206.688 168 204 165.312 204
 162 c 204 158.688 206.688 156 210 156 c 213.312 156 216 158.688 216 162
 c h
216 162 m W n
[0.75 0 0 0.75 0 0] concat
/CairoFunction
<< /FunctionType 3
   /Domain [ 0 1 ]
   /Functions [
   << /FunctionType 2
      /Domain [ 0 1 ]
      /C0 [ 0 0.247059 0.541176 ]
      /C1 [ 0 0.843137 0.87451 ]
      /N 1
   >>
   << /FunctionType 2
      /Domain [ 0 1 ]
      /C0 [ 0 0.843137 0.87451 ]
      /C1 [ 0 0.427451 0.941176 ]
      /N 1
   >>
   ]
   /Bounds [ 0.518 ]
   /Encode [ 1 1 2 { pop 0 1 } for ]
>>
def
   << /ShadingType 2
      /ColorSpace /DeviceRGB
      /Coords [ -9.986 505.985992 476.049988 19.950001 ]
      /Extend [ true true ]
      /Function CairoFunction
   >>
shfill
Q
q
372 174 m 352.996 174 l 344.582 98.785 285.215 39.418 210 31.004 c 210 
12 l 210 8.688 207.312 6 204 6 c 180 6 l 176.688 6 174 8.688 174 12 c 174
 31.004 l 98.785 39.418 39.418 98.785 31.004 174 c 12 174 l 8.688 174 6 
176.688 6 180 c 6 204 l 6 207.312 8.688 210 12 210 c 31.004 210 l 39.418
 285.215 98.785 344.582 174 352.996 c 174 372 l 174 375.312 176.688 378 
180 378 c 204 378 l 207.312 378 210 375.312 210 372 c 210 352.996 l 285.215
 344.582 344.582 285.215 352.996 210 c 372 210 l 375.312 210 378 207.312
 378 204 c 378 180 l 378 176.688 375.312 174 372 174 c h
186 18 m 198 18 l 198 54 l 186 54 l h
18 198 m 18 186 l 54 186 l 54 198 l h
198 366 m 186 366 l 186 330 l 198 330 l h
298.066 298.066 m 274.336 321.809 243.324 336.902 210 340.926 c 210 324
 l 210 320.688 207.312 318 204 318 c 180 318 l 176.688 318 174 320.688 174
 324 c 174 340.926 l 105.426 332.621 51.379 278.574 43.074 210 c 60 210 
l 63.312 210 66 207.312 66 204 c 66 180 l 66 176.688 63.312 174 60 174 c
 43.074 174 l 51.379 105.426 105.426 51.379 174 43.074 c 174 60 l 174 63.312
 176.688 66 180 66 c 204 66 l 207.312 66 210 63.312 210 60 c 210 43.074 
l 278.574 51.379 332.621 105.426 340.926 174 c 324 174 l 320.688 174 318
 176.688 318 180 c 318 204 l 318 207.312 320.688 210 324 210 c 340.926 210
 l 336.902 243.324 321.809 274.336 298.066 298.066 c h
366 198 m 330 198 l 330 186 l 366 186 l h
366 198 m W n
[0.75 0 0 0.75 0 0] concat
/CairoFunction
<< /FunctionType 3
   /Domain [ 0 1 ]
   /Functions [
   << /FunctionType 2
      /Domain [ 0 1 ]
      /C0 [ 0 0.247059 0.541176 ]
      /C1 [ 0 0.843137 0.87451 ]
      /N 1
   >>
   << /FunctionType 2
      /Domain [ 0 1 ]
      /C0 [ 0 0.843137 0.87451 ]
      /C1 [ 0 0.427451 0.941176 ]
      /N 1
   >>
   ]
   /Bounds [ 0.518 ]
   /Encode [ 1 1 2 { pop 0 1 } for ]
>>
def
   << /ShadingType 2
      /ColorSpace /DeviceRGB
      /Coords [ -1.986 513.986023 484.049988 27.950001 ]
      /Extend [ true true ]
      /Function CairoFunction
   >>
shfill
Q
q
219.293 222.809 m 216 219.516 l 216 211.156 l 223.414 206.859 229.062 200.07
 231.938 192 c 237 192 l 245.281 191.992 251.992 185.281 252 177 c 252 165
 l 251.992 157.875 246.98 151.734 240 150.301 c 240 132 l 240 105.492 218.508
 84 192 84 c 165.492 84 144 105.492 144 132 c 144 150.301 l 137.02 151.734
 132.008 157.875 132 165 c 132 177 l 132.008 185.281 138.719 191.992 147
 192 c 152.062 192 l 154.938 200.07 160.586 206.859 168 211.156 c 168 219.516
 l 164.707 222.809 l 138.895 227.379 120.062 249.785 120 276 c 120 294 l
 120 297.312 122.688 300 126 300 c 258 300 l 261.312 300 264 297.312 264
 294 c 264 276 l 263.938 249.785 245.105 227.379 219.293 222.809 c h
234 162 m 237 162 l 238.656 162 240 163.344 240 165 c 240 177 l 240 178.656
 238.656 180 237 180 c 234 180 l h
150 180 m 147 180 l 145.344 180 144 178.656 144 177 c 144 165 l 144 163.344
 145.344 162 147 162 c 150 162 l h
156 137.91 m 156 132 l 156 112.117 172.117 96 192 96 c 211.883 96 228 112.117
 228 132 c 228 138 l 221.398 138 212.34 127.664 208.996 122.672 c 207.996
 121.176 206.379 120.207 204.59 120.031 c 202.801 119.852 201.027 120.484
 199.754 121.754 c 191.332 130.184 166.223 136.094 156 137.91 c h
162 180 m 162 148.988 l 171.375 147.09 190.875 142.441 202.914 134.504 
c 207.047 139.477 213.988 146.484 222 149.023 c 222 180 l 221.984 193.246
 211.246 203.984 198 204 c 186 204 l 172.754 203.984 162.016 193.246 162
 180 c h
180 219.996 m 180 215.488 l 181.98 215.828 183.988 216 186 216 c 198 216
 l 200.012 216 202.02 215.828 204 215.488 c 204 219.996 l 192 236.004 l 
h
183.398 244.523 m 176.324 249.238 l 169.297 235.184 l 173.348 231.137 l
 h
210.652 231.137 m 214.703 235.184 l 207.676 249.238 l 200.602 244.523 l
 h
252 288 m 132 288 l 132 276 l 132.043 259.363 141.863 244.305 157.074 237.562
 c 168.629 260.684 l 169.402 262.223 170.797 263.355 172.461 263.797 c 172.965
 263.934 173.48 264 174 264 c 175.184 264 176.344 263.648 177.328 262.996
 c 192 253.207 l 206.672 262.996 l 207.656 263.648 208.816 264 210 264 c
 210.52 264 211.035 263.934 211.539 263.797 c 213.203 263.355 214.598 262.223
 215.371 260.684 c 226.926 237.562 l 242.137 244.305 251.957 259.363 252
 276 c h
252 288 m W n
[0.75 0 0 0.75 0 0] concat
/CairoFunction
<< /FunctionType 3
   /Domain [ 0 1 ]
   /Functions [
   << /FunctionType 2
      /Domain [ 0 1 ]
      /C0 [ 0 0.247059 0.541176 ]
      /C1 [ 0 0.843137 0.87451 ]
      /N 1
   >>
   << /FunctionType 2
      /Domain [ 0 1 ]
      /C0 [ 0 0.843137 0.87451 ]
      /C1 [ 0 0.427451 0.941176 ]
      /N 1
   >>
   ]
   /Bounds [ 0.518 ]
   /Encode [ 1 1 2 { pop 0 1 } for ]
>>
def
   << /ShadingType 2
      /ColorSpace /DeviceRGB
      /Coords [ 14.226 530.197998 500.261993 44.160999 ]
      /Extend [ true true ]
      /Function CairoFunction
   >>
shfill
Q
Q Q
showpage
%%Trailer
end
%%EOF
