%!PS-Adobe-3.0 EPSF-3.0
%%Creator: cairo 1.16.0 (https://cairographics.org)
%%CreationDate: Thu Dec  3 11:23:51 2020
%%Pages: 1
%%DocumentData: Clean7Bit
%%LanguageLevel: 3
%%BoundingBox: 6 30 378 354
%%EndComments
%%BeginProlog
50 dict begin
/q { gsave } bind def
/Q { grestore } bind def
/cm { 6 array astore concat } bind def
/w { setlinewidth } bind def
/J { setlinecap } bind def
/j { setlinejoin } bind def
/M { setmiterlimit } bind def
/d { setdash } bind def
/m { moveto } bind def
/l { lineto } bind def
/c { curveto } bind def
/h { closepath } bind def
/re { exch dup neg 3 1 roll 5 3 roll moveto 0 rlineto
      0 exch rlineto 0 rlineto closepath } bind def
/S { stroke } bind def
/f { fill } bind def
/f* { eofill } bind def
/n { newpath } bind def
/W { clip } bind def
/W* { eoclip } bind def
/BT { } bind def
/ET { } bind def
/BDC { mark 3 1 roll /BDC pdfmark } bind def
/EMC { mark /EMC pdfmark } bind def
/cairo_store_point { /cairo_point_y exch def /cairo_point_x exch def } def
/Tj { show currentpoint cairo_store_point } bind def
/TJ {
  {
    dup
    type /stringtype eq
    { show } { -0.001 mul 0 cairo_font_matrix dtransform rmoveto } ifelse
  } forall
  currentpoint cairo_store_point
} bind def
/cairo_selectfont { cairo_font_matrix aload pop pop pop 0 0 6 array astore
    cairo_font exch selectfont cairo_point_x cairo_point_y moveto } bind def
/Tf { pop /cairo_font exch def /cairo_font_matrix where
      { pop cairo_selectfont } if } bind def
/Td { matrix translate cairo_font_matrix matrix concatmatrix dup
      /cairo_font_matrix exch def dup 4 get exch 5 get cairo_store_point
      /cairo_font where { pop cairo_selectfont } if } bind def
/Tm { 2 copy 8 2 roll 6 array astore /cairo_font_matrix exch def
      cairo_store_point /cairo_font where { pop cairo_selectfont } if } bind def
/g { setgray } bind def
/rg { setrgbcolor } bind def
/d1 { setcachedevice } bind def
/cairo_data_source {
  CairoDataIndex CairoData length lt
    { CairoData CairoDataIndex get /CairoDataIndex CairoDataIndex 1 add def }
    { () } ifelse
} def
/cairo_flush_ascii85_file { cairo_ascii85_file status { cairo_ascii85_file flushfile } if } def
/cairo_image { image cairo_flush_ascii85_file } def
/cairo_imagemask { imagemask cairo_flush_ascii85_file } def
%%EndProlog
%%BeginSetup
%%EndSetup
%%Page: 1 1
%%BeginPageSetup
%%PageBoundingBox: 6 30 378 354
%%EndPageSetup
q 6 30 372 324 rectclip
1 0 0 -1 0 384 cm q
q
357 90 m 234 90 l 234 78 l 237.312 78 240 75.312 240 72 c 240 54 l 240 
50.688 237.312 48 234 48 c 216 48 l 216 45 l 215.992 36.719 209.281 30.008
 201 30 c 183 30 l 174.719 30.008 168.008 36.719 168 45 c 168 48 l 150 48
 l 146.688 48 144 50.688 144 54 c 144 72 l 144 75.312 146.688 78 150 78 
c 150 90 l 27 90 l 15.406 90.012 6.012 99.406 6 111 c 6 333 l 6.012 344.594
 15.406 353.988 27 354 c 357 354 l 368.594 353.988 377.988 344.594 378 333
 c 378 111 l 377.988 99.406 368.594 90.012 357 90 c h
180 45 m 180 43.344 181.344 42 183 42 c 201 42 l 202.656 42 204 43.344 
204 45 c 204 48 l 180 48 l h
156 60 m 228 60 l 228 66 l 156 66 l h
222 78 m 222 135 l 222 136.656 220.656 138 219 138 c 165 138 l 163.344 
138 162 136.656 162 135 c 162 78 l h
27 342 m 22.031 341.996 18.004 337.969 18 333 c 18 136.598 l 126.375 201.621
 l 32.789 342 l h
47.211 342 m 136.672 207.801 l 188.91 239.145 l 190.812 240.285 193.188
 240.285 195.09 239.145 c 247.32 207.801 l 336.09 342 l h
366 333 m 365.996 337.969 361.969 341.996 357 342 c 350.477 342 l 257.625
 201.621 l 366 136.598 l h
366 122.602 m 192 227.004 l 18 122.602 l 18 111 l 18.004 106.031 22.031
 102.004 27 102 c 150 102 l 150 135 l 150.008 143.281 156.719 149.992 165
 150 c 219 150 l 227.281 149.992 233.992 143.281 234 135 c 234 102 l 357
 102 l 361.969 102.004 365.996 106.031 366 111 c h
366 122.602 m W n
[0.75 0 0 0.75 0 0] concat
/CairoFunction
<< /FunctionType 3
   /Domain [ 0 1 ]
   /Functions [
   << /FunctionType 2
      /Domain [ 0 1 ]
      /C0 [ 0 0.247059 0.541176 ]
      /C1 [ 0 0.843137 0.87451 ]
      /N 1
   >>
   << /FunctionType 2
      /Domain [ 0 1 ]
      /C0 [ 0 0.843137 0.87451 ]
      /C1 [ 0 0.427451 0.941176 ]
      /N 1
   >>
   ]
   /Bounds [ 0.518 ]
   /Encode [ 1 1 2 { pop 0 1 } for ]
>>
def
   << /ShadingType 2
      /ColorSpace /DeviceRGB
      /Coords [ 44.597 507.403015 496.667999 55.332001 ]
      /Extend [ true true ]
      /Function CairoFunction
   >>
shfill
Q
q
192 126 m 195.312 126 198 123.312 198 120 c 198 96 l 198 92.688 195.312
 90 192 90 c 188.688 90 186 92.688 186 96 c 186 120 l 186 123.312 188.688
 126 192 126 c h
192 126 m W n
[0.75 0 0 0.75 0 0] concat
/CairoFunction
<< /FunctionType 3
   /Domain [ 0 1 ]
   /Functions [
   << /FunctionType 2
      /Domain [ 0 1 ]
      /C0 [ 0 0.247059 0.541176 ]
      /C1 [ 0 0.843137 0.87451 ]
      /N 1
   >>
   << /FunctionType 2
      /Domain [ 0 1 ]
      /C0 [ 0 0.843137 0.87451 ]
      /C1 [ 0 0.427451 0.941176 ]
      /N 1
   >>
   ]
   /Bounds [ 0.518 ]
   /Encode [ 1 1 2 { pop 0 1 } for ]
>>
def
   << /ShadingType 2
      /ColorSpace /DeviceRGB
      /Coords [ -31.403 431.403015 420.667999 -20.667999 ]
      /Extend [ true true ]
      /Function CairoFunction
   >>
shfill
Q
q
174 126 m 177.312 126 180 123.312 180 120 c 180 96 l 180 92.688 177.312
 90 174 90 c 170.688 90 168 92.688 168 96 c 168 120 l 168 123.312 170.688
 126 174 126 c h
174 126 m W n
[0.75 0 0 0.75 0 0] concat
/CairoFunction
<< /FunctionType 3
   /Domain [ 0 1 ]
   /Functions [
   << /FunctionType 2
      /Domain [ 0 1 ]
      /C0 [ 0 0.247059 0.541176 ]
      /C1 [ 0 0.843137 0.87451 ]
      /N 1
   >>
   << /FunctionType 2
      /Domain [ 0 1 ]
      /C0 [ 0 0.843137 0.87451 ]
      /C1 [ 0 0.427451 0.941176 ]
      /N 1
   >>
   ]
   /Bounds [ 0.518 ]
   /Encode [ 1 1 2 { pop 0 1 } for ]
>>
def
   << /ShadingType 2
      /ColorSpace /DeviceRGB
      /Coords [ -43.403 419.403015 408.667999 -32.667999 ]
      /Extend [ true true ]
      /Function CairoFunction
   >>
shfill
Q
q
210 126 m 213.312 126 216 123.312 216 120 c 216 96 l 216 92.688 213.312
 90 210 90 c 206.688 90 204 92.688 204 96 c 204 120 l 204 123.312 206.688
 126 210 126 c h
210 126 m W n
[0.75 0 0 0.75 0 0] concat
/CairoFunction
<< /FunctionType 3
   /Domain [ 0 1 ]
   /Functions [
   << /FunctionType 2
      /Domain [ 0 1 ]
      /C0 [ 0 0.247059 0.541176 ]
      /C1 [ 0 0.843137 0.87451 ]
      /N 1
   >>
   << /FunctionType 2
      /Domain [ 0 1 ]
      /C0 [ 0 0.843137 0.87451 ]
      /C1 [ 0 0.427451 0.941176 ]
      /N 1
   >>
   ]
   /Bounds [ 0.518 ]
   /Encode [ 1 1 2 { pop 0 1 } for ]
>>
def
   << /ShadingType 2
      /ColorSpace /DeviceRGB
      /Coords [ -19.403 443.403015 432.667999 -8.668 ]
      /Extend [ true true ]
      /Function CairoFunction
   >>
shfill
Q
Q Q
showpage
%%Trailer
end
%%EOF
