%!PS-Adobe-3.0 EPSF-3.0
%%Creator: cairo 1.16.0 (https://cairographics.org)
%%CreationDate: Thu Dec  3 11:23:53 2020
%%Pages: 1
%%DocumentData: Clean7Bit
%%LanguageLevel: 3
%%BoundingBox: 48 6 336 378
%%EndComments
%%BeginProlog
50 dict begin
/q { gsave } bind def
/Q { grestore } bind def
/cm { 6 array astore concat } bind def
/w { setlinewidth } bind def
/J { setlinecap } bind def
/j { setlinejoin } bind def
/M { setmiterlimit } bind def
/d { setdash } bind def
/m { moveto } bind def
/l { lineto } bind def
/c { curveto } bind def
/h { closepath } bind def
/re { exch dup neg 3 1 roll 5 3 roll moveto 0 rlineto
      0 exch rlineto 0 rlineto closepath } bind def
/S { stroke } bind def
/f { fill } bind def
/f* { eofill } bind def
/n { newpath } bind def
/W { clip } bind def
/W* { eoclip } bind def
/BT { } bind def
/ET { } bind def
/BDC { mark 3 1 roll /BDC pdfmark } bind def
/EMC { mark /EMC pdfmark } bind def
/cairo_store_point { /cairo_point_y exch def /cairo_point_x exch def } def
/Tj { show currentpoint cairo_store_point } bind def
/TJ {
  {
    dup
    type /stringtype eq
    { show } { -0.001 mul 0 cairo_font_matrix dtransform rmoveto } ifelse
  } forall
  currentpoint cairo_store_point
} bind def
/cairo_selectfont { cairo_font_matrix aload pop pop pop 0 0 6 array astore
    cairo_font exch selectfont cairo_point_x cairo_point_y moveto } bind def
/Tf { pop /cairo_font exch def /cairo_font_matrix where
      { pop cairo_selectfont } if } bind def
/Td { matrix translate cairo_font_matrix matrix concatmatrix dup
      /cairo_font_matrix exch def dup 4 get exch 5 get cairo_store_point
      /cairo_font where { pop cairo_selectfont } if } bind def
/Tm { 2 copy 8 2 roll 6 array astore /cairo_font_matrix exch def
      cairo_store_point /cairo_font where { pop cairo_selectfont } if } bind def
/g { setgray } bind def
/rg { setrgbcolor } bind def
/d1 { setcachedevice } bind def
/cairo_data_source {
  CairoDataIndex CairoData length lt
    { CairoData CairoDataIndex get /CairoDataIndex CairoDataIndex 1 add def }
    { () } ifelse
} def
/cairo_flush_ascii85_file { cairo_ascii85_file status { cairo_ascii85_file flushfile } if } def
/cairo_image { image cairo_flush_ascii85_file } def
/cairo_imagemask { imagemask cairo_flush_ascii85_file } def
%%EndProlog
%%BeginSetup
%%EndSetup
%%Page: 1 1
%%BeginPageSetup
%%PageBoundingBox: 48 6 336 378
%%EndPageSetup
q 48 6 288 372 rectclip
1 0 0 -1 0 384 cm q
q
138 192 m 138 195.312 135.312 198 132 198 c 128.688 198 126 195.312 126
 192 c 126 188.688 128.688 186 132 186 c 135.312 186 138 188.688 138 192
 c h
138 192 m W n
[0.75 0 0 0.75 0 0] concat
/CairoFunction
<< /FunctionType 3
   /Domain [ 0 1 ]
   /Functions [
   << /FunctionType 2
      /Domain [ 0 1 ]
      /C0 [ 0 0.247059 0.541176 ]
      /C1 [ 0 0.843137 0.87451 ]
      /N 1
   >>
   << /FunctionType 2
      /Domain [ 0 1 ]
      /C0 [ 0 0.843137 0.87451 ]
      /C1 [ 0 0.427451 0.941176 ]
      /N 1
   >>
   ]
   /Bounds [ 0.518 ]
   /Encode [ 1 1 2 { pop 0 1 } for ]
>>
def
   << /ShadingType 2
      /ColorSpace /DeviceRGB
      /Coords [ -36.641998 468.641998 456.372986 -24.372999 ]
      /Extend [ true true ]
      /Function CairoFunction
   >>
shfill
Q
q
174 192 m 174 195.312 171.312 198 168 198 c 164.688 198 162 195.312 162
 192 c 162 188.688 164.688 186 168 186 c 171.312 186 174 188.688 174 192
 c h
174 192 m W n
[0.75 0 0 0.75 0 0] concat
/CairoFunction
<< /FunctionType 3
   /Domain [ 0 1 ]
   /Functions [
   << /FunctionType 2
      /Domain [ 0 1 ]
      /C0 [ 0 0.247059 0.541176 ]
      /C1 [ 0 0.843137 0.87451 ]
      /N 1
   >>
   << /FunctionType 2
      /Domain [ 0 1 ]
      /C0 [ 0 0.843137 0.87451 ]
      /C1 [ 0 0.427451 0.941176 ]
      /N 1
   >>
   ]
   /Bounds [ 0.518 ]
   /Encode [ 1 1 2 { pop 0 1 } for ]
>>
def
   << /ShadingType 2
      /ColorSpace /DeviceRGB
      /Coords [ -12.642 492.641998 480.372986 -0.373 ]
      /Extend [ true true ]
      /Function CairoFunction
   >>
shfill
Q
q
335.863 74.977 m 335.836 63.395 326.445 54.02 314.863 54 c 252 54 l 252
 27 l 251.988 15.406 242.594 6.012 231 6 c 69 6 l 57.406 6.012 48.012 15.406
 48 27 c 48 357 l 48.012 368.594 57.406 377.988 69 378 c 231 378 l 242.594
 377.988 251.988 368.594 252 357 c 252 176.484 l 266.484 162 l 314.984 162
 l 320.559 162 325.906 159.785 329.844 155.84 c 333.785 151.895 335.992 
146.543 335.984 140.969 c h
178.312 18 m 175.312 30 l 124.688 30 l 121.688 18 l h
240 357 m 239.996 361.969 235.969 365.996 231 366 c 69 366 l 64.031 365.996
 60.004 361.969 60 357 c 60 336 l 240 336 l h
120 178.988 m 129.375 177.09 148.875 172.441 160.914 164.504 c 165.047 
169.477 171.988 176.484 180 179.023 c 180 210 l 179.984 223.25 169.25 233.984
 156 234 c 144 234 l 130.75 233.984 120.016 223.25 120 210 c h
114 167.91 m 114 162 l 114 142.117 130.117 126 150 126 c 169.883 126 186
 142.117 186 162 c 186 168 l 179.398 168 170.34 157.664 166.996 152.672 
c 165.996 151.176 164.379 150.207 162.59 150.031 c 160.801 149.852 159.027
 150.484 157.754 151.754 c 149.332 160.184 124.223 166.094 114 167.91 c 
h
138 249.996 m 138 245.488 l 139.98 245.828 141.988 246 144 246 c 156 246
 l 158.012 246 160.02 245.828 162 245.488 c 162 249.996 l 150 266.004 l 
h
141.398 274.523 m 134.324 279.238 l 127.297 265.184 l 131.348 261.137 l
 h
168.652 261.137 m 172.703 265.184 l 165.676 279.238 l 158.602 274.523 l
 h
130.461 293.797 m 130.965 293.934 131.48 294 132 294 c 133.184 294 134.344
 293.648 135.328 292.996 c 150 283.207 l 164.672 292.996 l 165.656 293.648
 166.816 294 168 294 c 168.52 294 169.035 293.934 169.539 293.797 c 171.203
 293.355 172.598 292.223 173.371 290.684 c 184.926 267.562 l 200.137 274.305
 209.957 289.363 210 306 c 210 324 l 90 324 l 90 306 l 90.043 289.363 99.863
 274.305 115.074 267.562 c 126.629 290.684 l 127.402 292.223 128.797 293.355
 130.461 293.797 c h
240 324 m 222 324 l 222 306 l 221.938 279.785 203.105 257.379 177.293 252.809
 c 174 249.516 l 174 241.156 l 181.414 236.859 187.062 230.07 189.938 222
 c 195 222 l 203.281 221.992 209.992 215.281 210 207 c 210 195 l 209.992
 187.875 204.98 181.734 198 180.301 c 198 162 l 198 135.492 176.508 114 
150 114 c 123.492 114 102 135.492 102 162 c 102 180.301 l 95.02 181.734 
90.008 187.875 90 195 c 90 207 l 90.008 215.281 96.719 221.992 105 222 c
 110.062 222 l 112.938 230.07 118.586 236.859 126 241.156 c 126 249.516 
l 122.707 252.809 l 96.895 257.379 78.062 279.785 78 306 c 78 324 l 60 324
 l 60 27 l 60.004 22.031 64.031 18.004 69 18 c 109.312 18 l 114.18 37.453
 l 114.848 40.125 117.246 42 120 42 c 180 42 l 182.754 42 185.152 40.125
 185.82 37.453 c 190.688 18 l 231 18 l 235.969 18.004 239.996 22.031 240
 27 c 240 54 l 225 54 l 213.406 54.012 204.012 63.406 204 75 c 204 141 l
 204.012 151.434 211.676 160.281 222 161.781 c 222 192 l 222 194.43 223.461
 196.617 225.703 197.547 c 227.945 198.477 230.527 197.965 232.246 196.246
 c 240 188.484 l h
192 210 m 192 192 l 195 192 l 196.656 192 198 193.344 198 195 c 198 207
 l 198 208.656 196.656 210 195 210 c h
108 192 m 108 210 l 105 210 l 103.344 210 102 208.656 102 207 c 102 195
 l 102 193.344 103.344 192 105 192 c h
321.352 147.359 m 319.668 149.055 317.375 150.008 314.984 150 c 264 150
 l 262.41 150 260.883 150.629 259.754 151.754 c 234 177.516 l 234 156 l 
234 152.688 231.312 150 228 150 c 225 150 l 220.031 149.996 216.004 145.969
 216 141 c 216 75 l 216.004 70.031 220.031 66.004 225 66 c 314.863 66 l 
319.828 66.008 323.852 70.027 323.863 74.992 c 323.984 140.992 l 323.996
 143.383 323.047 145.676 321.352 147.359 c h
321.352 147.359 m W n
[0.75 0 0 0.75 0 0] concat
/CairoFunction
<< /FunctionType 3
   /Domain [ 0 1 ]
   /Functions [
   << /FunctionType 2
      /Domain [ 0 1 ]
      /C0 [ 0 0.247059 0.541176 ]
      /C1 [ 0 0.843137 0.87451 ]
      /N 1
   >>
   << /FunctionType 2
      /Domain [ 0 1 ]
      /C0 [ 0 0.843137 0.87451 ]
      /C1 [ 0 0.427451 0.941176 ]
      /N 1
   >>
   ]
   /Bounds [ 0.518 ]
   /Encode [ 1 1 2 { pop 0 1 } for ]
>>
def
   << /ShadingType 2
      /ColorSpace /DeviceRGB
      /Coords [ -24.642 480.641998 468.372986 -12.373 ]
      /Extend [ true true ]
      /Function CairoFunction
   >>
shfill
Q
q
300 78 m 240 78 l 236.688 78 234 80.688 234 84 c 234 87.312 236.688 90 
240 90 c 300 90 l 303.312 90 306 87.312 306 84 c 306 80.688 303.312 78 300
 78 c h
300 78 m W n
[0.75 0 0 0.75 0 0] concat
/CairoFunction
<< /FunctionType 3
   /Domain [ 0 1 ]
   /Functions [
   << /FunctionType 2
      /Domain [ 0 1 ]
      /C0 [ 0 0.247059 0.541176 ]
      /C1 [ 0 0.843137 0.87451 ]
      /N 1
   >>
   << /FunctionType 2
      /Domain [ 0 1 ]
      /C0 [ 0 0.843137 0.87451 ]
      /C1 [ 0 0.427451 0.941176 ]
      /N 1
   >>
   ]
   /Bounds [ 0.518 ]
   /Encode [ 1 1 2 { pop 0 1 } for ]
>>
def
   << /ShadingType 2
      /ColorSpace /DeviceRGB
      /Coords [ -16.642 488.641998 476.372986 -4.373 ]
      /Extend [ true true ]
      /Function CairoFunction
   >>
shfill
Q
q
300 96 m 240 96 l 236.688 96 234 98.688 234 102 c 234 105.312 236.688 108
 240 108 c 300 108 l 303.312 108 306 105.312 306 102 c 306 98.688 303.312
 96 300 96 c h
300 96 m W n
[0.75 0 0 0.75 0 0] concat
/CairoFunction
<< /FunctionType 3
   /Domain [ 0 1 ]
   /Functions [
   << /FunctionType 2
      /Domain [ 0 1 ]
      /C0 [ 0 0.247059 0.541176 ]
      /C1 [ 0 0.843137 0.87451 ]
      /N 1
   >>
   << /FunctionType 2
      /Domain [ 0 1 ]
      /C0 [ 0 0.843137 0.87451 ]
      /C1 [ 0 0.427451 0.941176 ]
      /N 1
   >>
   ]
   /Bounds [ 0.518 ]
   /Encode [ 1 1 2 { pop 0 1 } for ]
>>
def
   << /ShadingType 2
      /ColorSpace /DeviceRGB
      /Coords [ -4.642 500.641998 488.372986 7.627 ]
      /Extend [ true true ]
      /Function CairoFunction
   >>
shfill
Q
q
264 114 m 240 114 l 236.688 114 234 116.688 234 120 c 234 123.312 236.688
 126 240 126 c 264 126 l 267.312 126 270 123.312 270 120 c 270 116.688 267.312
 114 264 114 c h
264 114 m W n
[0.75 0 0 0.75 0 0] concat
/CairoFunction
<< /FunctionType 3
   /Domain [ 0 1 ]
   /Functions [
   << /FunctionType 2
      /Domain [ 0 1 ]
      /C0 [ 0 0.247059 0.541176 ]
      /C1 [ 0 0.843137 0.87451 ]
      /N 1
   >>
   << /FunctionType 2
      /Domain [ 0 1 ]
      /C0 [ 0 0.843137 0.87451 ]
      /C1 [ 0 0.427451 0.941176 ]
      /N 1
   >>
   ]
   /Bounds [ 0.518 ]
   /Encode [ 1 1 2 { pop 0 1 } for ]
>>
def
   << /ShadingType 2
      /ColorSpace /DeviceRGB
      /Coords [ -4.642 500.641998 488.372986 7.627 ]
      /Extend [ true true ]
      /Function CairoFunction
   >>
shfill
Q
q
288 114 m 282 114 l 278.688 114 276 116.688 276 120 c 276 123.312 278.688
 126 282 126 c 288 126 l 291.312 126 294 123.312 294 120 c 294 116.688 291.312
 114 288 114 c h
288 114 m W n
[0.75 0 0 0.75 0 0] concat
/CairoFunction
<< /FunctionType 3
   /Domain [ 0 1 ]
   /Functions [
   << /FunctionType 2
      /Domain [ 0 1 ]
      /C0 [ 0 0.247059 0.541176 ]
      /C1 [ 0 0.843137 0.87451 ]
      /N 1
   >>
   << /FunctionType 2
      /Domain [ 0 1 ]
      /C0 [ 0 0.843137 0.87451 ]
      /C1 [ 0 0.427451 0.941176 ]
      /N 1
   >>
   ]
   /Bounds [ 0.518 ]
   /Encode [ 1 1 2 { pop 0 1 } for ]
>>
def
   << /ShadingType 2
      /ColorSpace /DeviceRGB
      /Coords [ 17.358 522.642029 510.372986 29.627001 ]
      /Extend [ true true ]
      /Function CairoFunction
   >>
shfill
Q
Q Q
showpage
%%Trailer
end
%%EOF
